%!PS-Adobe-3.0 EPSF-3.0
%%Title: plots/1.eps
%%Creator: matplotlib version 2.2.2, http://matplotlib.org/
%%CreationDate: Thu May 31 19:16:56 2018
%%Orientation: portrait
%%BoundingBox: 55 230 556 561
%%EndComments
%%BeginProlog
/mpldict 8 dict def
mpldict begin
/m { moveto } bind def
/l { lineto } bind def
/r { rlineto } bind def
/c { curveto } bind def
/cl { closepath } bind def
/box {
m
1 index 0 r
0 exch r
neg 0 r
cl
} bind def
/clipbox {
box
clip
newpath
} bind def
%!PS-Adobe-3.0 Resource-Font
%%Title: DejaVu Sans
%%Copyright: Copyright (c) 2003 by Bitstream, Inc. All Rights Reserved. Copyright (c) 2006 by Tavmjong Bah. All Rights Reserved. DejaVu changes are in public domain 
%%Creator: Converted from TrueType to type 3 by PPR
25 dict begin
/_d{bind def}bind def
/_m{moveto}_d
/_l{lineto}_d
/_cl{closepath eofill}_d
/_c{curveto}_d
/_sc{7 -1 roll{setcachedevice}{pop pop pop pop pop pop}ifelse}_d
/_e{exec}_d
/FontName /DejaVuSans def
/PaintType 0 def
/FontMatrix[.001 0 0 .001 0 0]def
/FontBBox[-1021 -463 1793 1232]def
/FontType 3 def
/Encoding [ /space /percent /parenleft /parenright /comma /hyphen /period /zero /one /two /three /four /five /six /eight /nine /equal /A /E /M /P /R /S /a /c /d /e /i /l /n /o /p /q /r /s /t /u ] def
/FontInfo 10 dict dup begin
/FamilyName (DejaVu Sans) def
/FullName (DejaVu Sans) def
/Notice (Copyright (c) 2003 by Bitstream, Inc. All Rights Reserved. Copyright (c) 2006 by Tavmjong Bah. All Rights Reserved. DejaVu changes are in public domain ) def
/Weight (Book) def
/Version (Version 2.35) def
/ItalicAngle 0.0 def
/isFixedPitch false def
/UnderlinePosition -130 def
/UnderlineThickness 90 def
end readonly def
/CharStrings 38 dict dup begin
/.notdef 0 def
/space{318 0 0 0 0 0 _sc
}_d
/percent{{950 0 55 -13 895 742 _sc
727 321 _m
699 321 676 309 660 285 _c
644 261 636 227 636 184 _c
636 142 644 108 660 84 _c
676 60 699 48 727 48 _c
755 48 777 60 793 84 _c
809 108 817 142 817 184 _c
817 226 809 260 793 284 _c
777 308 755 321 727 321 _c
727 383 _m
778 383 819 365 849 329 _c
879 293 895 244 895 184 _c
895 123 879 75 849 40 _c
819 4 778 -13 727 -13 _c
}_e{675 -13 633 4 603 40 _c
573 75 558 123 558 184 _c
558 245 573 293 603 329 _c
633 365 675 383 727 383 _c
223 680 _m
195 680 173 667 157 643 _c
141 619 133 586 133 544 _c
133 500 141 467 157 443 _c
173 419 195 407 223 407 _c
251 407 274 419 290 443 _c
306 467 314 500 314 544 _c
314 586 305 619 289 643 _c
273 667 251 680 223 680 _c
664 742 _m
742 742 _l
286 -13 _l
}_e{208 -13 _l
664 742 _l
223 742 _m
274 742 315 724 346 688 _c
376 652 392 604 392 544 _c
392 482 376 434 346 398 _c
316 362 275 345 223 345 _c
171 345 130 362 100 398 _c
70 434 55 482 55 544 _c
55 604 70 652 100 688 _c
130 724 171 742 223 742 _c
_cl}_e}_d
/parenleft{390 0 86 -131 310 759 _sc
310 759 _m
266 683 234 609 213 536 _c
191 463 181 389 181 314 _c
181 238 191 164 213 91 _c
234 17 266 -56 310 -131 _c
232 -131 _l
183 -54 146 20 122 94 _c
98 168 86 241 86 314 _c
86 386 98 459 122 533 _c
146 607 182 682 232 759 _c
310 759 _l
_cl}_d
/parenright{390 0 80 -131 304 759 _sc
80 759 _m
158 759 _l
206 682 243 607 267 533 _c
291 459 304 386 304 314 _c
304 241 291 168 267 94 _c
243 20 206 -54 158 -131 _c
80 -131 _l
123 -56 155 17 177 91 _c
198 164 209 238 209 314 _c
209 389 198 463 177 536 _c
155 609 123 683 80 759 _c
_cl}_d
/comma{318 0 77 -115 220 124 _sc
117 124 _m
220 124 _l
220 40 _l
140 -115 _l
77 -115 _l
117 40 _l
117 124 _l
_cl}_d
/hyphen{361 0 49 234 312 314 _sc
49 314 _m
312 314 _l
312 234 _l
49 234 _l
49 314 _l
_cl}_d
/period{318 0 107 0 210 124 _sc
107 124 _m
210 124 _l
210 0 _l
107 0 _l
107 124 _l
_cl}_d
/zero{636 0 66 -13 570 742 _sc
318 664 _m
267 664 229 639 203 589 _c
177 539 165 464 165 364 _c
165 264 177 189 203 139 _c
229 89 267 64 318 64 _c
369 64 407 89 433 139 _c
458 189 471 264 471 364 _c
471 464 458 539 433 589 _c
407 639 369 664 318 664 _c
318 742 _m
399 742 461 709 505 645 _c
548 580 570 486 570 364 _c
570 241 548 147 505 83 _c
461 19 399 -13 318 -13 _c
236 -13 173 19 130 83 _c
87 147 66 241 66 364 _c
66 486 87 580 130 645 _c
173 709 236 742 318 742 _c
_cl}_d
/one{636 0 110 0 544 729 _sc
124 83 _m
285 83 _l
285 639 _l
110 604 _l
110 694 _l
284 729 _l
383 729 _l
383 83 _l
544 83 _l
544 0 _l
124 0 _l
124 83 _l
_cl}_d
/two{{636 0 73 0 536 742 _sc
192 83 _m
536 83 _l
536 0 _l
73 0 _l
73 83 _l
110 121 161 173 226 239 _c
290 304 331 346 348 365 _c
380 400 402 430 414 455 _c
426 479 433 504 433 528 _c
433 566 419 598 392 622 _c
365 646 330 659 286 659 _c
255 659 222 653 188 643 _c
154 632 117 616 78 594 _c
78 694 _l
118 710 155 722 189 730 _c
223 738 255 742 284 742 _c
}_e{359 742 419 723 464 685 _c
509 647 532 597 532 534 _c
532 504 526 475 515 449 _c
504 422 484 390 454 354 _c
446 344 420 317 376 272 _c
332 227 271 164 192 83 _c
_cl}_e}_d
/three{{636 0 76 -13 556 742 _sc
406 393 _m
453 383 490 362 516 330 _c
542 298 556 258 556 212 _c
556 140 531 84 482 45 _c
432 6 362 -13 271 -13 _c
240 -13 208 -10 176 -4 _c
144 1 110 10 76 22 _c
76 117 _l
103 101 133 89 166 81 _c
198 73 232 69 268 69 _c
330 69 377 81 409 105 _c
441 129 458 165 458 212 _c
458 254 443 288 413 312 _c
383 336 341 349 287 349 _c
}_e{202 349 _l
202 430 _l
291 430 _l
339 430 376 439 402 459 _c
428 478 441 506 441 543 _c
441 580 427 609 401 629 _c
374 649 336 659 287 659 _c
260 659 231 656 200 650 _c
169 644 135 635 98 623 _c
98 711 _l
135 721 170 729 203 734 _c
235 739 266 742 296 742 _c
370 742 429 725 473 691 _c
517 657 539 611 539 553 _c
539 513 527 479 504 451 _c
481 423 448 403 406 393 _c
_cl}_e}_d
/four{636 0 49 0 580 729 _sc
378 643 _m
129 254 _l
378 254 _l
378 643 _l
352 729 _m
476 729 _l
476 254 _l
580 254 _l
580 172 _l
476 172 _l
476 0 _l
378 0 _l
378 172 _l
49 172 _l
49 267 _l
352 729 _l
_cl}_d
/five{{636 0 77 -13 549 729 _sc
108 729 _m
495 729 _l
495 646 _l
198 646 _l
198 467 _l
212 472 227 476 241 478 _c
255 480 270 482 284 482 _c
365 482 429 459 477 415 _c
525 370 549 310 549 234 _c
549 155 524 94 475 51 _c
426 8 357 -13 269 -13 _c
238 -13 207 -10 175 -6 _c
143 -1 111 6 77 17 _c
77 116 _l
106 100 136 88 168 80 _c
199 72 232 69 267 69 _c
}_e{323 69 368 83 401 113 _c
433 143 450 183 450 234 _c
450 284 433 324 401 354 _c
368 384 323 399 267 399 _c
241 399 214 396 188 390 _c
162 384 135 375 108 363 _c
108 729 _l
_cl}_e}_d
/six{{636 0 70 -13 573 742 _sc
330 404 _m
286 404 251 388 225 358 _c
199 328 186 286 186 234 _c
186 181 199 139 225 109 _c
251 79 286 64 330 64 _c
374 64 409 79 435 109 _c
461 139 474 181 474 234 _c
474 286 461 328 435 358 _c
409 388 374 404 330 404 _c
526 713 _m
526 623 _l
501 635 476 644 451 650 _c
425 656 400 659 376 659 _c
310 659 260 637 226 593 _c
}_e{192 549 172 482 168 394 _c
187 422 211 444 240 459 _c
269 474 301 482 336 482 _c
409 482 467 459 509 415 _c
551 371 573 310 573 234 _c
573 159 550 99 506 54 _c
462 9 403 -13 330 -13 _c
246 -13 181 19 137 83 _c
92 147 70 241 70 364 _c
70 479 97 571 152 639 _c
206 707 280 742 372 742 _c
396 742 421 739 447 735 _c
472 730 498 723 526 713 _c
_cl}_e}_d
/eight{{636 0 68 -13 568 742 _sc
318 346 _m
271 346 234 333 207 308 _c
180 283 167 249 167 205 _c
167 161 180 126 207 101 _c
234 76 271 64 318 64 _c
364 64 401 76 428 102 _c
455 127 469 161 469 205 _c
469 249 455 283 429 308 _c
402 333 365 346 318 346 _c
219 388 _m
177 398 144 418 120 447 _c
96 476 85 511 85 553 _c
85 611 105 657 147 691 _c
188 725 245 742 318 742 _c
}_e{390 742 447 725 489 691 _c
530 657 551 611 551 553 _c
551 511 539 476 515 447 _c
491 418 459 398 417 388 _c
464 377 501 355 528 323 _c
554 291 568 251 568 205 _c
568 134 546 80 503 43 _c
459 5 398 -13 318 -13 _c
237 -13 175 5 132 43 _c
89 80 68 134 68 205 _c
68 251 81 291 108 323 _c
134 355 171 377 219 388 _c
183 544 _m
183 506 194 476 218 455 _c
}_e{242 434 275 424 318 424 _c
360 424 393 434 417 455 _c
441 476 453 506 453 544 _c
453 582 441 611 417 632 _c
393 653 360 664 318 664 _c
275 664 242 653 218 632 _c
194 611 183 582 183 544 _c
_cl}_e}_d
/nine{{636 0 63 -13 566 742 _sc
110 15 _m
110 105 _l
134 93 159 84 185 78 _c
210 72 235 69 260 69 _c
324 69 374 90 408 134 _c
442 178 462 244 468 334 _c
448 306 424 284 396 269 _c
367 254 335 247 300 247 _c
226 247 168 269 126 313 _c
84 357 63 417 63 494 _c
63 568 85 628 129 674 _c
173 719 232 742 306 742 _c
390 742 455 709 499 645 _c
543 580 566 486 566 364 _c
}_e{566 248 538 157 484 89 _c
429 21 356 -13 264 -13 _c
239 -13 214 -10 189 -6 _c
163 -2 137 5 110 15 _c
306 324 _m
350 324 385 339 411 369 _c
437 399 450 441 450 494 _c
450 546 437 588 411 618 _c
385 648 350 664 306 664 _c
262 664 227 648 201 618 _c
175 588 162 546 162 494 _c
162 441 175 399 201 369 _c
227 339 262 324 306 324 _c
_cl}_e}_d
/equal{838 0 106 172 732 454 _sc
106 454 _m
732 454 _l
732 372 _l
106 372 _l
106 454 _l
106 255 _m
732 255 _l
732 172 _l
106 172 _l
106 255 _l
_cl}_d
/A{684 0 8 0 676 729 _sc
342 632 _m
208 269 _l
476 269 _l
342 632 _l
286 729 _m
398 729 _l
676 0 _l
573 0 _l
507 187 _l
178 187 _l
112 0 _l
8 0 _l
286 729 _l
_cl}_d
/E{632 0 98 0 568 729 _sc
98 729 _m
559 729 _l
559 646 _l
197 646 _l
197 430 _l
544 430 _l
544 347 _l
197 347 _l
197 83 _l
568 83 _l
568 0 _l
98 0 _l
98 729 _l
_cl}_d
/M{863 0 98 0 765 729 _sc
98 729 _m
245 729 _l
431 233 _l
618 729 _l
765 729 _l
765 0 _l
669 0 _l
669 640 _l
481 140 _l
382 140 _l
194 640 _l
194 0 _l
98 0 _l
98 729 _l
_cl}_d
/P{603 0 98 0 569 729 _sc
197 648 _m
197 374 _l
321 374 _l
367 374 402 385 427 409 _c
452 433 465 467 465 511 _c
465 555 452 588 427 612 _c
402 636 367 648 321 648 _c
197 648 _l
98 729 _m
321 729 _l
402 729 464 710 506 673 _c
548 636 569 582 569 511 _c
569 439 548 384 506 348 _c
464 311 402 293 321 293 _c
197 293 _l
197 0 _l
98 0 _l
98 729 _l
_cl}_d
/R{{695 0 98 0 666 729 _sc
444 342 _m
465 334 486 319 506 296 _c
526 272 546 240 566 199 _c
666 0 _l
560 0 _l
467 187 _l
443 235 419 268 397 284 _c
374 300 343 308 304 308 _c
197 308 _l
197 0 _l
98 0 _l
98 729 _l
321 729 _l
404 729 466 711 507 677 _c
548 642 569 589 569 519 _c
569 473 558 434 537 404 _c
515 374 484 353 444 342 _c
197 648 _m
197 389 _l
321 389 _l
}_e{368 389 404 400 428 422 _c
452 444 465 476 465 519 _c
465 561 452 593 428 615 _c
404 637 368 648 321 648 _c
197 648 _l
_cl}_e}_d
/S{{635 0 66 -13 579 742 _sc
535 705 _m
535 609 _l
497 627 462 640 429 649 _c
395 657 363 662 333 662 _c
279 662 237 651 208 631 _c
179 610 165 580 165 542 _c
165 510 174 485 194 469 _c
213 452 250 439 304 429 _c
364 417 _l
437 403 491 378 526 343 _c
561 307 579 260 579 201 _c
579 130 555 77 508 41 _c
460 5 391 -13 300 -13 _c
265 -13 228 -9 189 -2 _c
}_e{150 5 110 16 69 32 _c
69 134 _l
109 111 148 94 186 83 _c
224 71 262 66 300 66 _c
356 66 399 77 430 99 _c
460 121 476 152 476 194 _c
476 230 465 258 443 278 _c
421 298 385 313 335 323 _c
275 335 _l
201 349 148 372 115 404 _c
82 435 66 478 66 534 _c
66 598 88 649 134 686 _c
179 723 242 742 322 742 _c
356 742 390 739 426 733 _c
461 727 497 717 535 705 _c
}_e{_cl}_e}_d
/a{{613 0 60 -13 522 560 _sc
343 275 _m
270 275 220 266 192 250 _c
164 233 150 205 150 165 _c
150 133 160 107 181 89 _c
202 70 231 61 267 61 _c
317 61 357 78 387 114 _c
417 149 432 196 432 255 _c
432 275 _l
343 275 _l
522 312 _m
522 0 _l
432 0 _l
432 83 _l
411 49 385 25 355 10 _c
325 -5 287 -13 243 -13 _c
187 -13 142 2 109 33 _c
76 64 60 106 60 159 _c
}_e{60 220 80 266 122 298 _c
163 329 224 345 306 345 _c
432 345 _l
432 354 _l
432 395 418 427 391 450 _c
364 472 326 484 277 484 _c
245 484 215 480 185 472 _c
155 464 127 453 100 439 _c
100 522 _l
132 534 164 544 195 550 _c
226 556 256 560 286 560 _c
365 560 424 539 463 498 _c
502 457 522 395 522 312 _c
_cl}_e}_d
/c{{550 0 55 -13 488 560 _sc
488 526 _m
488 442 _l
462 456 437 466 411 473 _c
385 480 360 484 334 484 _c
276 484 230 465 198 428 _c
166 391 150 339 150 273 _c
150 206 166 154 198 117 _c
230 80 276 62 334 62 _c
360 62 385 65 411 72 _c
437 79 462 90 488 104 _c
488 21 _l
462 9 436 0 410 -5 _c
383 -10 354 -13 324 -13 _c
242 -13 176 12 128 64 _c
}_e{79 115 55 185 55 273 _c
55 362 79 432 128 483 _c
177 534 244 560 330 560 _c
358 560 385 557 411 551 _c
437 545 463 537 488 526 _c
_cl}_e}_d
/d{{635 0 55 -13 544 760 _sc
454 464 _m
454 760 _l
544 760 _l
544 0 _l
454 0 _l
454 82 _l
435 49 411 25 382 10 _c
353 -5 319 -13 279 -13 _c
213 -13 159 13 117 65 _c
75 117 55 187 55 273 _c
55 359 75 428 117 481 _c
159 533 213 560 279 560 _c
319 560 353 552 382 536 _c
411 520 435 496 454 464 _c
148 273 _m
148 207 161 155 188 117 _c
215 79 253 61 301 61 _c
}_e{348 61 385 79 413 117 _c
440 155 454 207 454 273 _c
454 339 440 390 413 428 _c
385 466 348 485 301 485 _c
253 485 215 466 188 428 _c
161 390 148 339 148 273 _c
_cl}_e}_d
/e{{615 0 55 -13 562 560 _sc
562 296 _m
562 252 _l
149 252 _l
153 190 171 142 205 110 _c
238 78 284 62 344 62 _c
378 62 412 66 444 74 _c
476 82 509 95 541 113 _c
541 28 _l
509 14 476 3 442 -3 _c
408 -9 373 -13 339 -13 _c
251 -13 182 12 131 62 _c
80 112 55 181 55 268 _c
55 357 79 428 127 481 _c
175 533 241 560 323 560 _c
397 560 455 536 498 489 _c
}_e{540 441 562 377 562 296 _c
472 322 _m
471 371 457 410 431 440 _c
404 469 368 484 324 484 _c
274 484 234 469 204 441 _c
174 413 156 373 152 322 _c
472 322 _l
_cl}_e}_d
/i{278 0 94 0 184 760 _sc
94 547 _m
184 547 _l
184 0 _l
94 0 _l
94 547 _l
94 760 _m
184 760 _l
184 646 _l
94 646 _l
94 760 _l
_cl}_d
/l{278 0 94 0 184 760 _sc
94 760 _m
184 760 _l
184 0 _l
94 0 _l
94 760 _l
_cl}_d
/n{634 0 91 0 549 560 _sc
549 330 _m
549 0 _l
459 0 _l
459 327 _l
459 379 448 417 428 443 _c
408 469 378 482 338 482 _c
289 482 251 466 223 435 _c
195 404 181 362 181 309 _c
181 0 _l
91 0 _l
91 547 _l
181 547 _l
181 462 _l
202 494 227 519 257 535 _c
286 551 320 560 358 560 _c
420 560 468 540 500 501 _c
532 462 549 405 549 330 _c
_cl}_d
/o{612 0 55 -13 557 560 _sc
306 484 _m
258 484 220 465 192 427 _c
164 389 150 338 150 273 _c
150 207 163 156 191 118 _c
219 80 257 62 306 62 _c
354 62 392 80 420 118 _c
448 156 462 207 462 273 _c
462 337 448 389 420 427 _c
392 465 354 484 306 484 _c
306 560 _m
384 560 445 534 490 484 _c
534 433 557 363 557 273 _c
557 183 534 113 490 63 _c
445 12 384 -13 306 -13 _c
227 -13 165 12 121 63 _c
77 113 55 183 55 273 _c
55 363 77 433 121 484 _c
165 534 227 560 306 560 _c
_cl}_d
/p{{635 0 91 -207 580 560 _sc
181 82 _m
181 -207 _l
91 -207 _l
91 547 _l
181 547 _l
181 464 _l
199 496 223 520 252 536 _c
281 552 316 560 356 560 _c
422 560 476 533 518 481 _c
559 428 580 359 580 273 _c
580 187 559 117 518 65 _c
476 13 422 -13 356 -13 _c
316 -13 281 -5 252 10 _c
223 25 199 49 181 82 _c
487 273 _m
487 339 473 390 446 428 _c
418 466 381 485 334 485 _c
}_e{286 485 249 466 222 428 _c
194 390 181 339 181 273 _c
181 207 194 155 222 117 _c
249 79 286 61 334 61 _c
381 61 418 79 446 117 _c
473 155 487 207 487 273 _c
_cl}_e}_d
/q{{635 0 55 -207 544 560 _sc
148 273 _m
148 207 161 155 188 117 _c
215 79 253 61 301 61 _c
348 61 385 79 413 117 _c
440 155 454 207 454 273 _c
454 339 440 390 413 428 _c
385 466 348 485 301 485 _c
253 485 215 466 188 428 _c
161 390 148 339 148 273 _c
454 82 _m
435 49 411 25 382 10 _c
353 -5 319 -13 279 -13 _c
213 -13 159 13 117 65 _c
75 117 55 187 55 273 _c
}_e{55 359 75 428 117 481 _c
159 533 213 560 279 560 _c
319 560 353 552 382 536 _c
411 520 435 496 454 464 _c
454 547 _l
544 547 _l
544 -207 _l
454 -207 _l
454 82 _l
_cl}_e}_d
/r{411 0 91 0 411 560 _sc
411 463 _m
401 469 390 473 378 476 _c
366 478 353 480 339 480 _c
288 480 249 463 222 430 _c
194 397 181 350 181 288 _c
181 0 _l
91 0 _l
91 547 _l
181 547 _l
181 462 _l
199 495 224 520 254 536 _c
284 552 321 560 365 560 _c
371 560 378 559 386 559 _c
393 558 401 557 411 555 _c
411 463 _l
_cl}_d
/s{{521 0 54 -13 472 560 _sc
443 531 _m
443 446 _l
417 458 391 468 364 475 _c
336 481 308 485 279 485 _c
234 485 200 478 178 464 _c
156 450 145 430 145 403 _c
145 382 153 366 169 354 _c
185 342 217 330 265 320 _c
296 313 _l
360 299 405 279 432 255 _c
458 230 472 195 472 151 _c
472 100 452 60 412 31 _c
372 1 316 -13 246 -13 _c
216 -13 186 -10 154 -5 _c
}_e{122 0 89 8 54 20 _c
54 113 _l
87 95 120 82 152 74 _c
184 65 216 61 248 61 _c
290 61 323 68 346 82 _c
368 96 380 117 380 144 _c
380 168 371 187 355 200 _c
339 213 303 226 247 238 _c
216 245 _l
160 257 119 275 95 299 _c
70 323 58 356 58 399 _c
58 450 76 490 112 518 _c
148 546 200 560 268 560 _c
301 560 332 557 362 552 _c
391 547 418 540 443 531 _c
}_e{_cl}_e}_d
/t{392 0 27 0 368 702 _sc
183 702 _m
183 547 _l
368 547 _l
368 477 _l
183 477 _l
183 180 _l
183 135 189 106 201 94 _c
213 81 238 75 276 75 _c
368 75 _l
368 0 _l
276 0 _l
206 0 158 13 132 39 _c
106 65 93 112 93 180 _c
93 477 _l
27 477 _l
27 547 _l
93 547 _l
93 702 _l
183 702 _l
_cl}_d
/u{634 0 85 -13 543 560 _sc
85 216 _m
85 547 _l
175 547 _l
175 219 _l
175 167 185 129 205 103 _c
225 77 255 64 296 64 _c
344 64 383 79 411 110 _c
439 141 453 183 453 237 _c
453 547 _l
543 547 _l
543 0 _l
453 0 _l
453 84 _l
431 50 405 26 377 10 _c
348 -5 315 -13 277 -13 _c
214 -13 166 6 134 45 _c
101 83 85 140 85 216 _c
311 560 _m
311 560 _l
_cl}_d
end readonly def

/BuildGlyph
 {exch begin
 CharStrings exch
 2 copy known not{pop /.notdef}if
 true 3 1 roll get exec
 end}_d

/BuildChar {
 1 index /Encoding get exch get
 1 index /BuildGlyph get exec
}_d

FontName currentdict end definefont pop
end
%%EndProlog
mpldict begin
55.007 230.128 translate
501.985 331.744 0 0 clipbox
gsave
0 0 m
501.985375 0 l
501.985375 331.743875 l
0 331.743875 l
cl
1.000 setgray
fill
grestore
gsave
36.465625 23.871875 m
393.585625 23.871875 l
393.585625 289.983875 l
36.465625 289.983875 l
cl
1.000 setgray
fill
grestore
0.800 setlinewidth
1 setlinejoin
0 setlinecap
[] 0 setdash
0.000 setgray
gsave
/o {
gsave
newpath
translate
0.8 setlinewidth
1 setlinejoin
0 setlinecap
0 0 m
0 -3.5 l

gsave
0.000 setgray
fill
grestore
stroke
grestore
} bind def
52.6984 23.8719 o
grestore
/DejaVuSans findfont
10.000 scalefont
setfont
gsave
49.518665 9.278125 translate
0.000000 rotate
0.000000 0.000000 m /zero glyphshow
grestore
gsave
/o {
gsave
newpath
translate
0.8 setlinewidth
1 setlinejoin
0 setlinecap
0 0 m
0 -3.5 l

gsave
0.000 setgray
fill
grestore
stroke
grestore
} bind def
97.6644 23.8719 o
grestore
gsave
91.304981 9.278125 translate
0.000000 rotate
0.000000 0.000000 m /five glyphshow
6.362305 0.000000 m /zero glyphshow
grestore
gsave
/o {
gsave
newpath
translate
0.8 setlinewidth
1 setlinejoin
0 setlinecap
0 0 m
0 -3.5 l

gsave
0.000 setgray
fill
grestore
stroke
grestore
} bind def
142.63 23.8719 o
grestore
gsave
133.091297 9.278125 translate
0.000000 rotate
0.000000 0.000000 m /one glyphshow
6.362305 0.000000 m /zero glyphshow
12.724609 0.000000 m /zero glyphshow
grestore
gsave
/o {
gsave
newpath
translate
0.8 setlinewidth
1 setlinejoin
0 setlinecap
0 0 m
0 -3.5 l

gsave
0.000 setgray
fill
grestore
stroke
grestore
} bind def
187.596 23.8719 o
grestore
gsave
178.057300 9.278125 translate
0.000000 rotate
0.000000 0.000000 m /one glyphshow
6.362305 0.000000 m /five glyphshow
12.724609 0.000000 m /zero glyphshow
grestore
gsave
/o {
gsave
newpath
translate
0.8 setlinewidth
1 setlinejoin
0 setlinecap
0 0 m
0 -3.5 l

gsave
0.000 setgray
fill
grestore
stroke
grestore
} bind def
232.562 23.8719 o
grestore
gsave
223.023304 9.278125 translate
0.000000 rotate
0.000000 0.000000 m /two glyphshow
6.362305 0.000000 m /zero glyphshow
12.724609 0.000000 m /zero glyphshow
grestore
gsave
/o {
gsave
newpath
translate
0.8 setlinewidth
1 setlinejoin
0 setlinecap
0 0 m
0 -3.5 l

gsave
0.000 setgray
fill
grestore
stroke
grestore
} bind def
277.528 23.8719 o
grestore
gsave
267.989307 9.278125 translate
0.000000 rotate
0.000000 0.000000 m /two glyphshow
6.362305 0.000000 m /five glyphshow
12.724609 0.000000 m /zero glyphshow
grestore
gsave
/o {
gsave
newpath
translate
0.8 setlinewidth
1 setlinejoin
0 setlinecap
0 0 m
0 -3.5 l

gsave
0.000 setgray
fill
grestore
stroke
grestore
} bind def
322.494 23.8719 o
grestore
gsave
312.955311 9.278125 translate
0.000000 rotate
0.000000 0.000000 m /three glyphshow
6.362305 0.000000 m /zero glyphshow
12.724609 0.000000 m /zero glyphshow
grestore
gsave
/o {
gsave
newpath
translate
0.8 setlinewidth
1 setlinejoin
0 setlinecap
0 0 m
0 -3.5 l

gsave
0.000 setgray
fill
grestore
stroke
grestore
} bind def
367.46 23.8719 o
grestore
gsave
357.921314 9.278125 translate
0.000000 rotate
0.000000 0.000000 m /three glyphshow
6.362305 0.000000 m /five glyphshow
12.724609 0.000000 m /zero glyphshow
grestore
gsave
/o {
gsave
newpath
translate
0.8 setlinewidth
1 setlinejoin
0 setlinecap
0 0 m
-3.5 0 l

gsave
0.000 setgray
fill
grestore
stroke
grestore
} bind def
36.4656 35.7161 o
grestore
gsave
7.200000 31.919201 translate
0.000000 rotate
0.000000 0.000000 m /one glyphshow
6.362305 0.000000 m /period glyphshow
9.541016 0.000000 m /zero glyphshow
15.903320 0.000000 m /four glyphshow
grestore
gsave
/o {
gsave
newpath
translate
0.8 setlinewidth
1 setlinejoin
0 setlinecap
0 0 m
-3.5 0 l

gsave
0.000 setgray
fill
grestore
stroke
grestore
} bind def
36.4656 65.3395 o
grestore
gsave
7.200000 61.542662 translate
0.000000 rotate
0.000000 0.000000 m /one glyphshow
6.362305 0.000000 m /period glyphshow
9.541016 0.000000 m /zero glyphshow
15.903320 0.000000 m /six glyphshow
grestore
gsave
/o {
gsave
newpath
translate
0.8 setlinewidth
1 setlinejoin
0 setlinecap
0 0 m
-3.5 0 l

gsave
0.000 setgray
fill
grestore
stroke
grestore
} bind def
36.4656 94.963 o
grestore
gsave
7.200000 91.166124 translate
0.000000 rotate
0.000000 0.000000 m /one glyphshow
6.362305 0.000000 m /period glyphshow
9.541016 0.000000 m /zero glyphshow
15.903320 0.000000 m /eight glyphshow
grestore
gsave
/o {
gsave
newpath
translate
0.8 setlinewidth
1 setlinejoin
0 setlinecap
0 0 m
-3.5 0 l

gsave
0.000 setgray
fill
grestore
stroke
grestore
} bind def
36.4656 124.586 o
grestore
gsave
7.200000 120.789586 translate
0.000000 rotate
0.000000 0.000000 m /one glyphshow
6.362305 0.000000 m /period glyphshow
9.541016 0.000000 m /one glyphshow
15.903320 0.000000 m /zero glyphshow
grestore
gsave
/o {
gsave
newpath
translate
0.8 setlinewidth
1 setlinejoin
0 setlinecap
0 0 m
-3.5 0 l

gsave
0.000 setgray
fill
grestore
stroke
grestore
} bind def
36.4656 154.21 o
grestore
gsave
7.200000 150.413047 translate
0.000000 rotate
0.000000 0.000000 m /one glyphshow
6.362305 0.000000 m /period glyphshow
9.541016 0.000000 m /one glyphshow
15.903320 0.000000 m /two glyphshow
grestore
gsave
/o {
gsave
newpath
translate
0.8 setlinewidth
1 setlinejoin
0 setlinecap
0 0 m
-3.5 0 l

gsave
0.000 setgray
fill
grestore
stroke
grestore
} bind def
36.4656 183.833 o
grestore
gsave
7.200000 180.036509 translate
0.000000 rotate
0.000000 0.000000 m /one glyphshow
6.362305 0.000000 m /period glyphshow
9.541016 0.000000 m /one glyphshow
15.903320 0.000000 m /four glyphshow
grestore
gsave
/o {
gsave
newpath
translate
0.8 setlinewidth
1 setlinejoin
0 setlinecap
0 0 m
-3.5 0 l

gsave
0.000 setgray
fill
grestore
stroke
grestore
} bind def
36.4656 213.457 o
grestore
gsave
7.200000 209.659971 translate
0.000000 rotate
0.000000 0.000000 m /one glyphshow
6.362305 0.000000 m /period glyphshow
9.541016 0.000000 m /one glyphshow
15.903320 0.000000 m /six glyphshow
grestore
gsave
/o {
gsave
newpath
translate
0.8 setlinewidth
1 setlinejoin
0 setlinecap
0 0 m
-3.5 0 l

gsave
0.000 setgray
fill
grestore
stroke
grestore
} bind def
36.4656 243.08 o
grestore
gsave
7.200000 239.283432 translate
0.000000 rotate
0.000000 0.000000 m /one glyphshow
6.362305 0.000000 m /period glyphshow
9.541016 0.000000 m /one glyphshow
15.903320 0.000000 m /eight glyphshow
grestore
gsave
/o {
gsave
newpath
translate
0.8 setlinewidth
1 setlinejoin
0 setlinecap
0 0 m
-3.5 0 l

gsave
0.000 setgray
fill
grestore
stroke
grestore
} bind def
36.4656 272.704 o
grestore
gsave
7.200000 268.906894 translate
0.000000 rotate
0.000000 0.000000 m /one glyphshow
6.362305 0.000000 m /period glyphshow
9.541016 0.000000 m /two glyphshow
15.903320 0.000000 m /zero glyphshow
grestore
1.500 setlinewidth
2 setlinecap
0.122 0.467 0.706 setrgbcolor
gsave
357.1 266.1 36.47 23.87 clipbox
52.698352 52.749566 m
54.496992 35.967875 l
55.396312 48.454164 l
56.295633 65.176608 l
57.194953 55.578607 l
58.094273 55.26756 l
58.993593 54.689903 l
59.892913 60.65903 l
60.792233 59.548151 l
61.691553 61.207064 l
62.590873 68.598118 l
63.490193 70.834689 l
64.389513 71.249418 l
65.288833 65.606148 l
66.188153 65.221043 l
67.087473 80.862231 l
67.986793 70.997618 l
68.886114 74.241388 l
69.785434 79.48474 l
70.684754 80.003151 l
71.584074 80.906666 l
72.483394 86.579559 l
73.382714 85.024328 l
74.282034 87.86818 l
75.181354 76.522394 l
76.080674 79.39587 l
76.979994 79.840222 l
77.879314 82.373028 l
78.778634 79.336623 l
79.677954 94.385341 l
80.577274 90.460233 l
81.476595 89.290106 l
82.375915 91.941406 l
83.275235 92.0599 l
84.174555 94.074295 l
85.073875 87.631192 l
85.973195 78.388672 l
86.872515 78.225743 l
88.671155 70.893936 l
89.570475 70.819878 l
90.469795 68.835106 l
91.369115 64.717445 l
92.268435 61.799534 l
93.167755 65.62096 l
94.067076 76.196536 l
94.966396 66.554099 l
95.865716 67.235439 l
96.765036 66.228241 l
97.664356 67.50205 l
98.563676 57.05978 l
99.462996 60.318361 l
100.362316 62.614179 l
101.261636 59.562962 l
102.160956 58.081789 l
103.060276 60.422043 l
103.959596 63.843552 l
104.858916 64.554516 l
105.758236 57.311579 l
106.657557 51.564628 l
107.556877 67.664979 l
108.456197 68.035272 l
109.355517 65.695019 l
110.254837 62.732673 l
111.154157 60.896018 l
112.053477 56.896851 l
112.952797 62.673426 l
113.852117 78.166496 l
114.751437 75.707749 l
115.650757 76.552018 l
116.550077 73.115696 l
117.449397 65.87276 l
118.348717 85.172445 l
119.248037 89.852952 l
120.147358 85.572362 l
121.945998 84.654034 l
122.845318 85.98709 l
123.744638 96.444172 l
125.543278 92.341323 l
126.442598 94.518647 l
127.341918 94.222412 l
128.241238 100.324846 l
129.140558 104.324013 l
130.039878 96.488607 l
130.939198 89.630776 l
131.838518 76.255783 l
132.737839 72.967579 l
133.637159 74.670928 l
134.536479 74.300634 l
135.435799 75.54482 l
136.335119 76.137289 l
137.234439 74.537622 l
138.133759 71.797452 l
139.033079 63.784306 l
139.932399 63.384389 l
141.731039 66.006065 l
142.630359 74.77461 l
143.529679 67.279874 l
144.428999 66.924392 l
145.32832 67.07251 l
146.22764 67.650167 l
147.12696 71.619711 l
148.02628 84.654034 l
148.9256 81.647253 l
150.72424 83.794954 l
151.62356 112.366783 l
152.52288 104.90167 l
153.4222 113.492474 l
154.32152 110.248705 l
155.22084 105.657069 l
156.12016 108.678662 l
157.01948 108.767532 l
157.918801 111.255903 l
158.818121 109.493307 l
159.717441 113.922014 l
160.616761 107.345606 l
161.516081 122.261019 l
162.415401 123.993991 l
163.314721 123.845874 l
164.214041 127.104455 l
165.113361 113.28511 l
166.012681 105.775563 l
167.811321 103.95372 l
168.710641 113.922014 l
169.609961 113.62578 l
170.509282 114.159002 l
171.408602 120.913151 l
172.307922 136.791327 l
173.207242 148.063054 l
174.106562 139.842543 l
175.005882 155.039379 l
175.905202 154.802392 l
176.804522 153.054607 l
177.703842 159.645828 l
178.603162 151.499376 l
179.502482 156.816787 l
180.401802 155.661472 l
181.301122 151.395694 l
182.200442 150.803224 l
183.999083 148.596276 l
184.898403 152.13628 l
185.797723 160.593778 l
186.697043 156.046577 l
187.596363 166.4296 l
188.495683 165.91119 l
189.395003 164.726251 l
190.294323 162.223069 l
191.193643 165.496461 l
192.092963 162.445245 l
192.992283 156.283565 l
193.891603 153.350842 l
194.790923 153.321219 l
195.690243 155.246744 l
196.589564 154.53578 l
197.488884 155.720719 l
198.388204 156.639046 l
199.287524 145.870918 l
200.186844 153.513771 l
201.086164 151.79561 l
201.985484 154.802392 l
202.884804 146.448575 l
203.784124 144.374933 l
204.683444 149.425733 l
205.582764 146.907739 l
206.482084 153.232348 l
207.381404 151.691928 l
208.280724 153.661888 l
209.180045 151.262388 l
210.079365 174.679734 l
210.978685 180.352627 l
211.878005 189.758076 l
212.777325 187.536317 l
213.676645 187.832551 l
214.575965 186.055144 l
215.475285 178.412291 l
216.374605 175.686932 l
217.273925 176.531201 l
218.173245 187.04753 l
219.072565 183.774137 l
219.971885 183.537149 l
220.871205 183.181668 l
221.770526 183.62602 l
222.669846 193.816491 l
223.569166 185.462674 l
224.468486 183.300162 l
225.367806 193.994231 l
226.267126 192.912975 l
227.166446 194.542265 l
228.065766 195.312476 l
228.965086 206.436085 l
229.864406 200.65951 l
230.763726 217.722624 l
231.663046 222.343884 l
232.562366 222.195767 l
233.461686 222.936354 l
234.361007 219.425973 l
235.260327 220.270242 l
236.159647 233.008331 l
237.058967 224.491585 l
237.958287 235.348584 l
238.857607 235.822559 l
239.756927 235.022726 l
240.656247 249.153117 l
241.555567 243.213613 l
242.454887 251.286006 l
243.354207 253.28559 l
244.253527 238.725659 l
245.152847 238.933023 l
246.052167 238.784906 l
246.951488 242.236039 l
247.850808 235.807748 l
248.750128 236.948251 l
249.649448 238.844152 l
250.548768 246.01303 l
251.448088 246.649935 l
252.347408 245.850101 l
254.146048 233.230506 l
255.045368 238.103566 l
255.944688 231.616028 l
256.844008 236.948251 l
257.743328 237.155615 l
258.642648 236.503899 l
259.541968 245.228008 l
260.441289 237.229674 l
261.340609 243.969011 l
262.239929 242.887755 l
263.139249 261.135807 l
264.038569 261.446854 l
264.937889 264.349953 l
265.837209 269.489624 l
266.736529 268.408367 l
267.635849 255.344421 l
268.535169 259.210282 l
269.434489 251.671111 l
270.333809 251.522994 l
271.233129 255.018563 l
273.03177 259.891622 l
273.93109 260.350786 l
274.83041 275.666115 l
275.72973 277.650887 l
276.62905 277.887875 l
277.52837 275.073646 l
278.42769 265.60895 l
279.32701 267.593722 l
280.22633 255.611032 l
281.12565 260.632209 l
282.02497 264.187024 l
282.92429 264.083342 l
283.82361 260.765514 l
284.72293 265.371962 l
285.622251 271.815065 l
286.521571 256.499736 l
287.420891 263.861166 l
288.320211 264.83874 l
289.219531 265.446021 l
291.917491 241.82131 l
292.816811 234.88942 l
293.716131 240.843736 l
294.615451 244.976209 l
295.514771 245.005833 l
296.414091 241.628758 l
297.313411 232.904648 l
298.212732 234.489504 l
299.112052 237.007498 l
300.011372 229.764561 l
300.910692 232.697284 l
301.810012 232.104815 l
302.709332 232.208497 l
303.608652 234.089587 l
304.507972 244.117129 l
305.407292 251.671111 l
306.306612 247.420145 l
308.105252 244.561481 l
309.004572 242.473027 l
309.903892 237.97026 l
310.803213 241.154782 l
311.702533 250.63429 l
312.601853 240.562313 l
313.501173 240.562313 l
314.400493 237.614779 l
315.299813 235.585572 l
316.199133 237.407415 l
317.098453 244.857715 l
317.997773 220.862711 l
318.897093 214.671408 l
319.796413 214.34555 l
320.695733 214.301114 l
321.595053 220.714594 l
322.494373 220.240619 l
323.393693 216.137769 l
324.293014 222.032838 l
325.192334 214.34555 l
326.091654 214.197432 l
326.990974 215.086136 l
327.890294 214.819525 l
328.789614 212.005296 l
329.688934 213.160611 l
330.588254 219.662961 l
331.487574 223.084471 l
332.386894 222.788236 l
333.286214 221.158946 l
334.185534 223.573258 l
335.084854 242.028675 l
335.984174 241.880557 l
336.883495 238.6516 l
337.782815 242.280474 l
338.682135 241.228841 l
339.581455 240.710431 l
340.480775 232.563979 l
341.380095 233.926658 l
342.279415 245.983407 l
343.178735 250.589855 l
344.078055 262.424428 l
344.977375 262.483675 l
345.876695 263.63899 l
346.776015 257.803168 l
347.675335 249.182741 l
348.574655 250.619479 l
349.473976 258.173461 l
350.373296 256.558983 l
351.272616 257.462498 l
352.171936 251.108266 l
353.071256 251.374877 l
353.970576 246.487006 l
354.869896 242.384156 l
355.769216 239.303316 l
356.668536 237.822143 l
357.567856 238.429424 l
358.467176 237.155615 l
359.366496 239.051517 l
360.265816 234.88942 l
361.165136 246.753617 l
362.064457 241.125159 l
362.963777 236.2521 l
363.863097 235.526325 l
364.762417 234.104399 l
365.661737 240.221643 l
366.561057 249.064247 l
367.460377 254.677893 l
368.359697 254.411282 l
369.259017 251.671111 l
370.158337 251.967346 l
371.057657 251.671111 l
371.956977 253.300402 l
372.856297 252.367263 l
373.755617 257.062581 l
374.654938 263.875978 l
375.554258 272.303852 l
376.453578 271.815065 l
377.352898 271.963183 l
377.352898 271.963183 l
stroke
grestore
1.000 0.498 0.055 setrgbcolor
gsave
357.1 266.1 36.47 23.87 clipbox
52.698352 54.514324 m
53.597672 55.489341 l
54.496992 51.694508 l
55.396312 45.513689 l
56.295633 46.290242 l
57.194953 55.216541 l
58.094273 59.133031 l
58.993593 59.901815 l
59.892913 57.359213 l
60.792233 59.639786 l
61.691553 60.86306 l
62.590873 62.595738 l
64.389513 69.569001 l
65.288833 72.125022 l
67.087473 68.579858 l
67.986793 73.792722 l
68.886114 74.311836 l
69.785434 76.256574 l
70.684754 77.206518 l
71.584074 79.774899 l
72.483394 81.519584 l
73.382714 84.318035 l
74.282034 85.602402 l
75.181354 87.632953 l
76.080674 83.340193 l
77.879314 80.202198 l
78.778634 82.070481 l
79.677954 81.661192 l
80.577274 87.688042 l
81.476595 89.933301 l
82.375915 91.689815 l
83.275235 91.55421 l
84.174555 92.147131 l
85.073875 93.645147 l
85.973195 91.559331 l
86.872515 86.134936 l
87.771835 81.759365 l
88.671155 77.994901 l
89.570475 75.294093 l
90.469795 73.307155 l
91.369115 71.624624 l
92.268435 69.256119 l
93.167755 66.304582 l
94.067076 66.085636 l
94.966396 71.065251 l
95.865716 71.093679 l
96.765036 70.858488 l
97.664356 68.427655 l
98.563676 68.815401 l
99.462996 64.550716 l
100.362316 63.028157 l
101.261636 62.601564 l
102.160956 62.759241 l
103.060276 61.725073 l
103.959596 61.562982 l
105.758236 65.273592 l
106.657557 63.208258 l
107.556877 58.720741 l
110.254837 68.701514 l
111.154157 66.815398 l
112.053477 64.593976 l
112.952797 61.658153 l
113.852117 62.459956 l
114.751437 69.8727 l
115.650757 74.897518 l
116.550077 78.058113 l
117.449397 76.296479 l
118.348717 72.37063 l
119.248037 77.541294 l
120.147358 83.767314 l
121.046678 87.815172 l
121.945998 87.403589 l
122.845318 86.081082 l
123.744638 86.396436 l
124.643958 91.118436 l
125.543278 93.795938 l
126.442598 94.687614 l
127.341918 94.504158 l
128.241238 94.552009 l
129.140558 97.545923 l
130.039878 101.039352 l
130.939198 100.344374 l
131.838518 95.959445 l
132.737839 86.397319 l
133.637159 79.338066 l
134.536479 75.984303 l
135.435799 75.594085 l
136.335119 76.398712 l
137.234439 76.945372 l
138.133759 76.734548 l
139.033079 75.220287 l
139.932399 70.620296 l
140.831719 67.370179 l
141.731039 65.942261 l
142.630359 66.813102 l
143.529679 71.233345 l
144.428999 71.054304 l
145.32832 70.622591 l
146.22764 68.856719 l
147.12696 69.065071 l
148.02628 70.957367 l
148.9256 77.825924 l
149.82492 81.451604 l
150.72424 83.943001 l
151.62356 84.045941 l
152.52288 96.730348 l
153.4222 102.576037 l
154.32152 110.487238 l
155.22084 110.028863 l
157.01948 108.193245 l
157.918801 108.101782 l
158.818121 109.876483 l
159.717441 109.911621 l
160.616761 111.819279 l
161.516081 109.984191 l
162.415401 115.306351 l
164.214041 122.98554 l
165.113361 124.718217 l
166.012681 119.827416 l
167.811321 107.276143 l
168.710641 104.897927 l
169.609961 108.638907 l
172.307922 116.75228 l
173.207242 125.667455 l
174.106562 136.850667 l
175.005882 140.460985 l
175.905202 146.969517 l
177.703842 152.307392 l
178.603162 154.510274 l
179.502482 152.675187 l
180.401802 153.94737 l
181.301122 153.215666 l
182.200442 152.275433 l
183.999083 148.798248 l
184.898403 147.864901 l
185.797723 148.778649 l
186.697043 153.206661 l
187.596363 154.680664 l
188.495683 159.62832 l
190.294323 163.264418 l
191.193643 161.722436 l
192.092963 162.071337 l
192.992283 161.20597 l
193.891603 158.413345 l
194.790923 154.585493 l
195.690243 152.261661 l
196.589564 152.395147 l
197.488884 152.676423 l
199.287524 153.99116 l
200.186844 149.982677 l
201.086164 150.135939 l
201.985484 149.275692 l
202.884804 151.777507 l
204.683444 146.020102 l
205.582764 145.607989 l
206.482084 145.61099 l
207.381404 148.67871 l
208.280724 149.383753 l
209.180045 151.198182 l
210.079365 150.430987 l
212.777325 180.180138 l
213.676645 183.418778 l
214.575965 185.022736 l
215.475285 183.850667 l
217.273925 176.236103 l
218.173245 174.006029 l
219.072565 178.093615 l
219.971885 180.118692 l
220.871205 181.429898 l
221.770526 180.455763 l
222.669846 180.480836 l
223.569166 184.851816 l
224.468486 184.533285 l
225.367806 183.399531 l
226.267126 185.350802 l
227.166446 187.668984 l
228.065766 190.482267 l
228.965086 191.058944 l
229.864406 196.380398 l
230.763726 197.513975 l
231.663046 205.526879 l
233.461686 216.647056 l
234.361007 217.975742 l
235.260327 216.681487 l
236.159647 216.134827 l
237.058967 220.983605 l
237.958287 221.467406 l
238.857607 226.383456 l
239.756927 227.951924 l
240.656247 230.249624 l
241.555567 236.1248 l
242.454887 237.969776 l
243.354207 243.503467 l
244.253527 245.637487 l
246.951488 233.570015 l
247.850808 235.03413 l
248.750128 233.333059 l
249.649448 232.641259 l
250.548768 232.318137 l
251.448088 236.260229 l
252.347408 239.529239 l
253.246728 241.286459 l
254.146048 238.337394 l
255.045368 233.119409 l
255.944688 231.784543 l
256.844008 229.018404 l
257.743328 230.410302 l
258.642648 230.641079 l
259.541968 231.65194 l
260.441289 235.195691 l
261.340609 234.327499 l
262.239929 236.955207 l
263.139249 236.625022 l
264.038569 246.640402 l
265.837209 259.078318 l
266.736529 262.506063 l
267.635849 264.707886 l
268.535169 259.462356 l
269.434489 256.507288 l
270.333809 250.801088 l
271.233129 249.175059 l
272.132449 248.755883 l
273.03177 251.024096 l
273.93109 253.95003 l
274.83041 255.659224 l
275.72973 263.713976 l
276.62905 270.562757 l
277.52837 274.854457 l
278.42769 274.44923 l
279.32701 269.284393 l
280.22633 265.956409 l
281.12565 258.272277 l
282.02497 257.050063 l
282.92429 257.247291 l
283.82361 259.754579 l
284.72293 259.112042 l
285.622251 260.09889 l
286.521571 263.872888 l
287.420891 260.063223 l
288.320211 259.989064 l
289.219531 258.899629 l
290.118851 261.440995 l
291.018171 258.235021 l
291.917491 252.233244 l
293.716131 235.588382 l
294.615451 233.915209 l
295.514771 235.909209 l
296.414091 238.933316 l
297.313411 238.457814 l
298.212732 233.345065 l
299.112052 230.57204 l
300.011372 230.121611 l
300.910692 228.187644 l
301.810012 227.791422 l
302.709332 226.775794 l
303.608652 227.311506 l
304.507972 228.004012 l
305.407292 232.8512 l
306.306612 239.971192 l
307.205932 243.24391 l
308.105252 243.14609 l
309.004572 240.842034 l
309.903892 238.983462 l
310.803213 235.755064 l
311.702533 235.149253 l
312.601853 239.502224 l
313.501173 238.868692 l
314.400493 237.940642 l
315.299813 233.994312 l
316.199133 232.232854 l
317.098453 231.707206 l
317.997773 234.955027 l
320.695733 211.694455 l
321.595053 210.155122 l
322.494373 212.783537 l
323.393693 214.535107 l
324.293014 214.123876 l
325.192334 215.256747 l
326.091654 212.862816 l
326.990974 211.800574 l
327.890294 210.367711 l
328.789614 210.492723 l
329.688934 209.422887 l
330.588254 208.989939 l
331.487574 211.452025 l
332.386894 215.156279 l
333.286214 217.569808 l
334.185534 217.574223 l
335.084854 218.030302 l
335.984174 226.21289 l
336.883495 232.351508 l
337.782815 235.195691 l
338.682135 235.754887 l
339.581455 235.644001 l
340.480775 236.008088 l
341.380095 232.053106 l
342.279415 230.018494 l
343.178735 233.673485 l
344.078055 240.060007 l
344.977375 250.400805 l
345.876695 255.721023 l
346.776015 259.443817 l
347.675335 257.111332 l
348.574655 251.361697 l
349.473976 247.520249 l
350.373296 249.265463 l
351.272616 251.482824 l
352.171936 253.369999 l
353.071256 250.260432 l
353.970576 248.44565 l
356.668536 236.866216 l
357.567856 234.114909 l
358.467176 233.212108 l
359.366496 232.518367 l
360.265816 233.071029 l
361.165136 231.59579 l
362.064457 235.812096 l
362.963777 236.126919 l
363.863097 235.068738 l
364.762417 231.919972 l
365.661737 229.977177 l
366.561057 231.96694 l
367.460377 237.410051 l
368.359697 244.727448 l
369.259017 248.857587 l
370.158337 248.975535 l
371.956977 247.337499 l
372.856297 248.077679 l
373.755617 248.118996 l
374.654938 250.442122 l
375.554258 255.009625 l
376.453578 262.497588 l
377.352898 267.356077 l
377.352898 267.356077 l
stroke
grestore
0.800 setlinewidth
0 setlinejoin
[] 0 setdash
0.000 setgray
gsave
36.465625 23.871875 m
36.465625 289.983875 l
stroke
grestore
gsave
393.585625 23.871875 m
393.585625 289.983875 l
stroke
grestore
gsave
36.465625 23.871875 m
393.585625 23.871875 l
stroke
grestore
gsave
36.465625 289.983875 m
393.585625 289.983875 l
stroke
grestore
/DejaVuSans findfont
12.000 scalefont
setfont
gsave
100.025625 295.983875 translate
0.000000 rotate
0.000000 0.000000 m /R glyphshow
8.337891 0.000000 m /M glyphshow
18.691406 0.000000 m /S glyphshow
26.308594 0.000000 m /E glyphshow
33.890625 0.000000 m /space glyphshow
37.705078 0.000000 m /equal glyphshow
47.759766 0.000000 m /space glyphshow
51.574219 0.000000 m /zero glyphshow
59.208984 0.000000 m /period glyphshow
63.023438 0.000000 m /zero glyphshow
70.658203 0.000000 m /zero glyphshow
78.292969 0.000000 m /five glyphshow
85.927734 0.000000 m /five glyphshow
93.562500 0.000000 m /six glyphshow
101.197266 0.000000 m /space glyphshow
105.011719 0.000000 m /R glyphshow
113.349609 0.000000 m /hyphen glyphshow
117.679688 0.000000 m /s glyphshow
123.931641 0.000000 m /q glyphshow
131.548828 0.000000 m /u glyphshow
139.154297 0.000000 m /a glyphshow
146.507812 0.000000 m /r glyphshow
151.441406 0.000000 m /e glyphshow
158.824219 0.000000 m /d glyphshow
166.441406 0.000000 m /space glyphshow
170.255859 0.000000 m /equal glyphshow
180.310547 0.000000 m /space glyphshow
184.125000 0.000000 m /nine glyphshow
191.759766 0.000000 m /eight glyphshow
199.394531 0.000000 m /period glyphshow
203.208984 0.000000 m /eight glyphshow
210.843750 0.000000 m /two glyphshow
218.478516 0.000000 m /percent glyphshow
grestore
1.000 setlinewidth
0 setlinecap
0.800 setgray
gsave
413.441625 257.640125 m
492.785375 257.640125 l
494.118708 257.640125 494.785375 258.306792 494.785375 259.640125 c
494.785375 287.983875 l
494.785375 289.317208 494.118708 289.983875 492.785375 289.983875 c
413.441625 289.983875 l
412.108292 289.983875 411.441625 289.317208 411.441625 287.983875 c
411.441625 259.640125 l
411.441625 258.306792 412.108292 257.640125 413.441625 257.640125 c
cl
gsave
1.000 setgray
fill
grestore
stroke
grestore
1.500 setlinewidth
1 setlinejoin
2 setlinecap
[] 0 setdash
0.122 0.467 0.706 setrgbcolor
gsave
415.441625 281.890125 m
435.441625 281.890125 l
stroke
grestore
0.000 setgray
/DejaVuSans findfont
10.000 scalefont
setfont
gsave
443.441625 278.390125 translate
0.000000 rotate
0.000000 0.000000 m /A glyphshow
6.840820 0.000000 m /c glyphshow
12.338867 0.000000 m /t glyphshow
16.259766 0.000000 m /u glyphshow
22.597656 0.000000 m /a glyphshow
28.725586 0.000000 m /l glyphshow
grestore
1.000 0.498 0.055 setrgbcolor
gsave
415.441625 267.21825 m
435.441625 267.21825 l
stroke
grestore
0.000 setgray
gsave
443.441625 263.718250 translate
0.000000 rotate
0.000000 0.000000 m /P glyphshow
6.030273 0.000000 m /r glyphshow
10.141602 0.000000 m /e glyphshow
16.293945 0.000000 m /d glyphshow
22.641602 0.000000 m /i glyphshow
25.419922 0.000000 m /c glyphshow
30.917969 0.000000 m /t glyphshow
34.838867 0.000000 m /e glyphshow
40.991211 0.000000 m /d glyphshow
grestore
/DejaVuSans findfont
12.000 scalefont
setfont
gsave
131.617188 315.418875 translate
0.000000 rotate
0.000000 0.000000 m /P glyphshow
7.236328 0.000000 m /e glyphshow
14.619141 0.000000 m /r glyphshow
19.552734 0.000000 m /c glyphshow
26.150391 0.000000 m /e glyphshow
33.533203 0.000000 m /p glyphshow
41.150391 0.000000 m /t glyphshow
45.855469 0.000000 m /r glyphshow
50.789062 0.000000 m /o glyphshow
58.130859 0.000000 m /n glyphshow
65.736328 0.000000 m /space glyphshow
69.550781 0.000000 m /parenleft glyphshow
74.232422 0.000000 m /three glyphshow
81.867188 0.000000 m /comma glyphshow
85.681641 0.000000 m /space glyphshow
89.496094 0.000000 m /five glyphshow
97.130859 0.000000 m /comma glyphshow
100.945312 0.000000 m /space glyphshow
104.759766 0.000000 m /two glyphshow
112.394531 0.000000 m /zero glyphshow
120.029297 0.000000 m /comma glyphshow
123.843750 0.000000 m /space glyphshow
127.658203 0.000000 m /four glyphshow
135.292969 0.000000 m /comma glyphshow
139.107422 0.000000 m /space glyphshow
142.921875 0.000000 m /one glyphshow
150.556641 0.000000 m /parenright glyphshow
grestore

end
showpage
