%!PS-Adobe-3.0 EPSF-3.0
%%Title: plots/11.eps
%%Creator: matplotlib version 2.2.2, http://matplotlib.org/
%%CreationDate: Thu May 31 19:19:10 2018
%%Orientation: portrait
%%BoundingBox: 55 230 556 561
%%EndComments
%%BeginProlog
/mpldict 8 dict def
mpldict begin
/m { moveto } bind def
/l { lineto } bind def
/r { rlineto } bind def
/c { curveto } bind def
/cl { closepath } bind def
/box {
m
1 index 0 r
0 exch r
neg 0 r
cl
} bind def
/clipbox {
box
clip
newpath
} bind def
%!PS-Adobe-3.0 Resource-Font
%%Title: DejaVu Sans
%%Copyright: Copyright (c) 2003 by Bitstream, Inc. All Rights Reserved. Copyright (c) 2006 by Tavmjong Bah. All Rights Reserved. DejaVu changes are in public domain 
%%Creator: Converted from TrueType to type 3 by PPR
25 dict begin
/_d{bind def}bind def
/_m{moveto}_d
/_l{lineto}_d
/_cl{closepath eofill}_d
/_c{curveto}_d
/_sc{7 -1 roll{setcachedevice}{pop pop pop pop pop pop}ifelse}_d
/_e{exec}_d
/FontName /DejaVuSans def
/PaintType 0 def
/FontMatrix[.001 0 0 .001 0 0]def
/FontBBox[-1021 -463 1793 1232]def
/FontType 3 def
/Encoding [ /space /percent /parenleft /parenright /comma /hyphen /period /zero /one /two /three /four /five /six /seven /eight /nine /equal /A /B /E /F /M /P /R /S /a /c /d /e /i /l /q /r /s /t /u ] def
/FontInfo 10 dict dup begin
/FamilyName (DejaVu Sans) def
/FullName (DejaVu Sans) def
/Notice (Copyright (c) 2003 by Bitstream, Inc. All Rights Reserved. Copyright (c) 2006 by Tavmjong Bah. All Rights Reserved. DejaVu changes are in public domain ) def
/Weight (Book) def
/Version (Version 2.35) def
/ItalicAngle 0.0 def
/isFixedPitch false def
/UnderlinePosition -130 def
/UnderlineThickness 90 def
end readonly def
/CharStrings 38 dict dup begin
/.notdef 0 def
/space{318 0 0 0 0 0 _sc
}_d
/percent{{950 0 55 -13 895 742 _sc
727 321 _m
699 321 676 309 660 285 _c
644 261 636 227 636 184 _c
636 142 644 108 660 84 _c
676 60 699 48 727 48 _c
755 48 777 60 793 84 _c
809 108 817 142 817 184 _c
817 226 809 260 793 284 _c
777 308 755 321 727 321 _c
727 383 _m
778 383 819 365 849 329 _c
879 293 895 244 895 184 _c
895 123 879 75 849 40 _c
819 4 778 -13 727 -13 _c
}_e{675 -13 633 4 603 40 _c
573 75 558 123 558 184 _c
558 245 573 293 603 329 _c
633 365 675 383 727 383 _c
223 680 _m
195 680 173 667 157 643 _c
141 619 133 586 133 544 _c
133 500 141 467 157 443 _c
173 419 195 407 223 407 _c
251 407 274 419 290 443 _c
306 467 314 500 314 544 _c
314 586 305 619 289 643 _c
273 667 251 680 223 680 _c
664 742 _m
742 742 _l
286 -13 _l
}_e{208 -13 _l
664 742 _l
223 742 _m
274 742 315 724 346 688 _c
376 652 392 604 392 544 _c
392 482 376 434 346 398 _c
316 362 275 345 223 345 _c
171 345 130 362 100 398 _c
70 434 55 482 55 544 _c
55 604 70 652 100 688 _c
130 724 171 742 223 742 _c
_cl}_e}_d
/parenleft{390 0 86 -131 310 759 _sc
310 759 _m
266 683 234 609 213 536 _c
191 463 181 389 181 314 _c
181 238 191 164 213 91 _c
234 17 266 -56 310 -131 _c
232 -131 _l
183 -54 146 20 122 94 _c
98 168 86 241 86 314 _c
86 386 98 459 122 533 _c
146 607 182 682 232 759 _c
310 759 _l
_cl}_d
/parenright{390 0 80 -131 304 759 _sc
80 759 _m
158 759 _l
206 682 243 607 267 533 _c
291 459 304 386 304 314 _c
304 241 291 168 267 94 _c
243 20 206 -54 158 -131 _c
80 -131 _l
123 -56 155 17 177 91 _c
198 164 209 238 209 314 _c
209 389 198 463 177 536 _c
155 609 123 683 80 759 _c
_cl}_d
/comma{318 0 77 -115 220 124 _sc
117 124 _m
220 124 _l
220 40 _l
140 -115 _l
77 -115 _l
117 40 _l
117 124 _l
_cl}_d
/hyphen{361 0 49 234 312 314 _sc
49 314 _m
312 314 _l
312 234 _l
49 234 _l
49 314 _l
_cl}_d
/period{318 0 107 0 210 124 _sc
107 124 _m
210 124 _l
210 0 _l
107 0 _l
107 124 _l
_cl}_d
/zero{636 0 66 -13 570 742 _sc
318 664 _m
267 664 229 639 203 589 _c
177 539 165 464 165 364 _c
165 264 177 189 203 139 _c
229 89 267 64 318 64 _c
369 64 407 89 433 139 _c
458 189 471 264 471 364 _c
471 464 458 539 433 589 _c
407 639 369 664 318 664 _c
318 742 _m
399 742 461 709 505 645 _c
548 580 570 486 570 364 _c
570 241 548 147 505 83 _c
461 19 399 -13 318 -13 _c
236 -13 173 19 130 83 _c
87 147 66 241 66 364 _c
66 486 87 580 130 645 _c
173 709 236 742 318 742 _c
_cl}_d
/one{636 0 110 0 544 729 _sc
124 83 _m
285 83 _l
285 639 _l
110 604 _l
110 694 _l
284 729 _l
383 729 _l
383 83 _l
544 83 _l
544 0 _l
124 0 _l
124 83 _l
_cl}_d
/two{{636 0 73 0 536 742 _sc
192 83 _m
536 83 _l
536 0 _l
73 0 _l
73 83 _l
110 121 161 173 226 239 _c
290 304 331 346 348 365 _c
380 400 402 430 414 455 _c
426 479 433 504 433 528 _c
433 566 419 598 392 622 _c
365 646 330 659 286 659 _c
255 659 222 653 188 643 _c
154 632 117 616 78 594 _c
78 694 _l
118 710 155 722 189 730 _c
223 738 255 742 284 742 _c
}_e{359 742 419 723 464 685 _c
509 647 532 597 532 534 _c
532 504 526 475 515 449 _c
504 422 484 390 454 354 _c
446 344 420 317 376 272 _c
332 227 271 164 192 83 _c
_cl}_e}_d
/three{{636 0 76 -13 556 742 _sc
406 393 _m
453 383 490 362 516 330 _c
542 298 556 258 556 212 _c
556 140 531 84 482 45 _c
432 6 362 -13 271 -13 _c
240 -13 208 -10 176 -4 _c
144 1 110 10 76 22 _c
76 117 _l
103 101 133 89 166 81 _c
198 73 232 69 268 69 _c
330 69 377 81 409 105 _c
441 129 458 165 458 212 _c
458 254 443 288 413 312 _c
383 336 341 349 287 349 _c
}_e{202 349 _l
202 430 _l
291 430 _l
339 430 376 439 402 459 _c
428 478 441 506 441 543 _c
441 580 427 609 401 629 _c
374 649 336 659 287 659 _c
260 659 231 656 200 650 _c
169 644 135 635 98 623 _c
98 711 _l
135 721 170 729 203 734 _c
235 739 266 742 296 742 _c
370 742 429 725 473 691 _c
517 657 539 611 539 553 _c
539 513 527 479 504 451 _c
481 423 448 403 406 393 _c
_cl}_e}_d
/four{636 0 49 0 580 729 _sc
378 643 _m
129 254 _l
378 254 _l
378 643 _l
352 729 _m
476 729 _l
476 254 _l
580 254 _l
580 172 _l
476 172 _l
476 0 _l
378 0 _l
378 172 _l
49 172 _l
49 267 _l
352 729 _l
_cl}_d
/five{{636 0 77 -13 549 729 _sc
108 729 _m
495 729 _l
495 646 _l
198 646 _l
198 467 _l
212 472 227 476 241 478 _c
255 480 270 482 284 482 _c
365 482 429 459 477 415 _c
525 370 549 310 549 234 _c
549 155 524 94 475 51 _c
426 8 357 -13 269 -13 _c
238 -13 207 -10 175 -6 _c
143 -1 111 6 77 17 _c
77 116 _l
106 100 136 88 168 80 _c
199 72 232 69 267 69 _c
}_e{323 69 368 83 401 113 _c
433 143 450 183 450 234 _c
450 284 433 324 401 354 _c
368 384 323 399 267 399 _c
241 399 214 396 188 390 _c
162 384 135 375 108 363 _c
108 729 _l
_cl}_e}_d
/six{{636 0 70 -13 573 742 _sc
330 404 _m
286 404 251 388 225 358 _c
199 328 186 286 186 234 _c
186 181 199 139 225 109 _c
251 79 286 64 330 64 _c
374 64 409 79 435 109 _c
461 139 474 181 474 234 _c
474 286 461 328 435 358 _c
409 388 374 404 330 404 _c
526 713 _m
526 623 _l
501 635 476 644 451 650 _c
425 656 400 659 376 659 _c
310 659 260 637 226 593 _c
}_e{192 549 172 482 168 394 _c
187 422 211 444 240 459 _c
269 474 301 482 336 482 _c
409 482 467 459 509 415 _c
551 371 573 310 573 234 _c
573 159 550 99 506 54 _c
462 9 403 -13 330 -13 _c
246 -13 181 19 137 83 _c
92 147 70 241 70 364 _c
70 479 97 571 152 639 _c
206 707 280 742 372 742 _c
396 742 421 739 447 735 _c
472 730 498 723 526 713 _c
_cl}_e}_d
/seven{636 0 82 0 551 729 _sc
82 729 _m
551 729 _l
551 687 _l
286 0 _l
183 0 _l
432 646 _l
82 646 _l
82 729 _l
_cl}_d
/eight{{636 0 68 -13 568 742 _sc
318 346 _m
271 346 234 333 207 308 _c
180 283 167 249 167 205 _c
167 161 180 126 207 101 _c
234 76 271 64 318 64 _c
364 64 401 76 428 102 _c
455 127 469 161 469 205 _c
469 249 455 283 429 308 _c
402 333 365 346 318 346 _c
219 388 _m
177 398 144 418 120 447 _c
96 476 85 511 85 553 _c
85 611 105 657 147 691 _c
188 725 245 742 318 742 _c
}_e{390 742 447 725 489 691 _c
530 657 551 611 551 553 _c
551 511 539 476 515 447 _c
491 418 459 398 417 388 _c
464 377 501 355 528 323 _c
554 291 568 251 568 205 _c
568 134 546 80 503 43 _c
459 5 398 -13 318 -13 _c
237 -13 175 5 132 43 _c
89 80 68 134 68 205 _c
68 251 81 291 108 323 _c
134 355 171 377 219 388 _c
183 544 _m
183 506 194 476 218 455 _c
}_e{242 434 275 424 318 424 _c
360 424 393 434 417 455 _c
441 476 453 506 453 544 _c
453 582 441 611 417 632 _c
393 653 360 664 318 664 _c
275 664 242 653 218 632 _c
194 611 183 582 183 544 _c
_cl}_e}_d
/nine{{636 0 63 -13 566 742 _sc
110 15 _m
110 105 _l
134 93 159 84 185 78 _c
210 72 235 69 260 69 _c
324 69 374 90 408 134 _c
442 178 462 244 468 334 _c
448 306 424 284 396 269 _c
367 254 335 247 300 247 _c
226 247 168 269 126 313 _c
84 357 63 417 63 494 _c
63 568 85 628 129 674 _c
173 719 232 742 306 742 _c
390 742 455 709 499 645 _c
543 580 566 486 566 364 _c
}_e{566 248 538 157 484 89 _c
429 21 356 -13 264 -13 _c
239 -13 214 -10 189 -6 _c
163 -2 137 5 110 15 _c
306 324 _m
350 324 385 339 411 369 _c
437 399 450 441 450 494 _c
450 546 437 588 411 618 _c
385 648 350 664 306 664 _c
262 664 227 648 201 618 _c
175 588 162 546 162 494 _c
162 441 175 399 201 369 _c
227 339 262 324 306 324 _c
_cl}_e}_d
/equal{838 0 106 172 732 454 _sc
106 454 _m
732 454 _l
732 372 _l
106 372 _l
106 454 _l
106 255 _m
732 255 _l
732 172 _l
106 172 _l
106 255 _l
_cl}_d
/A{684 0 8 0 676 729 _sc
342 632 _m
208 269 _l
476 269 _l
342 632 _l
286 729 _m
398 729 _l
676 0 _l
573 0 _l
507 187 _l
178 187 _l
112 0 _l
8 0 _l
286 729 _l
_cl}_d
/B{{686 0 98 0 615 729 _sc
197 348 _m
197 81 _l
355 81 _l
408 81 447 92 473 114 _c
498 136 511 169 511 215 _c
511 260 498 293 473 315 _c
447 337 408 348 355 348 _c
197 348 _l
197 648 _m
197 428 _l
343 428 _l
391 428 426 437 450 455 _c
474 473 486 500 486 538 _c
486 574 474 602 450 620 _c
426 638 391 648 343 648 _c
197 648 _l
98 729 _m
350 729 _l
}_e{425 729 483 713 524 682 _c
564 650 585 606 585 549 _c
585 504 574 468 553 442 _c
532 416 502 399 462 393 _c
510 382 548 360 575 327 _c
601 294 615 253 615 204 _c
615 138 592 88 548 53 _c
504 17 441 0 360 0 _c
98 0 _l
98 729 _l
_cl}_e}_d
/E{632 0 98 0 568 729 _sc
98 729 _m
559 729 _l
559 646 _l
197 646 _l
197 430 _l
544 430 _l
544 347 _l
197 347 _l
197 83 _l
568 83 _l
568 0 _l
98 0 _l
98 729 _l
_cl}_d
/F{575 0 98 0 517 729 _sc
98 729 _m
517 729 _l
517 646 _l
197 646 _l
197 431 _l
486 431 _l
486 348 _l
197 348 _l
197 0 _l
98 0 _l
98 729 _l
_cl}_d
/M{863 0 98 0 765 729 _sc
98 729 _m
245 729 _l
431 233 _l
618 729 _l
765 729 _l
765 0 _l
669 0 _l
669 640 _l
481 140 _l
382 140 _l
194 640 _l
194 0 _l
98 0 _l
98 729 _l
_cl}_d
/P{603 0 98 0 569 729 _sc
197 648 _m
197 374 _l
321 374 _l
367 374 402 385 427 409 _c
452 433 465 467 465 511 _c
465 555 452 588 427 612 _c
402 636 367 648 321 648 _c
197 648 _l
98 729 _m
321 729 _l
402 729 464 710 506 673 _c
548 636 569 582 569 511 _c
569 439 548 384 506 348 _c
464 311 402 293 321 293 _c
197 293 _l
197 0 _l
98 0 _l
98 729 _l
_cl}_d
/R{{695 0 98 0 666 729 _sc
444 342 _m
465 334 486 319 506 296 _c
526 272 546 240 566 199 _c
666 0 _l
560 0 _l
467 187 _l
443 235 419 268 397 284 _c
374 300 343 308 304 308 _c
197 308 _l
197 0 _l
98 0 _l
98 729 _l
321 729 _l
404 729 466 711 507 677 _c
548 642 569 589 569 519 _c
569 473 558 434 537 404 _c
515 374 484 353 444 342 _c
197 648 _m
197 389 _l
321 389 _l
}_e{368 389 404 400 428 422 _c
452 444 465 476 465 519 _c
465 561 452 593 428 615 _c
404 637 368 648 321 648 _c
197 648 _l
_cl}_e}_d
/S{{635 0 66 -13 579 742 _sc
535 705 _m
535 609 _l
497 627 462 640 429 649 _c
395 657 363 662 333 662 _c
279 662 237 651 208 631 _c
179 610 165 580 165 542 _c
165 510 174 485 194 469 _c
213 452 250 439 304 429 _c
364 417 _l
437 403 491 378 526 343 _c
561 307 579 260 579 201 _c
579 130 555 77 508 41 _c
460 5 391 -13 300 -13 _c
265 -13 228 -9 189 -2 _c
}_e{150 5 110 16 69 32 _c
69 134 _l
109 111 148 94 186 83 _c
224 71 262 66 300 66 _c
356 66 399 77 430 99 _c
460 121 476 152 476 194 _c
476 230 465 258 443 278 _c
421 298 385 313 335 323 _c
275 335 _l
201 349 148 372 115 404 _c
82 435 66 478 66 534 _c
66 598 88 649 134 686 _c
179 723 242 742 322 742 _c
356 742 390 739 426 733 _c
461 727 497 717 535 705 _c
}_e{_cl}_e}_d
/a{{613 0 60 -13 522 560 _sc
343 275 _m
270 275 220 266 192 250 _c
164 233 150 205 150 165 _c
150 133 160 107 181 89 _c
202 70 231 61 267 61 _c
317 61 357 78 387 114 _c
417 149 432 196 432 255 _c
432 275 _l
343 275 _l
522 312 _m
522 0 _l
432 0 _l
432 83 _l
411 49 385 25 355 10 _c
325 -5 287 -13 243 -13 _c
187 -13 142 2 109 33 _c
76 64 60 106 60 159 _c
}_e{60 220 80 266 122 298 _c
163 329 224 345 306 345 _c
432 345 _l
432 354 _l
432 395 418 427 391 450 _c
364 472 326 484 277 484 _c
245 484 215 480 185 472 _c
155 464 127 453 100 439 _c
100 522 _l
132 534 164 544 195 550 _c
226 556 256 560 286 560 _c
365 560 424 539 463 498 _c
502 457 522 395 522 312 _c
_cl}_e}_d
/c{{550 0 55 -13 488 560 _sc
488 526 _m
488 442 _l
462 456 437 466 411 473 _c
385 480 360 484 334 484 _c
276 484 230 465 198 428 _c
166 391 150 339 150 273 _c
150 206 166 154 198 117 _c
230 80 276 62 334 62 _c
360 62 385 65 411 72 _c
437 79 462 90 488 104 _c
488 21 _l
462 9 436 0 410 -5 _c
383 -10 354 -13 324 -13 _c
242 -13 176 12 128 64 _c
}_e{79 115 55 185 55 273 _c
55 362 79 432 128 483 _c
177 534 244 560 330 560 _c
358 560 385 557 411 551 _c
437 545 463 537 488 526 _c
_cl}_e}_d
/d{{635 0 55 -13 544 760 _sc
454 464 _m
454 760 _l
544 760 _l
544 0 _l
454 0 _l
454 82 _l
435 49 411 25 382 10 _c
353 -5 319 -13 279 -13 _c
213 -13 159 13 117 65 _c
75 117 55 187 55 273 _c
55 359 75 428 117 481 _c
159 533 213 560 279 560 _c
319 560 353 552 382 536 _c
411 520 435 496 454 464 _c
148 273 _m
148 207 161 155 188 117 _c
215 79 253 61 301 61 _c
}_e{348 61 385 79 413 117 _c
440 155 454 207 454 273 _c
454 339 440 390 413 428 _c
385 466 348 485 301 485 _c
253 485 215 466 188 428 _c
161 390 148 339 148 273 _c
_cl}_e}_d
/e{{615 0 55 -13 562 560 _sc
562 296 _m
562 252 _l
149 252 _l
153 190 171 142 205 110 _c
238 78 284 62 344 62 _c
378 62 412 66 444 74 _c
476 82 509 95 541 113 _c
541 28 _l
509 14 476 3 442 -3 _c
408 -9 373 -13 339 -13 _c
251 -13 182 12 131 62 _c
80 112 55 181 55 268 _c
55 357 79 428 127 481 _c
175 533 241 560 323 560 _c
397 560 455 536 498 489 _c
}_e{540 441 562 377 562 296 _c
472 322 _m
471 371 457 410 431 440 _c
404 469 368 484 324 484 _c
274 484 234 469 204 441 _c
174 413 156 373 152 322 _c
472 322 _l
_cl}_e}_d
/i{278 0 94 0 184 760 _sc
94 547 _m
184 547 _l
184 0 _l
94 0 _l
94 547 _l
94 760 _m
184 760 _l
184 646 _l
94 646 _l
94 760 _l
_cl}_d
/l{278 0 94 0 184 760 _sc
94 760 _m
184 760 _l
184 0 _l
94 0 _l
94 760 _l
_cl}_d
/q{{635 0 55 -207 544 560 _sc
148 273 _m
148 207 161 155 188 117 _c
215 79 253 61 301 61 _c
348 61 385 79 413 117 _c
440 155 454 207 454 273 _c
454 339 440 390 413 428 _c
385 466 348 485 301 485 _c
253 485 215 466 188 428 _c
161 390 148 339 148 273 _c
454 82 _m
435 49 411 25 382 10 _c
353 -5 319 -13 279 -13 _c
213 -13 159 13 117 65 _c
75 117 55 187 55 273 _c
}_e{55 359 75 428 117 481 _c
159 533 213 560 279 560 _c
319 560 353 552 382 536 _c
411 520 435 496 454 464 _c
454 547 _l
544 547 _l
544 -207 _l
454 -207 _l
454 82 _l
_cl}_e}_d
/r{411 0 91 0 411 560 _sc
411 463 _m
401 469 390 473 378 476 _c
366 478 353 480 339 480 _c
288 480 249 463 222 430 _c
194 397 181 350 181 288 _c
181 0 _l
91 0 _l
91 547 _l
181 547 _l
181 462 _l
199 495 224 520 254 536 _c
284 552 321 560 365 560 _c
371 560 378 559 386 559 _c
393 558 401 557 411 555 _c
411 463 _l
_cl}_d
/s{{521 0 54 -13 472 560 _sc
443 531 _m
443 446 _l
417 458 391 468 364 475 _c
336 481 308 485 279 485 _c
234 485 200 478 178 464 _c
156 450 145 430 145 403 _c
145 382 153 366 169 354 _c
185 342 217 330 265 320 _c
296 313 _l
360 299 405 279 432 255 _c
458 230 472 195 472 151 _c
472 100 452 60 412 31 _c
372 1 316 -13 246 -13 _c
216 -13 186 -10 154 -5 _c
}_e{122 0 89 8 54 20 _c
54 113 _l
87 95 120 82 152 74 _c
184 65 216 61 248 61 _c
290 61 323 68 346 82 _c
368 96 380 117 380 144 _c
380 168 371 187 355 200 _c
339 213 303 226 247 238 _c
216 245 _l
160 257 119 275 95 299 _c
70 323 58 356 58 399 _c
58 450 76 490 112 518 _c
148 546 200 560 268 560 _c
301 560 332 557 362 552 _c
391 547 418 540 443 531 _c
}_e{_cl}_e}_d
/t{392 0 27 0 368 702 _sc
183 702 _m
183 547 _l
368 547 _l
368 477 _l
183 477 _l
183 180 _l
183 135 189 106 201 94 _c
213 81 238 75 276 75 _c
368 75 _l
368 0 _l
276 0 _l
206 0 158 13 132 39 _c
106 65 93 112 93 180 _c
93 477 _l
27 477 _l
27 547 _l
93 547 _l
93 702 _l
183 702 _l
_cl}_d
/u{634 0 85 -13 543 560 _sc
85 216 _m
85 547 _l
175 547 _l
175 219 _l
175 167 185 129 205 103 _c
225 77 255 64 296 64 _c
344 64 383 79 411 110 _c
439 141 453 183 453 237 _c
453 547 _l
543 547 _l
543 0 _l
453 0 _l
453 84 _l
431 50 405 26 377 10 _c
348 -5 315 -13 277 -13 _c
214 -13 166 6 134 45 _c
101 83 85 140 85 216 _c
311 560 _m
311 560 _l
_cl}_d
end readonly def

/BuildGlyph
 {exch begin
 CharStrings exch
 2 copy known not{pop /.notdef}if
 true 3 1 roll get exec
 end}_d

/BuildChar {
 1 index /Encoding get exch get
 1 index /BuildGlyph get exec
}_d

FontName currentdict end definefont pop
end
%%EndProlog
mpldict begin
55.007 230.128 translate
501.985 331.744 0 0 clipbox
gsave
0 0 m
501.985375 0 l
501.985375 331.743875 l
0 331.743875 l
cl
1.000 setgray
fill
grestore
gsave
36.465625 23.871875 m
393.585625 23.871875 l
393.585625 289.983875 l
36.465625 289.983875 l
cl
1.000 setgray
fill
grestore
0.800 setlinewidth
1 setlinejoin
0 setlinecap
[] 0 setdash
0.000 setgray
gsave
/o {
gsave
newpath
translate
0.8 setlinewidth
1 setlinejoin
0 setlinecap
0 0 m
0 -3.5 l

gsave
0.000 setgray
fill
grestore
stroke
grestore
} bind def
52.6984 23.8719 o
grestore
/DejaVuSans findfont
10.000 scalefont
setfont
gsave
49.518665 9.278125 translate
0.000000 rotate
0.000000 0.000000 m /zero glyphshow
grestore
gsave
/o {
gsave
newpath
translate
0.8 setlinewidth
1 setlinejoin
0 setlinecap
0 0 m
0 -3.5 l

gsave
0.000 setgray
fill
grestore
stroke
grestore
} bind def
97.6644 23.8719 o
grestore
gsave
91.304981 9.278125 translate
0.000000 rotate
0.000000 0.000000 m /five glyphshow
6.362305 0.000000 m /zero glyphshow
grestore
gsave
/o {
gsave
newpath
translate
0.8 setlinewidth
1 setlinejoin
0 setlinecap
0 0 m
0 -3.5 l

gsave
0.000 setgray
fill
grestore
stroke
grestore
} bind def
142.63 23.8719 o
grestore
gsave
133.091297 9.278125 translate
0.000000 rotate
0.000000 0.000000 m /one glyphshow
6.362305 0.000000 m /zero glyphshow
12.724609 0.000000 m /zero glyphshow
grestore
gsave
/o {
gsave
newpath
translate
0.8 setlinewidth
1 setlinejoin
0 setlinecap
0 0 m
0 -3.5 l

gsave
0.000 setgray
fill
grestore
stroke
grestore
} bind def
187.596 23.8719 o
grestore
gsave
178.057300 9.278125 translate
0.000000 rotate
0.000000 0.000000 m /one glyphshow
6.362305 0.000000 m /five glyphshow
12.724609 0.000000 m /zero glyphshow
grestore
gsave
/o {
gsave
newpath
translate
0.8 setlinewidth
1 setlinejoin
0 setlinecap
0 0 m
0 -3.5 l

gsave
0.000 setgray
fill
grestore
stroke
grestore
} bind def
232.562 23.8719 o
grestore
gsave
223.023304 9.278125 translate
0.000000 rotate
0.000000 0.000000 m /two glyphshow
6.362305 0.000000 m /zero glyphshow
12.724609 0.000000 m /zero glyphshow
grestore
gsave
/o {
gsave
newpath
translate
0.8 setlinewidth
1 setlinejoin
0 setlinecap
0 0 m
0 -3.5 l

gsave
0.000 setgray
fill
grestore
stroke
grestore
} bind def
277.528 23.8719 o
grestore
gsave
267.989307 9.278125 translate
0.000000 rotate
0.000000 0.000000 m /two glyphshow
6.362305 0.000000 m /five glyphshow
12.724609 0.000000 m /zero glyphshow
grestore
gsave
/o {
gsave
newpath
translate
0.8 setlinewidth
1 setlinejoin
0 setlinecap
0 0 m
0 -3.5 l

gsave
0.000 setgray
fill
grestore
stroke
grestore
} bind def
322.494 23.8719 o
grestore
gsave
312.955311 9.278125 translate
0.000000 rotate
0.000000 0.000000 m /three glyphshow
6.362305 0.000000 m /zero glyphshow
12.724609 0.000000 m /zero glyphshow
grestore
gsave
/o {
gsave
newpath
translate
0.8 setlinewidth
1 setlinejoin
0 setlinecap
0 0 m
0 -3.5 l

gsave
0.000 setgray
fill
grestore
stroke
grestore
} bind def
367.46 23.8719 o
grestore
gsave
357.921314 9.278125 translate
0.000000 rotate
0.000000 0.000000 m /three glyphshow
6.362305 0.000000 m /five glyphshow
12.724609 0.000000 m /zero glyphshow
grestore
gsave
/o {
gsave
newpath
translate
0.8 setlinewidth
1 setlinejoin
0 setlinecap
0 0 m
-3.5 0 l

gsave
0.000 setgray
fill
grestore
stroke
grestore
} bind def
36.4656 36.0362 o
grestore
gsave
7.200000 32.239299 translate
0.000000 rotate
0.000000 0.000000 m /one glyphshow
6.362305 0.000000 m /period glyphshow
9.541016 0.000000 m /zero glyphshow
15.903320 0.000000 m /four glyphshow
grestore
gsave
/o {
gsave
newpath
translate
0.8 setlinewidth
1 setlinejoin
0 setlinecap
0 0 m
-3.5 0 l

gsave
0.000 setgray
fill
grestore
stroke
grestore
} bind def
36.4656 65.6205 o
grestore
gsave
7.200000 61.823605 translate
0.000000 rotate
0.000000 0.000000 m /one glyphshow
6.362305 0.000000 m /period glyphshow
9.541016 0.000000 m /zero glyphshow
15.903320 0.000000 m /six glyphshow
grestore
gsave
/o {
gsave
newpath
translate
0.8 setlinewidth
1 setlinejoin
0 setlinecap
0 0 m
-3.5 0 l

gsave
0.000 setgray
fill
grestore
stroke
grestore
} bind def
36.4656 95.2048 o
grestore
gsave
7.200000 91.407911 translate
0.000000 rotate
0.000000 0.000000 m /one glyphshow
6.362305 0.000000 m /period glyphshow
9.541016 0.000000 m /zero glyphshow
15.903320 0.000000 m /eight glyphshow
grestore
gsave
/o {
gsave
newpath
translate
0.8 setlinewidth
1 setlinejoin
0 setlinecap
0 0 m
-3.5 0 l

gsave
0.000 setgray
fill
grestore
stroke
grestore
} bind def
36.4656 124.789 o
grestore
gsave
7.200000 120.992217 translate
0.000000 rotate
0.000000 0.000000 m /one glyphshow
6.362305 0.000000 m /period glyphshow
9.541016 0.000000 m /one glyphshow
15.903320 0.000000 m /zero glyphshow
grestore
gsave
/o {
gsave
newpath
translate
0.8 setlinewidth
1 setlinejoin
0 setlinecap
0 0 m
-3.5 0 l

gsave
0.000 setgray
fill
grestore
stroke
grestore
} bind def
36.4656 154.373 o
grestore
gsave
7.200000 150.576522 translate
0.000000 rotate
0.000000 0.000000 m /one glyphshow
6.362305 0.000000 m /period glyphshow
9.541016 0.000000 m /one glyphshow
15.903320 0.000000 m /two glyphshow
grestore
gsave
/o {
gsave
newpath
translate
0.8 setlinewidth
1 setlinejoin
0 setlinecap
0 0 m
-3.5 0 l

gsave
0.000 setgray
fill
grestore
stroke
grestore
} bind def
36.4656 183.958 o
grestore
gsave
7.200000 180.160828 translate
0.000000 rotate
0.000000 0.000000 m /one glyphshow
6.362305 0.000000 m /period glyphshow
9.541016 0.000000 m /one glyphshow
15.903320 0.000000 m /four glyphshow
grestore
gsave
/o {
gsave
newpath
translate
0.8 setlinewidth
1 setlinejoin
0 setlinecap
0 0 m
-3.5 0 l

gsave
0.000 setgray
fill
grestore
stroke
grestore
} bind def
36.4656 213.542 o
grestore
gsave
7.200000 209.745134 translate
0.000000 rotate
0.000000 0.000000 m /one glyphshow
6.362305 0.000000 m /period glyphshow
9.541016 0.000000 m /one glyphshow
15.903320 0.000000 m /six glyphshow
grestore
gsave
/o {
gsave
newpath
translate
0.8 setlinewidth
1 setlinejoin
0 setlinecap
0 0 m
-3.5 0 l

gsave
0.000 setgray
fill
grestore
stroke
grestore
} bind def
36.4656 243.126 o
grestore
gsave
7.200000 239.329440 translate
0.000000 rotate
0.000000 0.000000 m /one glyphshow
6.362305 0.000000 m /period glyphshow
9.541016 0.000000 m /one glyphshow
15.903320 0.000000 m /eight glyphshow
grestore
gsave
/o {
gsave
newpath
translate
0.8 setlinewidth
1 setlinejoin
0 setlinecap
0 0 m
-3.5 0 l

gsave
0.000 setgray
fill
grestore
stroke
grestore
} bind def
36.4656 272.711 o
grestore
gsave
7.200000 268.913746 translate
0.000000 rotate
0.000000 0.000000 m /one glyphshow
6.362305 0.000000 m /period glyphshow
9.541016 0.000000 m /two glyphshow
15.903320 0.000000 m /zero glyphshow
grestore
1.500 setlinewidth
2 setlinecap
0.122 0.467 0.706 setrgbcolor
gsave
357.1 266.1 36.47 23.87 clipbox
52.698352 53.047149 m
54.496992 36.28764 l
55.396312 48.757425 l
56.295633 65.457766 l
57.194953 55.872451 l
58.094273 55.561815 l
58.993593 54.984922 l
59.892913 60.946159 l
60.792233 59.836748 l
61.691553 61.493469 l
62.590873 68.874753 l
63.490193 71.108368 l
64.389513 71.522549 l
65.288833 65.886738 l
66.188153 65.502142 l
67.087473 81.122656 l
67.986793 71.271082 l
68.886114 74.510563 l
69.785434 79.746986 l
70.684754 80.264711 l
71.584074 81.167032 l
72.483394 86.832427 l
73.382714 85.279251 l
74.282034 88.119344 l
75.181354 76.788555 l
76.080674 79.658233 l
76.979994 80.101997 l
77.879314 82.631455 l
78.778634 79.599064 l
79.677954 94.627892 l
80.577274 90.707971 l
81.476595 89.539391 l
82.375915 92.187186 l
83.275235 92.305524 l
84.174555 94.317256 l
85.073875 87.88267 l
85.973195 78.652366 l
86.872515 78.489653 l
88.671155 71.167537 l
89.570475 71.093576 l
90.469795 69.111428 l
91.369115 64.999209 l
92.268435 62.085155 l
93.167755 65.90153 l
94.067076 76.463128 l
94.966396 66.833436 l
95.865716 67.513875 l
96.765036 66.508009 l
97.664356 67.780134 l
98.563676 57.351666 l
99.462996 60.60594 l
100.362316 62.898723 l
101.261636 59.85154 l
102.160956 58.372325 l
103.060276 60.709485 l
103.959596 64.126472 l
104.858916 64.836495 l
105.758236 57.603133 l
106.657557 51.863777 l
107.556877 67.942848 l
108.456197 68.312651 l
109.355517 65.975491 l
110.254837 63.017061 l
111.154157 61.182834 l
112.053477 57.188952 l
112.952797 62.957892 l
113.852117 78.430484 l
114.751437 75.974987 l
115.650757 76.818139 l
116.550077 73.38636 l
117.449397 66.152997 l
118.348717 85.427172 l
119.248037 90.101493 l
120.147358 85.826561 l
121.945998 84.909447 l
122.845318 86.240741 l
123.744638 96.684001 l
125.543278 92.586574 l
126.442598 94.761021 l
127.341918 94.465178 l
128.241238 100.559545 l
129.140558 104.553426 l
130.039878 96.728377 l
130.939198 89.87961 l
131.838518 76.522296 l
132.737839 73.238438 l
133.637159 74.939536 l
134.536479 74.569732 l
135.435799 75.812273 l
136.335119 76.403959 l
137.234439 74.806407 l
138.133759 72.069858 l
139.033079 64.067303 l
139.932399 63.667915 l
141.731039 66.286126 l
142.630359 75.043081 l
143.529679 67.558252 l
144.428999 67.20324 l
145.32832 67.351161 l
146.22764 67.928055 l
147.12696 71.892352 l
148.02628 84.909447 l
148.9256 81.90664 l
150.72424 84.051502 l
151.62356 112.585565 l
152.52288 105.13032 l
153.4222 113.709769 l
154.32152 110.470287 l
155.22084 105.88472 l
156.12016 108.902319 l
157.01948 108.991072 l
157.918801 111.476154 l
158.818121 109.715888 l
159.717441 114.138741 l
160.616761 107.571025 l
161.516081 122.466723 l
162.415401 124.197405 l
163.314721 124.049484 l
164.214041 127.303758 l
165.113361 113.502679 l
166.012681 106.003057 l
167.811321 104.183622 l
168.710641 114.138741 l
169.609961 113.842898 l
170.509282 114.375416 l
171.408602 121.120638 l
172.307922 136.977826 l
173.207242 148.234654 l
174.106562 140.025009 l
175.005882 155.201758 l
175.905202 154.965084 l
176.804522 153.21961 l
177.703842 159.802118 l
178.603162 151.666433 l
179.502482 156.976816 l
180.401802 155.823028 l
181.301122 151.562888 l
182.200442 150.971202 l
183.999083 148.767172 l
184.898403 152.302496 l
185.797723 160.748815 l
186.697043 156.207624 l
187.596363 166.576924 l
188.495683 166.059198 l
189.395003 164.875826 l
190.294323 162.375952 l
191.193643 165.645018 l
192.092963 162.597835 l
192.992283 156.444299 l
193.891603 153.515453 l
194.790923 153.485868 l
195.690243 155.408848 l
196.589564 154.698825 l
197.488884 155.882197 l
198.388204 156.799311 l
199.287524 146.045415 l
200.186844 153.678166 l
201.086164 151.962277 l
201.985484 154.965084 l
202.884804 146.622309 l
203.784124 144.551408 l
204.683444 149.595532 l
205.582764 147.080866 l
206.482084 153.397115 l
207.381404 151.858731 l
208.280724 153.826088 l
209.180045 151.429759 l
210.079365 174.816153 l
210.978685 180.481548 l
211.878005 189.874565 l
212.777325 187.655742 l
213.676645 187.951585 l
214.575965 186.176526 l
215.475285 178.543775 l
216.374605 175.822019 l
217.273925 176.665172 l
218.173245 187.167601 l
219.072565 183.898535 l
219.971885 183.66186 l
220.871205 183.306849 l
221.770526 183.750613 l
222.669846 193.927615 l
223.569166 185.58484 l
224.468486 183.425186 l
225.367806 194.10512 l
226.267126 193.025293 l
227.166446 194.65243 l
228.065766 195.421622 l
228.965086 206.530529 l
229.864406 200.761589 l
230.763726 217.80215 l
231.663046 222.417301 l
232.562366 222.26938 l
233.461686 223.008987 l
234.361007 219.503247 l
235.260327 220.3464 l
236.159647 233.067651 l
237.058967 224.562163 l
237.958287 235.404812 l
238.857607 235.87816 l
239.756927 235.079384 l
240.656247 249.191098 l
241.555567 243.259445 l
242.454887 251.321168 l
243.354207 253.318109 l
244.253527 238.777422 l
245.152847 238.984513 l
246.052167 238.836591 l
246.951488 242.283163 l
247.850808 235.863368 l
248.750128 237.002364 l
249.649448 238.89576 l
250.548768 246.055162 l
251.448088 246.691224 l
252.347408 245.892448 l
254.146048 233.289534 l
255.045368 238.156152 l
255.944688 231.677189 l
256.844008 237.002364 l
257.743328 237.209454 l
258.642648 236.5586 l
259.541968 245.271178 l
260.441289 237.283415 l
261.340609 244.013845 l
262.239929 242.934017 l
263.139249 261.15795 l
264.038569 261.468585 l
264.937889 264.367847 l
265.837209 269.500724 l
266.736529 268.420897 l
267.635849 255.374218 l
268.535169 259.23497 l
269.434489 251.705764 l
270.333809 251.557843 l
271.233129 255.048791 l
273.03177 259.915409 l
273.93109 260.373966 l
274.83041 275.669052 l
275.72973 277.651201 l
276.62905 277.887875 l
277.52837 275.077366 l
278.42769 265.62518 l
279.32701 267.607329 l
280.22633 255.640477 l
281.12565 260.655017 l
282.02497 264.205133 l
282.92429 264.101588 l
283.82361 260.788146 l
284.72293 265.388506 l
285.622251 271.823092 l
286.521571 256.528006 l
287.420891 263.879706 l
288.320211 264.855988 l
289.219531 265.462466 l
291.917491 241.868982 l
292.816811 234.946255 l
293.716131 240.8927 l
294.615451 245.019711 l
295.514771 245.049295 l
296.414091 241.676684 l
297.313411 232.964106 l
298.212732 234.546867 l
299.112052 237.061533 l
300.011372 229.82817 l
300.910692 232.757016 l
301.810012 232.16533 l
302.709332 232.268875 l
303.608652 234.147479 l
304.507972 244.161766 l
305.407292 251.705764 l
306.306612 247.460416 l
308.105252 244.605531 l
309.004572 242.519837 l
309.903892 238.023023 l
310.803213 241.203336 l
311.702533 250.670313 l
312.601853 240.611649 l
313.501173 240.611649 l
314.400493 237.668011 l
315.299813 235.641486 l
316.199133 237.460921 l
317.098453 244.901374 l
317.997773 220.938086 l
318.897093 214.754966 l
319.796413 214.429539 l
320.695733 214.385162 l
321.595053 220.790164 l
322.494373 220.316816 l
323.393693 216.219389 l
324.293014 222.106666 l
325.192334 214.429539 l
326.091654 214.281617 l
326.990974 215.169146 l
327.890294 214.902888 l
328.789614 212.092378 l
329.688934 213.246166 l
330.588254 219.739922 l
331.487574 223.156909 l
332.386894 222.861066 l
333.286214 221.233929 l
334.185534 223.64505 l
335.084854 242.076073 l
335.984174 241.928151 l
336.883495 238.703462 l
337.782815 242.327539 l
338.682135 241.277296 l
339.581455 240.759571 l
340.480775 232.623887 l
341.380095 233.984765 l
342.279415 246.025577 l
343.178735 250.625937 l
344.078055 262.444867 l
344.977375 262.504036 l
345.876695 263.657824 l
346.776015 257.829716 l
347.675335 249.220682 l
348.574655 250.655521 l
349.473976 258.199519 l
350.373296 256.587175 l
351.272616 257.489496 l
352.171936 251.143662 l
353.071256 251.409921 l
353.970576 246.528511 l
354.869896 242.431084 l
355.769216 239.354316 l
356.668536 237.875101 l
357.567856 238.481579 l
358.467176 237.209454 l
359.366496 239.10285 l
360.265816 234.946255 l
361.165136 246.794769 l
362.064457 241.173751 l
362.963777 236.307133 l
363.863097 235.582317 l
364.762417 234.162271 l
365.661737 240.27143 l
366.561057 249.102345 l
367.460377 254.708571 l
368.359697 254.442313 l
369.259017 251.705764 l
370.158337 252.001607 l
371.057657 251.705764 l
371.956977 253.332901 l
372.856297 252.400995 l
373.755617 257.090108 l
374.654938 263.894498 l
375.554258 272.311233 l
376.453578 271.823092 l
377.352898 271.971014 l
377.352898 271.971014 l
stroke
grestore
1.000 0.498 0.055 setrgbcolor
gsave
357.1 266.1 36.47 23.87 clipbox
52.698352 40.320911 m
53.597672 42.250558 l
54.496992 41.587357 l
55.396312 35.967875 l
56.295633 36.052516 l
57.194953 43.546276 l
58.993593 46.784867 l
59.892913 49.292191 l
60.792233 52.451431 l
61.691553 52.185516 l
62.590873 53.734629 l
64.389513 62.082914 l
65.288833 64.654249 l
66.188153 64.577543 l
67.087473 64.291878 l
67.986793 69.221004 l
68.886114 69.213245 l
69.785434 69.996178 l
71.584074 76.218201 l
72.483394 76.9142 l
73.382714 80.538438 l
75.181354 84.422066 l
76.080674 81.832922 l
77.879314 79.689203 l
78.778634 79.996733 l
79.677954 78.623956 l
80.577274 84.067631 l
81.476595 86.633322 l
82.375915 87.995343 l
83.275235 89.582722 l
84.174555 91.460702 l
85.073875 92.035206 l
85.973195 90.61182 l
86.872515 86.416076 l
88.671155 78.966401 l
89.570475 74.341984 l
90.469795 71.210958 l
91.369115 69.087694 l
93.167755 62.524636 l
94.067076 61.86461 l
94.966396 65.429246 l
95.865716 64.684755 l
96.765036 64.557969 l
97.664356 64.560791 l
98.563676 64.885426 l
99.462996 59.723183 l
100.362316 58.006198 l
101.261636 57.612086 l
102.160956 56.292562 l
103.060276 54.212677 l
103.959596 54.883812 l
104.858916 56.458318 l
105.758236 57.605209 l
106.657557 55.925959 l
107.556877 52.48758 l
108.456197 56.04675 l
109.355517 58.749984 l
110.254837 59.502058 l
111.154157 59.545613 l
112.053477 59.940429 l
112.952797 56.812225 l
113.852117 56.560241 l
114.751437 62.656712 l
115.650757 66.708918 l
116.550077 69.982953 l
117.449397 71.72198 l
118.348717 70.037617 l
119.248037 74.098463 l
120.147358 79.359807 l
121.046678 81.502644 l
121.945998 82.992509 l
122.845318 85.099374 l
123.744638 85.335664 l
124.643958 88.616928 l
125.543278 90.881791 l
126.442598 91.753068 l
127.341918 93.174338 l
128.241238 94.26674 l
129.140558 96.121268 l
130.039878 99.020059 l
130.939198 98.794878 l
131.838518 95.990074 l
133.637159 82.709313 l
134.536479 77.732223 l
135.435799 74.498746 l
136.335119 72.871516 l
137.234439 73.174285 l
138.133759 73.198796 l
139.033079 71.993538 l
139.932399 68.141297 l
140.831719 64.857917 l
141.731039 62.793549 l
142.630359 61.892824 l
143.529679 64.668708 l
144.428999 64.891421 l
146.22764 64.777155 l
147.12696 65.038838 l
148.02628 65.595179 l
148.9256 71.712634 l
149.82492 75.310069 l
151.62356 80.77032 l
152.52288 92.434255 l
153.4222 97.411873 l
154.32152 103.886409 l
155.22084 107.551734 l
156.12016 109.149869 l
157.01948 108.65842 l
158.818121 109.593531 l
159.717441 109.526523 l
160.616761 111.301699 l
161.516081 110.304342 l
162.415401 114.264677 l
163.314721 117.658267 l
165.113361 122.645937 l
166.012681 120.929833 l
166.912001 115.950451 l
167.811321 111.785919 l
168.710641 108.576776 l
169.609961 108.91446 l
170.509282 110.174029 l
171.408602 111.8099 l
172.307922 115.196966 l
174.106562 131.273362 l
175.005882 134.892486 l
175.905202 141.97115 l
176.804522 146.997437 l
177.703842 149.06833 l
178.603162 151.502298 l
179.502482 151.823583 l
180.401802 152.383627 l
181.301122 152.522932 l
182.200442 151.575831 l
183.099762 150.041353 l
183.999083 149.277641 l
184.898403 148.001672 l
185.797723 148.13269 l
186.697043 151.075565 l
187.596363 151.973821 l
188.495683 155.659424 l
189.395003 158.451885 l
190.294323 159.975782 l
191.193643 159.62452 l
192.092963 160.826075 l
192.992283 160.076646 l
194.790923 155.059352 l
195.690243 153.378163 l
196.589564 152.462449 l
197.488884 151.730654 l
198.388204 151.930443 l
199.287524 152.574952 l
200.186844 149.888117 l
201.086164 149.924266 l
201.985484 149.64636 l
202.884804 150.227564 l
203.784124 147.949653 l
204.683444 146.48906 l
205.582764 146.349402 l
206.482084 145.756207 l
208.280724 147.744398 l
209.180045 149.216805 l
210.079365 149.179422 l
212.777325 170.5422 l
213.676645 175.378926 l
214.575965 179.588248 l
215.475285 180.463404 l
216.374605 178.548746 l
217.273925 175.53516 l
218.173245 173.768095 l
219.072565 175.556144 l
219.971885 176.005096 l
222.669846 178.041779 l
223.569166 180.725792 l
224.468486 180.564445 l
225.367806 179.691581 l
226.267126 182.257272 l
227.166446 184.075651 l
228.065766 184.924357 l
228.965086 186.38689 l
229.864406 191.111642 l
230.763726 192.131747 l
232.562366 203.748071 l
233.461686 208.111334 l
234.361007 210.565758 l
235.260327 212.122454 l
236.159647 212.171299 l
237.058967 215.755156 l
237.958287 215.917385 l
239.756927 222.118248 l
240.656247 224.200955 l
241.555567 228.928881 l
242.454887 231.652217 l
244.253527 238.526332 l
245.152847 236.646059 l
246.052167 233.88287 l
246.951488 232.519968 l
247.850808 231.94758 l
248.750128 229.108215 l
249.649448 228.520486 l
250.548768 228.708108 l
251.448088 231.178226 l
253.246728 234.396009 l
254.146048 233.556648 l
255.045368 230.756429 l
255.944688 229.62294 l
256.844008 226.734553 l
257.743328 226.171159 l
258.642648 226.28278 l
259.541968 226.764354 l
260.441289 229.332691 l
261.340609 229.443254 l
262.239929 231.094466 l
263.139249 232.056027 l
264.038569 238.702492 l
264.937889 243.032251 l
266.736529 252.796868 l
267.635849 256.561117 l
268.535169 253.33293 l
269.434489 252.171404 l
271.233129 245.640439 l
272.132449 244.399209 l
273.93109 246.561267 l
274.83041 248.21583 l
275.72973 254.506095 l
276.62905 259.730584 l
277.52837 263.505237 l
278.42769 265.206352 l
279.32701 263.516699 l
280.22633 261.515106 l
281.12565 255.911142 l
282.02497 253.295547 l
282.92429 252.720867 l
283.82361 253.091526 l
284.72293 251.879567 l
285.622251 253.633407 l
286.521571 256.722994 l
287.420891 253.648925 l
288.320211 253.622474 l
289.219531 254.453018 l
290.118851 254.911139 l
291.917491 248.540112 l
292.816811 242.731245 l
293.716131 236.126925 l
294.615451 233.031872 l
295.514771 232.666503 l
296.414091 232.858886 l
297.313411 232.502511 l
298.212732 230.143837 l
299.112052 228.418035 l
300.011372 227.649033 l
300.910692 224.746715 l
301.810012 223.592947 l
303.608652 223.11296 l
304.507972 223.188256 l
305.407292 227.036617 l
306.306612 232.078775 l
307.205932 234.580456 l
308.105252 235.985503 l
309.004572 236.609028 l
309.903892 235.648701 l
310.803213 232.774245 l
311.702533 231.976676 l
312.601853 234.523147 l
313.501173 233.352451 l
314.400493 232.465304 l
315.299813 231.375899 l
317.098453 228.226005 l
317.997773 230.274855 l
319.796413 217.788665 l
320.695733 213.268286 l
321.595053 209.958456 l
322.494373 208.560815 l
323.393693 209.193862 l
324.293014 208.865171 l
325.192334 210.419046 l
326.091654 209.398588 l
326.990974 207.984019 l
327.890294 207.221189 l
328.789614 207.009409 l
329.688934 205.396814 l
330.588254 205.14289 l
331.487574 206.978198 l
332.386894 209.344982 l
333.286214 210.978737 l
334.185534 211.92866 l
335.084854 213.384845 l
335.984174 219.672641 l
336.883495 224.168156 l
337.782815 226.434958 l
338.682135 229.462298 l
339.581455 231.573219 l
340.480775 231.348743 l
341.380095 228.562278 l
342.279415 227.210661 l
343.178735 229.731387 l
344.078055 233.204681 l
345.876695 244.928923 l
346.776015 249.547873 l
347.675335 250.122553 l
349.473976 244.899475 l
350.373296 245.523352 l
351.272616 245.294292 l
352.171936 245.71644 l
353.071256 244.779742 l
353.970576 244.125535 l
354.869896 241.404491 l
357.567856 232.079304 l
358.467176 230.290197 l
359.366496 228.912834 l
360.265816 228.767533 l
361.165136 227.601775 l
362.064457 230.561049 l
362.963777 231.027987 l
365.661737 227.697525 l
366.561057 227.894493 l
367.460377 231.246997 l
368.359697 235.950941 l
369.259017 239.441517 l
370.158337 241.415248 l
371.057657 242.594761 l
372.856297 242.816944 l
373.755617 242.58418 l
374.654938 244.154454 l
375.554258 247.535877 l
376.453578 252.878335 l
377.352898 256.605025 l
377.352898 256.605025 l
stroke
grestore
0.800 setlinewidth
0 setlinejoin
[] 0 setdash
0.000 setgray
gsave
36.465625 23.871875 m
36.465625 289.983875 l
stroke
grestore
gsave
393.585625 23.871875 m
393.585625 289.983875 l
stroke
grestore
gsave
36.465625 23.871875 m
393.585625 23.871875 l
stroke
grestore
gsave
36.465625 289.983875 m
393.585625 289.983875 l
stroke
grestore
/DejaVuSans findfont
12.000 scalefont
setfont
gsave
100.025625 295.983875 translate
0.000000 rotate
0.000000 0.000000 m /R glyphshow
8.337891 0.000000 m /M glyphshow
18.691406 0.000000 m /S glyphshow
26.308594 0.000000 m /E glyphshow
33.890625 0.000000 m /space glyphshow
37.705078 0.000000 m /equal glyphshow
47.759766 0.000000 m /space glyphshow
51.574219 0.000000 m /zero glyphshow
59.208984 0.000000 m /period glyphshow
63.023438 0.000000 m /zero glyphshow
70.658203 0.000000 m /zero glyphshow
78.292969 0.000000 m /seven glyphshow
85.927734 0.000000 m /six glyphshow
93.562500 0.000000 m /three glyphshow
101.197266 0.000000 m /space glyphshow
105.011719 0.000000 m /R glyphshow
113.349609 0.000000 m /hyphen glyphshow
117.679688 0.000000 m /s glyphshow
123.931641 0.000000 m /q glyphshow
131.548828 0.000000 m /u glyphshow
139.154297 0.000000 m /a glyphshow
146.507812 0.000000 m /r glyphshow
151.441406 0.000000 m /e glyphshow
158.824219 0.000000 m /d glyphshow
166.441406 0.000000 m /space glyphshow
170.255859 0.000000 m /equal glyphshow
180.310547 0.000000 m /space glyphshow
184.125000 0.000000 m /nine glyphshow
191.759766 0.000000 m /seven glyphshow
199.394531 0.000000 m /period glyphshow
203.208984 0.000000 m /seven glyphshow
210.843750 0.000000 m /seven glyphshow
218.478516 0.000000 m /percent glyphshow
grestore
1.000 setlinewidth
0 setlinecap
0.800 setgray
gsave
413.441625 257.640125 m
492.785375 257.640125 l
494.118708 257.640125 494.785375 258.306792 494.785375 259.640125 c
494.785375 287.983875 l
494.785375 289.317208 494.118708 289.983875 492.785375 289.983875 c
413.441625 289.983875 l
412.108292 289.983875 411.441625 289.317208 411.441625 287.983875 c
411.441625 259.640125 l
411.441625 258.306792 412.108292 257.640125 413.441625 257.640125 c
cl
gsave
1.000 setgray
fill
grestore
stroke
grestore
1.500 setlinewidth
1 setlinejoin
2 setlinecap
[] 0 setdash
0.122 0.467 0.706 setrgbcolor
gsave
415.441625 281.890125 m
435.441625 281.890125 l
stroke
grestore
0.000 setgray
/DejaVuSans findfont
10.000 scalefont
setfont
gsave
443.441625 278.390125 translate
0.000000 rotate
0.000000 0.000000 m /A glyphshow
6.840820 0.000000 m /c glyphshow
12.338867 0.000000 m /t glyphshow
16.259766 0.000000 m /u glyphshow
22.597656 0.000000 m /a glyphshow
28.725586 0.000000 m /l glyphshow
grestore
1.000 0.498 0.055 setrgbcolor
gsave
415.441625 267.21825 m
435.441625 267.21825 l
stroke
grestore
0.000 setgray
gsave
443.441625 263.718250 translate
0.000000 rotate
0.000000 0.000000 m /P glyphshow
6.030273 0.000000 m /r glyphshow
10.141602 0.000000 m /e glyphshow
16.293945 0.000000 m /d glyphshow
22.641602 0.000000 m /i glyphshow
25.419922 0.000000 m /c glyphshow
30.917969 0.000000 m /t glyphshow
34.838867 0.000000 m /e glyphshow
40.991211 0.000000 m /d glyphshow
grestore
/DejaVuSans findfont
12.000 scalefont
setfont
gsave
168.023438 315.418875 translate
0.000000 rotate
0.000000 0.000000 m /R glyphshow
8.337891 0.000000 m /B glyphshow
16.570312 0.000000 m /F glyphshow
23.472656 0.000000 m /space glyphshow
27.287109 0.000000 m /parenleft glyphshow
31.968750 0.000000 m /five glyphshow
39.603516 0.000000 m /comma glyphshow
43.417969 0.000000 m /space glyphshow
47.232422 0.000000 m /one glyphshow
54.867188 0.000000 m /zero glyphshow
62.501953 0.000000 m /comma glyphshow
66.316406 0.000000 m /space glyphshow
70.130859 0.000000 m /one glyphshow
77.765625 0.000000 m /parenright glyphshow
grestore

end
showpage
