%!PS-Adobe-3.0 EPSF-3.0
%%Title: plots/15.eps
%%Creator: matplotlib version 2.2.2, http://matplotlib.org/
%%CreationDate: Thu May 31 19:20:14 2018
%%Orientation: portrait
%%BoundingBox: 45 230 566 561
%%EndComments
%%BeginProlog
/mpldict 8 dict def
mpldict begin
/m { moveto } bind def
/l { lineto } bind def
/r { rlineto } bind def
/c { curveto } bind def
/cl { closepath } bind def
/box {
m
1 index 0 r
0 exch r
neg 0 r
cl
} bind def
/clipbox {
box
clip
newpath
} bind def
%!PS-Adobe-3.0 Resource-Font
%%Title: DejaVu Sans
%%Copyright: Copyright (c) 2003 by Bitstream, Inc. All Rights Reserved. Copyright (c) 2006 by Tavmjong Bah. All Rights Reserved. DejaVu changes are in public domain 
%%Creator: Converted from TrueType to type 3 by PPR
25 dict begin
/_d{bind def}bind def
/_m{moveto}_d
/_l{lineto}_d
/_cl{closepath eofill}_d
/_c{curveto}_d
/_sc{7 -1 roll{setcachedevice}{pop pop pop pop pop pop}ifelse}_d
/_e{exec}_d
/FontName /DejaVuSans def
/PaintType 0 def
/FontMatrix[.001 0 0 .001 0 0]def
/FontBBox[-1021 -463 1793 1232]def
/FontType 3 def
/Encoding [ /space /percent /parenleft /parenright /comma /hyphen /period /zero /one /two /three /four /five /six /seven /eight /nine /equal /A /B /E /F /M /P /R /S /a /c /d /e /g /i /l /o /q /r /s /t /u /y /minus ] def
/FontInfo 10 dict dup begin
/FamilyName (DejaVu Sans) def
/FullName (DejaVu Sans) def
/Notice (Copyright (c) 2003 by Bitstream, Inc. All Rights Reserved. Copyright (c) 2006 by Tavmjong Bah. All Rights Reserved. DejaVu changes are in public domain ) def
/Weight (Book) def
/Version (Version 2.35) def
/ItalicAngle 0.0 def
/isFixedPitch false def
/UnderlinePosition -130 def
/UnderlineThickness 90 def
end readonly def
/CharStrings 42 dict dup begin
/.notdef 0 def
/space{318 0 0 0 0 0 _sc
}_d
/percent{{950 0 55 -13 895 742 _sc
727 321 _m
699 321 676 309 660 285 _c
644 261 636 227 636 184 _c
636 142 644 108 660 84 _c
676 60 699 48 727 48 _c
755 48 777 60 793 84 _c
809 108 817 142 817 184 _c
817 226 809 260 793 284 _c
777 308 755 321 727 321 _c
727 383 _m
778 383 819 365 849 329 _c
879 293 895 244 895 184 _c
895 123 879 75 849 40 _c
819 4 778 -13 727 -13 _c
}_e{675 -13 633 4 603 40 _c
573 75 558 123 558 184 _c
558 245 573 293 603 329 _c
633 365 675 383 727 383 _c
223 680 _m
195 680 173 667 157 643 _c
141 619 133 586 133 544 _c
133 500 141 467 157 443 _c
173 419 195 407 223 407 _c
251 407 274 419 290 443 _c
306 467 314 500 314 544 _c
314 586 305 619 289 643 _c
273 667 251 680 223 680 _c
664 742 _m
742 742 _l
286 -13 _l
}_e{208 -13 _l
664 742 _l
223 742 _m
274 742 315 724 346 688 _c
376 652 392 604 392 544 _c
392 482 376 434 346 398 _c
316 362 275 345 223 345 _c
171 345 130 362 100 398 _c
70 434 55 482 55 544 _c
55 604 70 652 100 688 _c
130 724 171 742 223 742 _c
_cl}_e}_d
/parenleft{390 0 86 -131 310 759 _sc
310 759 _m
266 683 234 609 213 536 _c
191 463 181 389 181 314 _c
181 238 191 164 213 91 _c
234 17 266 -56 310 -131 _c
232 -131 _l
183 -54 146 20 122 94 _c
98 168 86 241 86 314 _c
86 386 98 459 122 533 _c
146 607 182 682 232 759 _c
310 759 _l
_cl}_d
/parenright{390 0 80 -131 304 759 _sc
80 759 _m
158 759 _l
206 682 243 607 267 533 _c
291 459 304 386 304 314 _c
304 241 291 168 267 94 _c
243 20 206 -54 158 -131 _c
80 -131 _l
123 -56 155 17 177 91 _c
198 164 209 238 209 314 _c
209 389 198 463 177 536 _c
155 609 123 683 80 759 _c
_cl}_d
/comma{318 0 77 -115 220 124 _sc
117 124 _m
220 124 _l
220 40 _l
140 -115 _l
77 -115 _l
117 40 _l
117 124 _l
_cl}_d
/hyphen{361 0 49 234 312 314 _sc
49 314 _m
312 314 _l
312 234 _l
49 234 _l
49 314 _l
_cl}_d
/period{318 0 107 0 210 124 _sc
107 124 _m
210 124 _l
210 0 _l
107 0 _l
107 124 _l
_cl}_d
/zero{636 0 66 -13 570 742 _sc
318 664 _m
267 664 229 639 203 589 _c
177 539 165 464 165 364 _c
165 264 177 189 203 139 _c
229 89 267 64 318 64 _c
369 64 407 89 433 139 _c
458 189 471 264 471 364 _c
471 464 458 539 433 589 _c
407 639 369 664 318 664 _c
318 742 _m
399 742 461 709 505 645 _c
548 580 570 486 570 364 _c
570 241 548 147 505 83 _c
461 19 399 -13 318 -13 _c
236 -13 173 19 130 83 _c
87 147 66 241 66 364 _c
66 486 87 580 130 645 _c
173 709 236 742 318 742 _c
_cl}_d
/one{636 0 110 0 544 729 _sc
124 83 _m
285 83 _l
285 639 _l
110 604 _l
110 694 _l
284 729 _l
383 729 _l
383 83 _l
544 83 _l
544 0 _l
124 0 _l
124 83 _l
_cl}_d
/two{{636 0 73 0 536 742 _sc
192 83 _m
536 83 _l
536 0 _l
73 0 _l
73 83 _l
110 121 161 173 226 239 _c
290 304 331 346 348 365 _c
380 400 402 430 414 455 _c
426 479 433 504 433 528 _c
433 566 419 598 392 622 _c
365 646 330 659 286 659 _c
255 659 222 653 188 643 _c
154 632 117 616 78 594 _c
78 694 _l
118 710 155 722 189 730 _c
223 738 255 742 284 742 _c
}_e{359 742 419 723 464 685 _c
509 647 532 597 532 534 _c
532 504 526 475 515 449 _c
504 422 484 390 454 354 _c
446 344 420 317 376 272 _c
332 227 271 164 192 83 _c
_cl}_e}_d
/three{{636 0 76 -13 556 742 _sc
406 393 _m
453 383 490 362 516 330 _c
542 298 556 258 556 212 _c
556 140 531 84 482 45 _c
432 6 362 -13 271 -13 _c
240 -13 208 -10 176 -4 _c
144 1 110 10 76 22 _c
76 117 _l
103 101 133 89 166 81 _c
198 73 232 69 268 69 _c
330 69 377 81 409 105 _c
441 129 458 165 458 212 _c
458 254 443 288 413 312 _c
383 336 341 349 287 349 _c
}_e{202 349 _l
202 430 _l
291 430 _l
339 430 376 439 402 459 _c
428 478 441 506 441 543 _c
441 580 427 609 401 629 _c
374 649 336 659 287 659 _c
260 659 231 656 200 650 _c
169 644 135 635 98 623 _c
98 711 _l
135 721 170 729 203 734 _c
235 739 266 742 296 742 _c
370 742 429 725 473 691 _c
517 657 539 611 539 553 _c
539 513 527 479 504 451 _c
481 423 448 403 406 393 _c
_cl}_e}_d
/four{636 0 49 0 580 729 _sc
378 643 _m
129 254 _l
378 254 _l
378 643 _l
352 729 _m
476 729 _l
476 254 _l
580 254 _l
580 172 _l
476 172 _l
476 0 _l
378 0 _l
378 172 _l
49 172 _l
49 267 _l
352 729 _l
_cl}_d
/five{{636 0 77 -13 549 729 _sc
108 729 _m
495 729 _l
495 646 _l
198 646 _l
198 467 _l
212 472 227 476 241 478 _c
255 480 270 482 284 482 _c
365 482 429 459 477 415 _c
525 370 549 310 549 234 _c
549 155 524 94 475 51 _c
426 8 357 -13 269 -13 _c
238 -13 207 -10 175 -6 _c
143 -1 111 6 77 17 _c
77 116 _l
106 100 136 88 168 80 _c
199 72 232 69 267 69 _c
}_e{323 69 368 83 401 113 _c
433 143 450 183 450 234 _c
450 284 433 324 401 354 _c
368 384 323 399 267 399 _c
241 399 214 396 188 390 _c
162 384 135 375 108 363 _c
108 729 _l
_cl}_e}_d
/six{{636 0 70 -13 573 742 _sc
330 404 _m
286 404 251 388 225 358 _c
199 328 186 286 186 234 _c
186 181 199 139 225 109 _c
251 79 286 64 330 64 _c
374 64 409 79 435 109 _c
461 139 474 181 474 234 _c
474 286 461 328 435 358 _c
409 388 374 404 330 404 _c
526 713 _m
526 623 _l
501 635 476 644 451 650 _c
425 656 400 659 376 659 _c
310 659 260 637 226 593 _c
}_e{192 549 172 482 168 394 _c
187 422 211 444 240 459 _c
269 474 301 482 336 482 _c
409 482 467 459 509 415 _c
551 371 573 310 573 234 _c
573 159 550 99 506 54 _c
462 9 403 -13 330 -13 _c
246 -13 181 19 137 83 _c
92 147 70 241 70 364 _c
70 479 97 571 152 639 _c
206 707 280 742 372 742 _c
396 742 421 739 447 735 _c
472 730 498 723 526 713 _c
_cl}_e}_d
/seven{636 0 82 0 551 729 _sc
82 729 _m
551 729 _l
551 687 _l
286 0 _l
183 0 _l
432 646 _l
82 646 _l
82 729 _l
_cl}_d
/eight{{636 0 68 -13 568 742 _sc
318 346 _m
271 346 234 333 207 308 _c
180 283 167 249 167 205 _c
167 161 180 126 207 101 _c
234 76 271 64 318 64 _c
364 64 401 76 428 102 _c
455 127 469 161 469 205 _c
469 249 455 283 429 308 _c
402 333 365 346 318 346 _c
219 388 _m
177 398 144 418 120 447 _c
96 476 85 511 85 553 _c
85 611 105 657 147 691 _c
188 725 245 742 318 742 _c
}_e{390 742 447 725 489 691 _c
530 657 551 611 551 553 _c
551 511 539 476 515 447 _c
491 418 459 398 417 388 _c
464 377 501 355 528 323 _c
554 291 568 251 568 205 _c
568 134 546 80 503 43 _c
459 5 398 -13 318 -13 _c
237 -13 175 5 132 43 _c
89 80 68 134 68 205 _c
68 251 81 291 108 323 _c
134 355 171 377 219 388 _c
183 544 _m
183 506 194 476 218 455 _c
}_e{242 434 275 424 318 424 _c
360 424 393 434 417 455 _c
441 476 453 506 453 544 _c
453 582 441 611 417 632 _c
393 653 360 664 318 664 _c
275 664 242 653 218 632 _c
194 611 183 582 183 544 _c
_cl}_e}_d
/nine{{636 0 63 -13 566 742 _sc
110 15 _m
110 105 _l
134 93 159 84 185 78 _c
210 72 235 69 260 69 _c
324 69 374 90 408 134 _c
442 178 462 244 468 334 _c
448 306 424 284 396 269 _c
367 254 335 247 300 247 _c
226 247 168 269 126 313 _c
84 357 63 417 63 494 _c
63 568 85 628 129 674 _c
173 719 232 742 306 742 _c
390 742 455 709 499 645 _c
543 580 566 486 566 364 _c
}_e{566 248 538 157 484 89 _c
429 21 356 -13 264 -13 _c
239 -13 214 -10 189 -6 _c
163 -2 137 5 110 15 _c
306 324 _m
350 324 385 339 411 369 _c
437 399 450 441 450 494 _c
450 546 437 588 411 618 _c
385 648 350 664 306 664 _c
262 664 227 648 201 618 _c
175 588 162 546 162 494 _c
162 441 175 399 201 369 _c
227 339 262 324 306 324 _c
_cl}_e}_d
/equal{838 0 106 172 732 454 _sc
106 454 _m
732 454 _l
732 372 _l
106 372 _l
106 454 _l
106 255 _m
732 255 _l
732 172 _l
106 172 _l
106 255 _l
_cl}_d
/A{684 0 8 0 676 729 _sc
342 632 _m
208 269 _l
476 269 _l
342 632 _l
286 729 _m
398 729 _l
676 0 _l
573 0 _l
507 187 _l
178 187 _l
112 0 _l
8 0 _l
286 729 _l
_cl}_d
/B{{686 0 98 0 615 729 _sc
197 348 _m
197 81 _l
355 81 _l
408 81 447 92 473 114 _c
498 136 511 169 511 215 _c
511 260 498 293 473 315 _c
447 337 408 348 355 348 _c
197 348 _l
197 648 _m
197 428 _l
343 428 _l
391 428 426 437 450 455 _c
474 473 486 500 486 538 _c
486 574 474 602 450 620 _c
426 638 391 648 343 648 _c
197 648 _l
98 729 _m
350 729 _l
}_e{425 729 483 713 524 682 _c
564 650 585 606 585 549 _c
585 504 574 468 553 442 _c
532 416 502 399 462 393 _c
510 382 548 360 575 327 _c
601 294 615 253 615 204 _c
615 138 592 88 548 53 _c
504 17 441 0 360 0 _c
98 0 _l
98 729 _l
_cl}_e}_d
/E{632 0 98 0 568 729 _sc
98 729 _m
559 729 _l
559 646 _l
197 646 _l
197 430 _l
544 430 _l
544 347 _l
197 347 _l
197 83 _l
568 83 _l
568 0 _l
98 0 _l
98 729 _l
_cl}_d
/F{575 0 98 0 517 729 _sc
98 729 _m
517 729 _l
517 646 _l
197 646 _l
197 431 _l
486 431 _l
486 348 _l
197 348 _l
197 0 _l
98 0 _l
98 729 _l
_cl}_d
/M{863 0 98 0 765 729 _sc
98 729 _m
245 729 _l
431 233 _l
618 729 _l
765 729 _l
765 0 _l
669 0 _l
669 640 _l
481 140 _l
382 140 _l
194 640 _l
194 0 _l
98 0 _l
98 729 _l
_cl}_d
/P{603 0 98 0 569 729 _sc
197 648 _m
197 374 _l
321 374 _l
367 374 402 385 427 409 _c
452 433 465 467 465 511 _c
465 555 452 588 427 612 _c
402 636 367 648 321 648 _c
197 648 _l
98 729 _m
321 729 _l
402 729 464 710 506 673 _c
548 636 569 582 569 511 _c
569 439 548 384 506 348 _c
464 311 402 293 321 293 _c
197 293 _l
197 0 _l
98 0 _l
98 729 _l
_cl}_d
/R{{695 0 98 0 666 729 _sc
444 342 _m
465 334 486 319 506 296 _c
526 272 546 240 566 199 _c
666 0 _l
560 0 _l
467 187 _l
443 235 419 268 397 284 _c
374 300 343 308 304 308 _c
197 308 _l
197 0 _l
98 0 _l
98 729 _l
321 729 _l
404 729 466 711 507 677 _c
548 642 569 589 569 519 _c
569 473 558 434 537 404 _c
515 374 484 353 444 342 _c
197 648 _m
197 389 _l
321 389 _l
}_e{368 389 404 400 428 422 _c
452 444 465 476 465 519 _c
465 561 452 593 428 615 _c
404 637 368 648 321 648 _c
197 648 _l
_cl}_e}_d
/S{{635 0 66 -13 579 742 _sc
535 705 _m
535 609 _l
497 627 462 640 429 649 _c
395 657 363 662 333 662 _c
279 662 237 651 208 631 _c
179 610 165 580 165 542 _c
165 510 174 485 194 469 _c
213 452 250 439 304 429 _c
364 417 _l
437 403 491 378 526 343 _c
561 307 579 260 579 201 _c
579 130 555 77 508 41 _c
460 5 391 -13 300 -13 _c
265 -13 228 -9 189 -2 _c
}_e{150 5 110 16 69 32 _c
69 134 _l
109 111 148 94 186 83 _c
224 71 262 66 300 66 _c
356 66 399 77 430 99 _c
460 121 476 152 476 194 _c
476 230 465 258 443 278 _c
421 298 385 313 335 323 _c
275 335 _l
201 349 148 372 115 404 _c
82 435 66 478 66 534 _c
66 598 88 649 134 686 _c
179 723 242 742 322 742 _c
356 742 390 739 426 733 _c
461 727 497 717 535 705 _c
}_e{_cl}_e}_d
/a{{613 0 60 -13 522 560 _sc
343 275 _m
270 275 220 266 192 250 _c
164 233 150 205 150 165 _c
150 133 160 107 181 89 _c
202 70 231 61 267 61 _c
317 61 357 78 387 114 _c
417 149 432 196 432 255 _c
432 275 _l
343 275 _l
522 312 _m
522 0 _l
432 0 _l
432 83 _l
411 49 385 25 355 10 _c
325 -5 287 -13 243 -13 _c
187 -13 142 2 109 33 _c
76 64 60 106 60 159 _c
}_e{60 220 80 266 122 298 _c
163 329 224 345 306 345 _c
432 345 _l
432 354 _l
432 395 418 427 391 450 _c
364 472 326 484 277 484 _c
245 484 215 480 185 472 _c
155 464 127 453 100 439 _c
100 522 _l
132 534 164 544 195 550 _c
226 556 256 560 286 560 _c
365 560 424 539 463 498 _c
502 457 522 395 522 312 _c
_cl}_e}_d
/c{{550 0 55 -13 488 560 _sc
488 526 _m
488 442 _l
462 456 437 466 411 473 _c
385 480 360 484 334 484 _c
276 484 230 465 198 428 _c
166 391 150 339 150 273 _c
150 206 166 154 198 117 _c
230 80 276 62 334 62 _c
360 62 385 65 411 72 _c
437 79 462 90 488 104 _c
488 21 _l
462 9 436 0 410 -5 _c
383 -10 354 -13 324 -13 _c
242 -13 176 12 128 64 _c
}_e{79 115 55 185 55 273 _c
55 362 79 432 128 483 _c
177 534 244 560 330 560 _c
358 560 385 557 411 551 _c
437 545 463 537 488 526 _c
_cl}_e}_d
/d{{635 0 55 -13 544 760 _sc
454 464 _m
454 760 _l
544 760 _l
544 0 _l
454 0 _l
454 82 _l
435 49 411 25 382 10 _c
353 -5 319 -13 279 -13 _c
213 -13 159 13 117 65 _c
75 117 55 187 55 273 _c
55 359 75 428 117 481 _c
159 533 213 560 279 560 _c
319 560 353 552 382 536 _c
411 520 435 496 454 464 _c
148 273 _m
148 207 161 155 188 117 _c
215 79 253 61 301 61 _c
}_e{348 61 385 79 413 117 _c
440 155 454 207 454 273 _c
454 339 440 390 413 428 _c
385 466 348 485 301 485 _c
253 485 215 466 188 428 _c
161 390 148 339 148 273 _c
_cl}_e}_d
/e{{615 0 55 -13 562 560 _sc
562 296 _m
562 252 _l
149 252 _l
153 190 171 142 205 110 _c
238 78 284 62 344 62 _c
378 62 412 66 444 74 _c
476 82 509 95 541 113 _c
541 28 _l
509 14 476 3 442 -3 _c
408 -9 373 -13 339 -13 _c
251 -13 182 12 131 62 _c
80 112 55 181 55 268 _c
55 357 79 428 127 481 _c
175 533 241 560 323 560 _c
397 560 455 536 498 489 _c
}_e{540 441 562 377 562 296 _c
472 322 _m
471 371 457 410 431 440 _c
404 469 368 484 324 484 _c
274 484 234 469 204 441 _c
174 413 156 373 152 322 _c
472 322 _l
_cl}_e}_d
/g{{635 0 55 -207 544 560 _sc
454 280 _m
454 344 440 395 414 431 _c
387 467 349 485 301 485 _c
253 485 215 467 188 431 _c
161 395 148 344 148 280 _c
148 215 161 165 188 129 _c
215 93 253 75 301 75 _c
349 75 387 93 414 129 _c
440 165 454 215 454 280 _c
544 68 _m
544 -24 523 -93 482 -139 _c
440 -184 377 -207 292 -207 _c
260 -207 231 -204 203 -200 _c
175 -195 147 -188 121 -178 _c
}_e{121 -91 _l
147 -105 173 -115 199 -122 _c
225 -129 251 -133 278 -133 _c
336 -133 380 -117 410 -87 _c
439 -56 454 -10 454 52 _c
454 96 _l
435 64 411 40 382 24 _c
353 8 319 0 279 0 _c
211 0 157 25 116 76 _c
75 127 55 195 55 280 _c
55 364 75 432 116 483 _c
157 534 211 560 279 560 _c
319 560 353 552 382 536 _c
411 520 435 496 454 464 _c
454 547 _l
544 547 _l
}_e{544 68 _l
_cl}_e}_d
/i{278 0 94 0 184 760 _sc
94 547 _m
184 547 _l
184 0 _l
94 0 _l
94 547 _l
94 760 _m
184 760 _l
184 646 _l
94 646 _l
94 760 _l
_cl}_d
/l{278 0 94 0 184 760 _sc
94 760 _m
184 760 _l
184 0 _l
94 0 _l
94 760 _l
_cl}_d
/o{612 0 55 -13 557 560 _sc
306 484 _m
258 484 220 465 192 427 _c
164 389 150 338 150 273 _c
150 207 163 156 191 118 _c
219 80 257 62 306 62 _c
354 62 392 80 420 118 _c
448 156 462 207 462 273 _c
462 337 448 389 420 427 _c
392 465 354 484 306 484 _c
306 560 _m
384 560 445 534 490 484 _c
534 433 557 363 557 273 _c
557 183 534 113 490 63 _c
445 12 384 -13 306 -13 _c
227 -13 165 12 121 63 _c
77 113 55 183 55 273 _c
55 363 77 433 121 484 _c
165 534 227 560 306 560 _c
_cl}_d
/q{{635 0 55 -207 544 560 _sc
148 273 _m
148 207 161 155 188 117 _c
215 79 253 61 301 61 _c
348 61 385 79 413 117 _c
440 155 454 207 454 273 _c
454 339 440 390 413 428 _c
385 466 348 485 301 485 _c
253 485 215 466 188 428 _c
161 390 148 339 148 273 _c
454 82 _m
435 49 411 25 382 10 _c
353 -5 319 -13 279 -13 _c
213 -13 159 13 117 65 _c
75 117 55 187 55 273 _c
}_e{55 359 75 428 117 481 _c
159 533 213 560 279 560 _c
319 560 353 552 382 536 _c
411 520 435 496 454 464 _c
454 547 _l
544 547 _l
544 -207 _l
454 -207 _l
454 82 _l
_cl}_e}_d
/r{411 0 91 0 411 560 _sc
411 463 _m
401 469 390 473 378 476 _c
366 478 353 480 339 480 _c
288 480 249 463 222 430 _c
194 397 181 350 181 288 _c
181 0 _l
91 0 _l
91 547 _l
181 547 _l
181 462 _l
199 495 224 520 254 536 _c
284 552 321 560 365 560 _c
371 560 378 559 386 559 _c
393 558 401 557 411 555 _c
411 463 _l
_cl}_d
/s{{521 0 54 -13 472 560 _sc
443 531 _m
443 446 _l
417 458 391 468 364 475 _c
336 481 308 485 279 485 _c
234 485 200 478 178 464 _c
156 450 145 430 145 403 _c
145 382 153 366 169 354 _c
185 342 217 330 265 320 _c
296 313 _l
360 299 405 279 432 255 _c
458 230 472 195 472 151 _c
472 100 452 60 412 31 _c
372 1 316 -13 246 -13 _c
216 -13 186 -10 154 -5 _c
}_e{122 0 89 8 54 20 _c
54 113 _l
87 95 120 82 152 74 _c
184 65 216 61 248 61 _c
290 61 323 68 346 82 _c
368 96 380 117 380 144 _c
380 168 371 187 355 200 _c
339 213 303 226 247 238 _c
216 245 _l
160 257 119 275 95 299 _c
70 323 58 356 58 399 _c
58 450 76 490 112 518 _c
148 546 200 560 268 560 _c
301 560 332 557 362 552 _c
391 547 418 540 443 531 _c
}_e{_cl}_e}_d
/t{392 0 27 0 368 702 _sc
183 702 _m
183 547 _l
368 547 _l
368 477 _l
183 477 _l
183 180 _l
183 135 189 106 201 94 _c
213 81 238 75 276 75 _c
368 75 _l
368 0 _l
276 0 _l
206 0 158 13 132 39 _c
106 65 93 112 93 180 _c
93 477 _l
27 477 _l
27 547 _l
93 547 _l
93 702 _l
183 702 _l
_cl}_d
/u{634 0 85 -13 543 560 _sc
85 216 _m
85 547 _l
175 547 _l
175 219 _l
175 167 185 129 205 103 _c
225 77 255 64 296 64 _c
344 64 383 79 411 110 _c
439 141 453 183 453 237 _c
453 547 _l
543 547 _l
543 0 _l
453 0 _l
453 84 _l
431 50 405 26 377 10 _c
348 -5 315 -13 277 -13 _c
214 -13 166 6 134 45 _c
101 83 85 140 85 216 _c
311 560 _m
311 560 _l
_cl}_d
/y{592 0 30 -207 562 547 _sc
322 -50 _m
296 -114 271 -157 247 -177 _c
223 -197 191 -207 151 -207 _c
79 -207 _l
79 -132 _l
132 -132 _l
156 -132 175 -126 189 -114 _c
203 -102 218 -75 235 -31 _c
251 9 _l
30 547 _l
125 547 _l
296 119 _l
467 547 _l
562 547 _l
322 -50 _l
_cl}_d
/minus{838 0 106 272 732 355 _sc
106 355 _m
732 355 _l
732 272 _l
106 272 _l
106 355 _l
_cl}_d
end readonly def

/BuildGlyph
 {exch begin
 CharStrings exch
 2 copy known not{pop /.notdef}if
 true 3 1 roll get exec
 end}_d

/BuildChar {
 1 index /Encoding get exch get
 1 index /BuildGlyph get exec
}_d

FontName currentdict end definefont pop
end
%%EndProlog
mpldict begin
45.32 230.128 translate
521.36 331.744 0 0 clipbox
gsave
0 0 m
521.360375 0 l
521.360375 331.743875 l
0 331.743875 l
cl
1.000 setgray
fill
grestore
gsave
38.48125 23.871875 m
395.60125 23.871875 l
395.60125 289.983875 l
38.48125 289.983875 l
cl
1.000 setgray
fill
grestore
0.800 setlinewidth
1 setlinejoin
0 setlinecap
[] 0 setdash
0.000 setgray
gsave
/o {
gsave
newpath
translate
0.8 setlinewidth
1 setlinejoin
0 setlinecap
0 0 m
0 -3.5 l

gsave
0.000 setgray
fill
grestore
stroke
grestore
} bind def
54.714 23.8719 o
grestore
/DejaVuSans findfont
10.000 scalefont
setfont
gsave
51.534290 9.278125 translate
0.000000 rotate
0.000000 0.000000 m /zero glyphshow
grestore
gsave
/o {
gsave
newpath
translate
0.8 setlinewidth
1 setlinejoin
0 setlinecap
0 0 m
0 -3.5 l

gsave
0.000 setgray
fill
grestore
stroke
grestore
} bind def
99.68 23.8719 o
grestore
gsave
93.320606 9.278125 translate
0.000000 rotate
0.000000 0.000000 m /five glyphshow
6.362305 0.000000 m /zero glyphshow
grestore
gsave
/o {
gsave
newpath
translate
0.8 setlinewidth
1 setlinejoin
0 setlinecap
0 0 m
0 -3.5 l

gsave
0.000 setgray
fill
grestore
stroke
grestore
} bind def
144.646 23.8719 o
grestore
gsave
135.106922 9.278125 translate
0.000000 rotate
0.000000 0.000000 m /one glyphshow
6.362305 0.000000 m /zero glyphshow
12.724609 0.000000 m /zero glyphshow
grestore
gsave
/o {
gsave
newpath
translate
0.8 setlinewidth
1 setlinejoin
0 setlinecap
0 0 m
0 -3.5 l

gsave
0.000 setgray
fill
grestore
stroke
grestore
} bind def
189.612 23.8719 o
grestore
gsave
180.072925 9.278125 translate
0.000000 rotate
0.000000 0.000000 m /one glyphshow
6.362305 0.000000 m /five glyphshow
12.724609 0.000000 m /zero glyphshow
grestore
gsave
/o {
gsave
newpath
translate
0.8 setlinewidth
1 setlinejoin
0 setlinecap
0 0 m
0 -3.5 l

gsave
0.000 setgray
fill
grestore
stroke
grestore
} bind def
234.578 23.8719 o
grestore
gsave
225.038929 9.278125 translate
0.000000 rotate
0.000000 0.000000 m /two glyphshow
6.362305 0.000000 m /zero glyphshow
12.724609 0.000000 m /zero glyphshow
grestore
gsave
/o {
gsave
newpath
translate
0.8 setlinewidth
1 setlinejoin
0 setlinecap
0 0 m
0 -3.5 l

gsave
0.000 setgray
fill
grestore
stroke
grestore
} bind def
279.544 23.8719 o
grestore
gsave
270.004932 9.278125 translate
0.000000 rotate
0.000000 0.000000 m /two glyphshow
6.362305 0.000000 m /five glyphshow
12.724609 0.000000 m /zero glyphshow
grestore
gsave
/o {
gsave
newpath
translate
0.8 setlinewidth
1 setlinejoin
0 setlinecap
0 0 m
0 -3.5 l

gsave
0.000 setgray
fill
grestore
stroke
grestore
} bind def
324.51 23.8719 o
grestore
gsave
314.970936 9.278125 translate
0.000000 rotate
0.000000 0.000000 m /three glyphshow
6.362305 0.000000 m /zero glyphshow
12.724609 0.000000 m /zero glyphshow
grestore
gsave
/o {
gsave
newpath
translate
0.8 setlinewidth
1 setlinejoin
0 setlinecap
0 0 m
0 -3.5 l

gsave
0.000 setgray
fill
grestore
stroke
grestore
} bind def
369.476 23.8719 o
grestore
gsave
359.936939 9.278125 translate
0.000000 rotate
0.000000 0.000000 m /three glyphshow
6.362305 0.000000 m /five glyphshow
12.724609 0.000000 m /zero glyphshow
grestore
gsave
/o {
gsave
newpath
translate
0.8 setlinewidth
1 setlinejoin
0 setlinecap
0 0 m
-3.5 0 l

gsave
0.000 setgray
fill
grestore
stroke
grestore
} bind def
38.4813 47.0031 o
grestore
gsave
7.200000 43.206194 translate
0.000000 rotate
0.000000 0.000000 m /minus glyphshow
8.378906 0.000000 m /zero glyphshow
14.741211 0.000000 m /period glyphshow
17.919922 0.000000 m /two glyphshow
grestore
gsave
/o {
gsave
newpath
translate
0.8 setlinewidth
1 setlinejoin
0 setlinecap
0 0 m
-3.5 0 l

gsave
0.000 setgray
fill
grestore
stroke
grestore
} bind def
38.4813 81.0713 o
grestore
gsave
15.575000 77.274406 translate
0.000000 rotate
0.000000 0.000000 m /zero glyphshow
6.362305 0.000000 m /period glyphshow
9.541016 0.000000 m /zero glyphshow
grestore
gsave
/o {
gsave
newpath
translate
0.8 setlinewidth
1 setlinejoin
0 setlinecap
0 0 m
-3.5 0 l

gsave
0.000 setgray
fill
grestore
stroke
grestore
} bind def
38.4813 115.139 o
grestore
gsave
15.575000 111.342617 translate
0.000000 rotate
0.000000 0.000000 m /zero glyphshow
6.362305 0.000000 m /period glyphshow
9.541016 0.000000 m /two glyphshow
grestore
gsave
/o {
gsave
newpath
translate
0.8 setlinewidth
1 setlinejoin
0 setlinecap
0 0 m
-3.5 0 l

gsave
0.000 setgray
fill
grestore
stroke
grestore
} bind def
38.4813 149.208 o
grestore
gsave
15.575000 145.410829 translate
0.000000 rotate
0.000000 0.000000 m /zero glyphshow
6.362305 0.000000 m /period glyphshow
9.541016 0.000000 m /four glyphshow
grestore
gsave
/o {
gsave
newpath
translate
0.8 setlinewidth
1 setlinejoin
0 setlinecap
0 0 m
-3.5 0 l

gsave
0.000 setgray
fill
grestore
stroke
grestore
} bind def
38.4813 183.276 o
grestore
gsave
15.575000 179.479041 translate
0.000000 rotate
0.000000 0.000000 m /zero glyphshow
6.362305 0.000000 m /period glyphshow
9.541016 0.000000 m /six glyphshow
grestore
gsave
/o {
gsave
newpath
translate
0.8 setlinewidth
1 setlinejoin
0 setlinecap
0 0 m
-3.5 0 l

gsave
0.000 setgray
fill
grestore
stroke
grestore
} bind def
38.4813 217.344 o
grestore
gsave
15.575000 213.547253 translate
0.000000 rotate
0.000000 0.000000 m /zero glyphshow
6.362305 0.000000 m /period glyphshow
9.541016 0.000000 m /eight glyphshow
grestore
gsave
/o {
gsave
newpath
translate
0.8 setlinewidth
1 setlinejoin
0 setlinecap
0 0 m
-3.5 0 l

gsave
0.000 setgray
fill
grestore
stroke
grestore
} bind def
38.4813 251.412 o
grestore
gsave
15.575000 247.615465 translate
0.000000 rotate
0.000000 0.000000 m /one glyphshow
6.362305 0.000000 m /period glyphshow
9.541016 0.000000 m /zero glyphshow
grestore
gsave
/o {
gsave
newpath
translate
0.8 setlinewidth
1 setlinejoin
0 setlinecap
0 0 m
-3.5 0 l

gsave
0.000 setgray
fill
grestore
stroke
grestore
} bind def
38.4813 285.481 o
grestore
gsave
15.575000 281.683677 translate
0.000000 rotate
0.000000 0.000000 m /one glyphshow
6.362305 0.000000 m /period glyphshow
9.541016 0.000000 m /two glyphshow
grestore
1.500 setlinewidth
2 setlinecap
0.122 0.467 0.706 setrgbcolor
gsave
357.1 266.1 38.48 23.87 clipbox
54.713977 251.41234 m
173.424227 251.41234 l
174.323547 81.071281 l
379.368523 81.071281 l
379.368523 81.071281 l
stroke
grestore
1.000 0.498 0.055 setrgbcolor
gsave
357.1 266.1 38.48 23.87 clipbox
54.713977 81.071281 m
173.424227 81.071281 l
174.323547 251.41234 l
231.880031 251.41234 l
232.779351 81.071281 l
379.368523 81.071281 l
379.368523 81.071281 l
stroke
grestore
0.173 0.627 0.173 setrgbcolor
gsave
357.1 266.1 38.48 23.87 clipbox
54.713977 81.071281 m
231.880031 81.071281 l
232.779351 251.41234 l
379.368523 251.41234 l
379.368523 251.41234 l
stroke
grestore
0.839 0.153 0.157 setrgbcolor
gsave
357.1 266.1 38.48 23.87 clipbox
54.713977 81.071281 m
379.368523 81.071281 l
379.368523 81.071281 l
stroke
grestore
0.580 0.404 0.741 setrgbcolor
gsave
357.1 266.1 38.48 23.87 clipbox
54.713977 249.175983 m
55.613297 252.262176 l
56.512617 251.69683 l
57.411937 247.441689 l
58.311258 239.072453 l
59.210578 238.581367 l
60.109898 253.299276 l
61.009218 259.033148 l
61.908538 253.849129 l
62.807858 252.741972 l
63.707178 254.764412 l
64.606498 257.272374 l
65.505818 255.627305 l
66.405138 257.866433 l
67.304458 261.570291 l
68.203778 264.553135 l
69.103098 263.35793 l
70.002418 255.242461 l
70.901739 262.181691 l
71.801059 265.101931 l
72.700379 259.6347 l
73.599699 261.16506 l
74.499019 262.327632 l
75.398339 258.915799 l
76.297659 260.306187 l
77.196979 259.442157 l
78.096299 267.023693 l
78.995619 265.283895 l
79.894939 261.983929 l
80.794259 261.404795 l
81.693579 263.546169 l
82.592899 253.771762 l
83.49222 255.548233 l
84.39154 259.093174 l
85.29086 256.388363 l
86.19018 255.840927 l
87.0895 254.225992 l
87.98882 259.884 l
88.88814 267.924194 l
89.78746 266.087352 l
90.68678 265.297947 l
91.5861 266.283308 l
92.48542 264.158382 l
93.38474 263.407457 l
94.28406 264.19875 l
95.18338 262.875616 l
96.982021 255.559604 l
97.881341 263.064099 l
98.780661 265.112267 l
99.679981 261.394601 l
100.579301 261.060442 l
101.478621 263.461248 l
102.377941 259.981409 l
103.277261 255.399896 l
104.176581 258.433708 l
105.075901 258.813293 l
105.975221 256.321819 l
106.874541 255.729039 l
107.773861 257.871083 l
108.673182 261.277617 l
109.572502 259.774732 l
110.471822 251.404755 l
111.371142 253.586 l
112.270462 262.276603 l
113.169782 262.571591 l
114.968422 259.527646 l
115.867742 256.187351 l
116.767062 251.852863 l
117.666382 258.719194 l
118.565702 263.827613 l
119.465022 264.737211 l
120.364342 267.310417 l
121.263662 256.153704 l
122.162983 253.048433 l
123.062303 260.766996 l
123.961623 262.124448 l
124.860943 261.627981 l
125.760263 260.573255 l
126.659583 252.041305 l
127.558903 252.646086 l
128.458223 255.861233 l
129.357543 253.94871 l
130.256863 253.722905 l
132.055503 241.5018 l
132.954823 249.274327 l
133.854143 258.703761 l
134.753464 269.932379 l
135.652784 269.368312 l
136.552104 263.623454 l
137.451424 262.864935 l
138.350744 262.871352 l
139.250064 262.656817 l
141.048704 265.131822 l
141.948024 266.853588 l
142.847344 263.565704 l
143.746664 259.372242 l
144.645984 259.217245 l
145.545304 257.434357 l
146.444624 262.691033 l
147.343945 264.815187 l
148.243265 261.398256 l
149.142585 261.103796 l
150.041905 260.029088 l
150.941225 255.419207 l
151.840545 259.830534 l
152.739865 262.738326 l
153.639185 261.254245 l
154.538505 237.312349 l
155.437825 238.020103 l
156.337145 224.815079 l
157.236465 227.107074 l
158.135785 233.669248 l
159.035105 231.897691 l
159.934426 231.240551 l
160.833746 226.996222 l
161.733066 228.414806 l
162.632386 222.027195 l
163.531706 230.247281 l
164.431026 209.408778 l
165.330346 199.833981 l
167.128986 186.16035 l
168.028306 210.027935 l
168.927626 229.734772 l
169.826946 236.924175 l
170.726266 239.416177 l
171.625586 226.247156 l
172.524907 222.104135 l
173.424227 218.772288 l
174.323547 207.479411 l
175.222867 175.05228 l
176.122187 138.047981 l
177.021507 138.543383 l
177.920827 107.876719 l
178.820147 101.941251 l
179.719467 100.807498 l
180.618787 88.156587 l
181.518107 102.444854 l
182.417427 94.252569 l
183.316747 95.109053 l
184.216067 103.727088 l
186.014708 110.831895 l
186.914028 113.852111 l
187.813348 107.224399 l
188.712668 88.26272 l
189.611988 92.709496 l
190.511308 73.005555 l
191.410628 70.882901 l
192.309948 73.207463 l
193.209268 78.251641 l
194.108588 72.494089 l
195.007908 77.371663 l
195.907228 90.835896 l
196.806548 99.068795 l
197.705868 100.795528 l
198.605189 97.228748 l
199.504509 97.769551 l
201.303149 92.970291 l
202.202469 115.495576 l
203.101789 104.80922 l
204.001109 106.376535 l
204.900429 98.932651 l
205.799749 115.651832 l
206.699069 124.235542 l
207.598389 116.567065 l
208.497709 119.47773 l
209.397029 106.054737 l
210.296349 106.386241 l
211.19567 101.42127 l
212.09499 105.781849 l
212.99431 61.945227 l
213.89363 46.859821 l
214.79295 35.967875 l
215.69227 44.405842 l
216.59159 49.125321 l
217.49091 49.879673 l
218.39023 60.146945 l
219.28955 61.413153 l
220.18887 55.460773 l
221.08819 39.159838 l
221.98751 46.44404 l
222.88683 51.560115 l
223.786151 49.849127 l
224.685471 48.994364 l
225.584791 36.381198 l
226.484111 50.866688 l
227.383431 57.558037 l
228.282751 37.554625 l
229.182071 41.786833 l
230.081391 47.09304 l
230.980711 46.225154 l
231.880031 38.151928 l
232.779351 50.548626 l
233.678671 44.994921 l
234.577991 49.348421 l
235.477311 67.30846 l
236.376632 71.043737 l
237.275952 73.310428 l
238.175272 71.272045 l
239.074592 62.808633 l
239.973912 75.788139 l
240.873232 76.366816 l
241.772552 75.423267 l
242.671872 84.316693 l
243.571192 78.816873 l
244.470512 87.315672 l
245.369832 90.046077 l
246.269152 88.814316 l
247.168472 100.52682 l
248.067792 96.608024 l
248.967113 86.682128 l
249.866433 85.286206 l
250.765753 89.701206 l
251.665073 88.621881 l
252.564393 83.561336 l
253.463713 82.462279 l
254.363033 86.744339 l
255.262353 91.690567 l
256.161673 94.542463 l
257.060993 94.821748 l
257.960313 85.089035 l
258.859633 85.5605 l
260.658273 81.169071 l
261.557593 85.533549 l
262.456914 81.801146 l
263.356234 88.971187 l
264.255554 88.289209 l
265.154874 86.314105 l
266.054194 83.429313 l
267.852834 95.186859 l
268.752154 93.717609 l
269.651474 95.846703 l
270.550794 103.103895 l
271.450114 99.024164 l
272.349434 97.942768 l
273.248754 97.829099 l
274.148074 92.583033 l
275.047395 92.582912 l
275.946715 93.74451 l
276.846035 95.12211 l
277.745355 90.169417 l
278.644675 91.938295 l
279.543995 95.257507 l
280.443315 96.796948 l
281.342635 100.885256 l
282.241955 98.66631 l
283.141275 101.683215 l
284.040595 98.128217 l
284.939915 93.028882 l
286.738555 98.262124 l
288.537196 92.754715 l
289.436516 101.831593 l
290.335836 98.352167 l
291.235156 93.813051 l
292.134476 96.243837 l
293.033796 100.177601 l
293.933116 102.479912 l
294.832436 101.277963 l
295.731756 97.734977 l
296.631076 86.184714 l
297.530396 82.41014 l
298.429716 88.201532 l
299.329036 92.296094 l
300.228357 95.187605 l
302.026997 80.86464 l
302.926317 86.843811 l
303.825637 83.60435 l
304.724957 79.531528 l
305.624277 81.520366 l
306.523597 80.247635 l
307.422917 77.413709 l
308.322237 81.096649 l
309.221557 91.86751 l
310.120877 95.175696 l
311.020197 92.866178 l
311.919517 92.390454 l
312.818838 92.694852 l
314.617478 82.540813 l
315.516798 92.861214 l
316.416118 94.716282 l
317.315438 89.280816 l
318.214758 88.85455 l
320.013398 81.25386 l
320.912718 98.42565 l
321.812038 96.850902 l
322.711358 69.782914 l
323.610678 63.44778 l
324.509998 59.481157 l
325.409318 64.109187 l
326.308639 72.094293 l
327.207959 65.674945 l
328.107279 70.198532 l
329.006599 70.867486 l
329.905919 62.546939 l
330.805239 63.170292 l
331.704559 65.660855 l
332.603879 62.768818 l
333.503199 57.038568 l
334.402519 60.900728 l
335.301839 69.258488 l
336.201159 73.061156 l
337.100479 70.468689 l
337.999799 63.557047 l
339.79844 90.409376 l
340.69776 87.266582 l
341.59708 87.156327 l
342.4964 89.351748 l
343.39572 92.300114 l
344.29504 87.385178 l
345.19436 76.966893 l
346.09368 82.251373 l
346.993 86.663657 l
347.89232 92.192329 l
348.79164 96.130759 l
349.69096 98.931532 l
350.59028 102.303984 l
351.489601 96.908158 l
352.388921 89.809367 l
353.288241 93.427486 l
355.086881 98.276161 l
355.986201 96.906924 l
356.885521 95.965684 l
357.784841 96.395479 l
360.482801 86.725441 l
361.382121 86.515947 l
362.281441 85.498635 l
363.180761 87.394082 l
364.080082 81.869844 l
364.979402 86.934557 l
365.878722 94.451913 l
366.778042 88.662616 l
367.677362 85.279297 l
368.576682 81.35548 l
369.476002 80.121726 l
370.375322 85.798441 l
371.274642 92.52776 l
372.173962 96.329207 l
373.972602 94.129069 l
374.871922 93.491824 l
375.771242 94.239098 l
376.670563 92.79184 l
377.569883 90.963987 l
378.469203 91.098245 l
379.368523 94.69157 l
379.368523 94.69157 l
stroke
grestore
0.549 0.337 0.294 setrgbcolor
gsave
357.1 266.1 38.48 23.87 clipbox
54.713977 82.784065 m
55.613297 79.756489 l
56.512617 81.100593 l
57.411937 85.761468 l
58.311258 92.443264 l
59.210578 91.357395 l
60.109898 78.427938 l
61.009218 72.590152 l
61.908538 77.99457 l
62.807858 78.406732 l
63.707178 76.558978 l
64.606498 73.786569 l
65.505818 74.511937 l
66.405138 71.900084 l
67.304458 67.91988 l
68.203778 65.535162 l
69.103098 66.846148 l
70.002418 73.065556 l
70.901739 67.180576 l
71.801059 63.465966 l
72.700379 68.668747 l
73.599699 66.889791 l
74.499019 65.426541 l
75.398339 68.163982 l
76.297659 66.853082 l
77.196979 67.270304 l
78.096299 60.765808 l
78.995619 62.253407 l
79.894939 66.014658 l
80.794259 66.18789 l
81.693579 64.327334 l
82.592899 72.328837 l
83.49222 70.959183 l
84.39154 67.228704 l
85.29086 69.854664 l
86.19018 70.428805 l
87.0895 71.844198 l
87.98882 66.6212 l
88.88814 59.208766 l
89.78746 61.572456 l
90.68678 63.264394 l
91.5861 62.769691 l
92.48542 65.150615 l
93.38474 66.298755 l
94.28406 66.040569 l
95.18338 67.848078 l
96.082701 71.32438 l
96.982021 73.489973 l
97.881341 66.972374 l
98.780661 64.597633 l
99.679981 68.845449 l
100.579301 69.010011 l
101.478621 67.861558 l
102.377941 70.991673 l
103.277261 75.537634 l
104.176581 72.820219 l
105.075901 72.573601 l
105.975221 74.846322 l
106.874541 75.044582 l
107.773861 72.767372 l
108.673182 70.135829 l
109.572502 72.274752 l
110.471822 78.781862 l
111.371142 76.629306 l
112.270462 67.980441 l
113.169782 68.061042 l
114.968422 71.989358 l
115.867742 74.676154 l
116.767062 76.965835 l
117.666382 70.18464 l
118.565702 64.549406 l
119.465022 64.138331 l
120.364342 62.43226 l
121.263662 71.328544 l
122.162983 73.7653 l
123.062303 66.162112 l
123.961623 64.706353 l
124.860943 65.429694 l
125.760263 66.373916 l
126.659583 73.869143 l
127.558903 73.461891 l
128.458223 70.236335 l
129.357543 72.043637 l
130.256863 72.350684 l
132.055503 84.107085 l
132.954823 76.710459 l
134.753464 57.156659 l
135.652784 58.718274 l
136.552104 65.10506 l
137.451424 66.019811 l
138.350744 65.799658 l
139.250064 65.936124 l
140.149384 64.767997 l
141.048704 63.919392 l
141.948024 63.261191 l
142.847344 66.851767 l
143.746664 71.183555 l
144.645984 71.168892 l
145.545304 71.754874 l
146.444624 67.28741 l
147.343945 64.998229 l
148.243265 68.716781 l
149.142585 68.94894 l
150.041905 69.504132 l
150.941225 72.284849 l
151.840545 67.978901 l
152.739865 64.591896 l
153.639185 66.064647 l
154.538505 86.688318 l
155.437825 87.16364 l
156.337145 101.348241 l
157.236465 99.236053 l
158.135785 92.628479 l
159.035105 94.199468 l
159.934426 94.912692 l
160.833746 99.303291 l
161.733066 97.981627 l
162.632386 104.479389 l
163.531706 96.210362 l
164.431026 117.201315 l
165.330346 127.468011 l
166.229666 135.964622 l
167.128986 143.075552 l
168.028306 117.85782 l
168.927626 96.545894 l
169.826946 89.101311 l
170.726266 86.537434 l
171.625586 99.589878 l
172.524907 104.258292 l
173.424227 108.144088 l
174.323547 119.76416 l
175.222867 153.27706 l
176.122187 192.60758 l
177.021507 193.757187 l
177.920827 225.40533 l
178.820147 230.8181 l
179.719467 231.7922 l
180.618787 244.55733 l
181.518107 229.647435 l
182.417427 238.053263 l
183.316747 237.569751 l
184.216067 228.518439 l
186.914028 219.240946 l
187.813348 226.136568 l
188.712668 244.791928 l
189.611988 239.370833 l
190.511308 258.091426 l
191.410628 258.995887 l
192.309948 255.209078 l
193.209268 250.791883 l
194.108588 257.011419 l
195.007908 252.237138 l
195.907228 239.000508 l
196.806548 232.301856 l
197.705868 231.809044 l
198.605189 235.690825 l
199.504509 234.966989 l
201.303149 239.610162 l
202.202469 216.343337 l
203.101789 228.043994 l
204.001109 226.749532 l
204.900429 234.084145 l
205.799749 216.820757 l
206.699069 208.229787 l
207.598389 216.825336 l
208.497709 213.675534 l
209.397029 227.374396 l
210.296349 226.758325 l
211.19567 231.610804 l
212.09499 227.135777 l
212.99431 268.735326 l
213.89363 277.355953 l
214.79295 277.887875 l
215.69227 263.801804 l
216.59159 255.822773 l
217.49091 256.793675 l
218.39023 250.069813 l
219.28955 253.83526 l
220.18887 263.93414 l
221.08819 277.158617 l
221.98751 266.199565 l
222.88683 258.331081 l
223.786151 261.819814 l
224.685471 262.774451 l
225.584791 270.672297 l
226.484111 254.614126 l
227.383431 248.088787 l
228.282751 268.529888 l
229.182071 260.265737 l
230.081391 249.548288 l
231.880031 249.767311 l
232.779351 233.891459 l
233.678671 225.439973 l
234.577991 210.616339 l
235.477311 181.301047 l
236.376632 174.654826 l
237.275952 174.341146 l
238.175272 177.378258 l
239.074592 178.526474 l
239.973912 163.915294 l
240.873232 154.285214 l
241.772552 153.695759 l
242.671872 140.098774 l
243.571192 136.97735 l
245.369832 116.113446 l
246.269152 115.540186 l
247.168472 107.841254 l
248.067792 116.277297 l
248.967113 132.547438 l
249.866433 131.861016 l
250.765753 129.801928 l
251.665073 131.472213 l
252.564393 137.796991 l
253.463713 133.217879 l
255.262353 117.390282 l
256.161673 117.900776 l
257.060993 124.06236 l
257.960313 136.545218 l
258.859633 140.827504 l
259.758953 140.359887 l
260.658273 143.106686 l
261.557593 136.64048 l
262.456914 135.250787 l
263.356234 129.358892 l
264.255554 125.791563 l
265.154874 128.966555 l
266.054194 119.237825 l
267.852834 95.169317 l
268.752154 93.595202 l
269.651474 90.016932 l
270.550794 87.100207 l
271.450114 93.122805 l
272.349434 100.610858 l
273.248754 101.852564 l
274.148074 107.924327 l
275.047395 105.682612 l
275.946715 101.515945 l
277.745355 95.785751 l
278.644675 89.774793 l
279.543995 82.856435 l
280.443315 81.869785 l
281.342635 81.6942 l
284.040595 93.555094 l
284.939915 99.129081 l
285.839235 94.277134 l
286.738555 92.171695 l
287.637876 93.602636 l
288.537196 93.492319 l
289.436516 88.147281 l
290.335836 90.501458 l
291.235156 96.948961 l
292.134476 92.072248 l
293.033796 91.127342 l
293.933116 94.045227 l
294.832436 104.272344 l
296.631076 132.171392 l
297.530396 133.899783 l
298.429716 124.002269 l
299.329036 120.153115 l
300.228357 123.485712 l
301.127677 135.098135 l
302.026997 144.071557 l
302.926317 140.594439 l
303.825637 144.258004 l
304.724957 150.847109 l
305.624277 147.660776 l
306.523597 147.985889 l
307.422917 143.505211 l
309.221557 115.193997 l
310.120877 111.384885 l
311.020197 116.610058 l
311.919517 119.341775 l
312.818838 122.988544 l
313.718158 128.740034 l
314.617478 129.017245 l
315.516798 119.434143 l
316.416118 117.713321 l
317.315438 129.129888 l
318.214758 132.021293 l
319.114078 137.18022 l
320.013398 136.306544 l
320.912718 128.884533 l
321.812038 141.502219 l
322.711358 186.562017 l
323.610678 196.776948 l
324.509998 196.619839 l
326.308639 180.025846 l
327.207959 185.15116 l
328.107279 184.57821 l
329.006599 185.046604 l
329.905919 197.4375 l
331.704559 195.521718 l
332.603879 199.483008 l
333.503199 201.764048 l
334.402519 191.08045 l
335.301839 177.492948 l
336.201159 173.064929 l
337.100479 175.134155 l
337.999799 168.736675 l
338.89912 145.699392 l
339.79844 126.212156 l
340.69776 128.653245 l
341.59708 129.226561 l
342.4964 126.251363 l
343.39572 128.658631 l
344.29504 136.638632 l
345.19436 142.674163 l
346.09368 128.936893 l
346.993 112.139302 l
347.89232 101.664015 l
348.79164 93.929063 l
349.69096 93.38913 l
350.59028 95.190072 l
351.489601 104.480049 l
352.388921 110.180905 l
353.288241 104.54808 l
354.187561 99.789557 l
355.086881 100.698329 l
355.986201 103.61544 l
356.885521 109.174472 l
357.784841 112.538914 l
358.684161 120.866408 l
359.583481 128.14167 l
360.482801 132.943516 l
361.382121 134.304232 l
362.281441 134.476206 l
363.180761 134.794293 l
364.080082 134.111054 l
364.979402 129.124441 l
365.878722 121.799294 l
366.778042 132.587147 l
367.677362 139.411494 l
368.576682 140.548755 l
369.476002 134.272727 l
370.375322 119.616041 l
371.274642 108.128112 l
372.173962 103.941901 l
373.073282 105.796997 l
373.972602 107.946108 l
374.871922 107.746662 l
375.771242 107.043912 l
376.670563 105.881179 l
377.569883 103.246024 l
379.368523 89.275889 l
379.368523 89.275889 l
stroke
grestore
0.890 0.467 0.761 setrgbcolor
gsave
357.1 266.1 38.48 23.87 clipbox
54.713977 76.463652 m
55.613297 76.684346 l
56.512617 74.708958 l
57.411937 72.07065 l
58.311258 73.435198 l
59.210578 78.164081 l
60.109898 78.293234 l
61.009218 78.188776 l
61.908538 77.454125 l
62.807858 78.833182 l
63.707178 79.095942 l
64.606498 79.699548 l
65.505818 81.626731 l
66.405138 82.892112 l
67.304458 83.369047 l
68.203778 82.138098 l
69.103098 81.635357 l
70.002418 85.277232 l
70.901739 84.084299 l
71.801059 84.329228 l
72.700379 85.599603 l
73.599699 86.028367 l
74.499019 86.196602 l
75.398339 87.431206 l
76.297659 87.285646 l
77.196979 87.571987 l
78.096299 85.597047 l
78.995619 85.70997 l
79.894939 85.967116 l
80.794259 86.504379 l
81.693579 85.972507 l
82.592899 88.987674 l
83.49222 88.728376 l
84.39154 87.47852 l
85.29086 88.134617 l
87.0895 88.365669 l
87.98882 87.377681 l
88.88814 85.740592 l
89.78746 85.527542 l
90.68678 84.727814 l
91.5861 83.727764 l
92.48542 83.409766 l
93.38474 82.855462 l
95.18338 80.663414 l
96.082701 81.162792 l
96.982021 84.01229 l
97.881341 82.64015 l
98.780661 82.356593 l
99.679981 81.825816 l
100.579301 82.075283 l
101.478621 79.685118 l
102.377941 79.640332 l
103.277261 79.93529 l
104.176581 79.561453 l
105.075901 79.049319 l
105.975221 79.320798 l
106.874541 80.29895 l
107.773861 80.890163 l
108.673182 79.371346 l
109.572502 77.43921 l
110.471822 80.439306 l
111.371142 81.779516 l
112.270462 81.802489 l
114.069102 80.145092 l
114.968422 78.892083 l
115.867742 79.83997 l
116.767062 84.12563 l
117.666382 84.94787 l
118.565702 85.044649 l
119.465022 84.313891 l
120.364342 82.497016 l
121.263662 86.546943 l
122.162983 88.847185 l
123.062303 87.321309 l
123.961623 86.963084 l
124.860943 87.002701 l
125.760263 87.259037 l
126.659583 89.322813 l
127.558903 88.94478 l
128.458223 87.752821 l
129.357543 88.237369 l
130.256863 88.338232 l
131.156183 89.030063 l
132.055503 89.400236 l
132.954823 87.701794 l
133.854143 86.872561 l
134.753464 85.415439 l
135.652784 84.430358 l
137.451424 84.431766 l
139.250064 84.919504 l
140.149384 84.60356 l
141.048704 83.898141 l
141.948024 81.879684 l
142.847344 81.093185 l
143.746664 81.015214 l
144.645984 81.437437 l
145.545304 83.763648 l
146.444624 82.692509 l
147.343945 82.281585 l
148.243265 82.028574 l
149.142585 82.166824 l
150.041905 83.177788 l
150.941225 86.683322 l
151.840545 86.75609 l
152.739865 86.53448 l
153.639185 86.867327 l
154.538505 92.797309 l
155.437825 91.099446 l
156.337145 87.206386 l
157.236465 87.593052 l
158.135785 86.288886 l
159.035105 87.201055 l
159.934426 87.667157 l
161.733066 87.014413 l
163.531706 86.678233 l
164.431026 87.033267 l
165.330346 86.95983 l
166.229666 83.225576 l
167.128986 82.746077 l
168.028306 83.446617 l
168.927626 84.574974 l
169.826946 86.642613 l
171.625586 88.546447 l
172.524907 87.908339 l
173.424227 86.035281 l
174.323547 86.123461 l
175.222867 85.62408 l
176.122187 82.417966 l
177.021507 78.352224 l
177.920827 76.67466 l
178.820147 78.132386 l
179.719467 76.906963 l
180.618787 76.946245 l
181.518107 77.724556 l
182.417427 76.967207 l
183.316747 77.213907 l
184.216067 77.146917 l
185.115387 76.5865 l
187.813348 76.350806 l
188.712668 77.069814 l
189.611988 77.954833 l
190.511308 78.569851 l
191.410628 80.50436 l
192.309948 81.525073 l
193.209268 80.762858 l
194.108588 80.263112 l
195.007908 80.353038 l
195.907228 79.685458 l
196.806548 77.842215 l
197.705868 76.786626 l
198.605189 76.709282 l
199.504509 76.937077 l
200.403829 76.916152 l
201.303149 77.08826 l
202.202469 77.532387 l
203.101789 76.393177 l
204.001109 77.016561 l
204.900429 76.548017 l
205.799749 77.090651 l
206.699069 76.612718 l
207.598389 76.473014 l
208.497709 76.892617 l
209.397029 76.315447 l
210.296349 76.891637 l
211.19567 76.515766 l
212.09499 76.729486 l
212.99431 79.572918 l
213.89363 87.444862 l
214.79295 97.9912 l
215.69227 104.831547 l
216.59159 108.28777 l
217.49091 106.432633 l
218.39023 102.543537 l
219.28955 96.456711 l
220.18887 91.739734 l
221.08819 95.112918 l
221.98751 99.869925 l
222.88683 102.64533 l
223.786151 100.663356 l
224.685471 100.520892 l
225.584791 105.495607 l
226.484111 108.218506 l
227.383431 107.5323 l
228.282751 106.543962 l
229.182071 111.744503 l
230.081391 117.667548 l
230.980711 118.549273 l
231.880031 126.833436 l
232.779351 131.876637 l
233.678671 145.840561 l
235.477311 171.028112 l
236.376632 174.239076 l
237.275952 172.559862 l
238.175272 171.165057 l
239.074592 177.516584 l
239.973912 181.184165 l
240.873232 189.34913 l
241.772552 191.282111 l
242.671872 196.716862 l
243.571192 203.614515 l
244.470512 207.248438 l
245.369832 213.811972 l
246.269152 215.491074 l
247.168472 213.885866 l
248.067792 208.673418 l
248.967113 201.876737 l
249.866433 203.538062 l
250.765753 202.180803 l
251.665073 201.153957 l
252.564393 199.464681 l
254.363033 208.892197 l
255.262353 211.792821 l
256.161673 209.238571 l
257.060993 203.20245 l
258.859633 195.167171 l
259.758953 196.882459 l
260.658273 196.522714 l
261.557593 198.982287 l
262.456914 203.027624 l
263.356234 203.289899 l
264.255554 206.519657 l
265.154874 205.578016 l
266.054194 215.550734 l
267.852834 227.723774 l
268.752154 229.691571 l
269.651474 231.274665 l
270.550794 229.393536 l
271.450114 226.749644 l
272.349434 221.895935 l
274.148074 219.190749 l
275.047395 221.101078 l
275.946715 223.694743 l
276.846035 225.246353 l
277.745355 229.713522 l
279.543995 236.470188 l
280.443315 236.477539 l
282.241955 232.61641 l
283.141275 228.295131 l
284.040595 226.967976 l
284.939915 225.991754 l
285.839235 228.222871 l
286.738555 228.305548 l
287.637876 228.548756 l
288.537196 230.254124 l
289.436516 229.465583 l
290.335836 229.061265 l
291.235156 227.256599 l
292.134476 229.495473 l
293.033796 228.029627 l
293.933116 224.056752 l
294.832436 216.214159 l
295.731756 206.945398 l
296.631076 202.356452 l
297.530396 203.985784 l
298.429716 208.556647 l
299.329036 208.900847 l
301.127677 198.174423 l
302.026997 195.750112 l
302.926317 194.27324 l
303.825637 193.08766 l
304.724957 190.460003 l
305.624277 191.770192 l
306.523597 192.512862 l
307.422917 198.896919 l
308.322237 208.276502 l
309.221557 213.746687 l
310.120877 214.432084 l
311.020197 211.586175 l
311.919517 209.510552 l
312.818838 205.976892 l
313.718158 204.301729 l
314.617478 208.093614 l
315.516798 209.371627 l
316.416118 208.966203 l
317.315438 203.022253 l
318.214758 200.582956 l
319.114078 198.941857 l
320.013398 202.557504 l
320.912718 196.027455 l
321.812038 183.602201 l
322.711358 162.986878 l
323.610678 158.524217 l
325.409318 166.565339 l
326.308639 167.812203 l
327.207959 168.29806 l
328.107279 165.085573 l
329.006599 163.486838 l
329.905919 158.690982 l
330.805239 159.064129 l
332.603879 156.24607 l
333.503199 159.382709 l
334.402519 166.935065 l
335.301839 173.088992 l
336.201159 174.040593 l
337.100479 174.214851 l
338.89912 197.920423 l
339.79844 204.829417 l
340.69776 204.868212 l
341.59708 204.64267 l
342.4964 205.560289 l
343.39572 201.083616 l
344.29504 197.233219 l
345.19436 199.952823 l
346.09368 208.573785 l
346.993 219.470345 l
347.89232 224.629774 l
348.79164 228.146164 l
349.69096 227.010031 l
350.59028 223.290882 l
351.489601 219.005271 l
352.388921 219.104254 l
353.288241 221.586478 l
354.187561 223.685656 l
355.086881 221.541866 l
355.986201 219.804809 l
357.784841 212.535176 l
358.684161 207.389911 l
359.583481 203.366444 l
360.482801 201.426254 l
361.382121 200.398484 l
362.281441 200.961708 l
363.180761 199.297642 l
364.080082 203.875074 l
364.979402 205.102129 l
365.878722 205.60479 l
366.778042 200.140473 l
367.677362 196.560047 l
368.576682 198.535163 l
369.476002 205.276326 l
370.375322 214.047118 l
371.274642 219.200364 l
372.173962 220.086853 l
373.972602 218.197784 l
374.871922 218.758226 l
375.771242 218.912066 l
376.670563 220.701898 l
377.569883 223.970126 l
378.469203 229.140835 l
379.368523 232.39029 l
379.368523 232.39029 l
stroke
grestore
0.498 setgray
gsave
357.1 266.1 38.48 23.87 clipbox
54.713977 83.221089 m
57.411937 81.953934 l
58.311258 83.904284 l
59.210578 85.480451 l
60.109898 82.983192 l
61.009218 82.062095 l
62.807858 83.284321 l
64.606498 82.701251 l
65.505818 83.34447 l
66.405138 83.078866 l
68.203778 81.793333 l
69.103098 81.981935 l
70.002418 83.77188 l
70.901739 82.289923 l
71.801059 81.826055 l
72.700379 82.808481 l
74.499019 82.059505 l
75.398339 82.457268 l
76.297659 82.023473 l
77.196979 81.95278 l
78.096299 81.022499 l
79.894939 82.204734 l
80.794259 82.194807 l
81.693579 81.805212 l
82.592899 83.038983 l
84.39154 81.394698 l
85.29086 81.873771 l
87.0895 81.849643 l
88.88814 80.643573 l
89.78746 81.386794 l
90.68678 81.680966 l
91.5861 81.562647 l
92.48542 81.977427 l
93.38474 82.07243 l
94.28406 81.825793 l
95.18338 81.912943 l
96.082701 82.667614 l
96.982021 83.631491 l
97.881341 82.069779 l
98.780661 81.762229 l
99.679981 82.335238 l
100.579301 82.436012 l
101.478621 81.604254 l
102.377941 82.244771 l
103.277261 83.062424 l
104.176581 82.456197 l
105.075901 82.294329 l
105.975221 82.784031 l
106.874541 83.083085 l
107.773861 82.811766 l
108.673182 81.92392 l
109.572502 81.728907 l
110.471822 83.895581 l
111.371142 83.670474 l
112.270462 82.172786 l
113.169782 82.004021 l
114.069102 82.156642 l
114.968422 82.129753 l
115.867742 82.930141 l
116.767062 84.338287 l
117.666382 82.982376 l
118.565702 81.97894 l
119.465022 81.829709 l
120.364342 81.328793 l
121.263662 83.573033 l
122.162983 83.620139 l
123.062303 81.656715 l
123.961623 81.510332 l
125.760263 81.902505 l
126.659583 82.741324 l
128.458223 81.37941 l
129.357543 81.738153 l
130.256863 81.742741 l
131.156183 82.128964 l
132.055503 82.218878 l
132.954823 81.194027 l
134.753464 80.273745 l
135.652784 80.934378 l
136.552104 82.078929 l
137.451424 82.206301 l
139.250064 82.224242 l
141.048704 81.777939 l
141.948024 81.357797 l
142.847344 81.876183 l
143.746664 82.582073 l
144.645984 82.671136 l
145.545304 83.267134 l
146.444624 82.152073 l
147.343945 81.798825 l
148.243265 82.365248 l
149.142585 82.433681 l
150.041905 82.732909 l
150.941225 83.635055 l
151.840545 82.503647 l
152.739865 81.789294 l
153.639185 82.037271 l
154.538505 84.31745 l
155.437825 82.483905 l
158.135785 81.303675 l
159.035105 81.754065 l
160.833746 81.892706 l
161.733066 81.683807 l
162.632386 82.006133 l
163.531706 81.433947 l
164.431026 82.64487 l
166.229666 82.173751 l
167.128986 82.38453 l
168.028306 81.389846 l
168.927626 81.061875 l
169.826946 81.368819 l
170.726266 81.547916 l
171.625586 82.376825 l
172.524907 82.05108 l
173.424227 81.84693 l
174.323547 82.319799 l
175.222867 83.063984 l
176.122187 82.937292 l
177.021507 82.558348 l
177.920827 83.453579 l
178.820147 82.630819 l
179.719467 83.009354 l
180.618787 83.067671 l
181.518107 82.757914 l
182.417427 83.287101 l
183.316747 82.832418 l
185.115387 83.144994 l
186.014708 83.037857 l
187.813348 83.107106 l
189.611988 82.682821 l
190.511308 82.962058 l
191.410628 82.28727 l
192.309948 82.608919 l
194.108588 82.750692 l
195.007908 82.590463 l
195.907228 82.932311 l
196.806548 83.144657 l
202.202469 82.881363 l
203.101789 83.427645 l
204.001109 82.818782 l
204.900429 83.100786 l
205.799749 82.855847 l
206.699069 83.165706 l
207.598389 83.138892 l
208.497709 82.862449 l
209.397029 83.180287 l
210.296349 82.854136 l
211.19567 83.092493 l
212.99431 82.798473 l
213.89363 80.986642 l
214.79295 80.422449 l
215.69227 80.120839 l
216.59159 80.49468 l
217.49091 80.543662 l
219.28955 81.816418 l
220.18887 81.759882 l
221.08819 80.928278 l
221.98751 80.486897 l
222.88683 80.978823 l
224.685471 80.918217 l
225.584791 80.100037 l
226.484111 80.127954 l
227.383431 81.077599 l
228.282751 80.178178 l
229.182071 79.516715 l
230.081391 79.784945 l
230.980711 79.592212 l
231.880031 78.766633 l
232.779351 78.730598 l
233.678671 78.446379 l
234.577991 77.579232 l
235.477311 78.796791 l
236.376632 79.168391 l
238.175272 79.249513 l
239.074592 78.825324 l
239.973912 79.277417 l
240.873232 80.28149 l
241.772552 79.831936 l
242.671872 80.889204 l
243.571192 81.519997 l
244.470512 81.997177 l
245.369832 83.525321 l
247.168472 83.65383 l
248.067792 83.131377 l
248.967113 81.508669 l
249.866433 81.664396 l
250.765753 81.595787 l
251.665073 81.682505 l
252.564393 81.105913 l
254.363033 82.315333 l
255.262353 83.038525 l
256.161673 82.763396 l
257.060993 82.144855 l
257.960313 81.351735 l
258.859633 80.716027 l
259.758953 81.069416 l
260.658273 80.625769 l
261.557593 81.158461 l
262.456914 81.5074 l
263.356234 81.60238 l
264.255554 82.369278 l
265.154874 81.820297 l
266.054194 83.760425 l
266.953514 85.005567 l
267.852834 86.740102 l
268.752154 87.403213 l
269.651474 87.771486 l
270.550794 87.054631 l
271.450114 86.655483 l
272.349434 85.121987 l
273.248754 85.037745 l
274.148074 84.522764 l
275.047395 84.916137 l
275.946715 85.594501 l
276.846035 85.994105 l
277.745355 87.734289 l
278.644675 88.824746 l
279.543995 89.477068 l
280.443315 89.301679 l
281.342635 88.512023 l
282.241955 88.213466 l
283.141275 86.749231 l
284.040595 86.7031 l
284.939915 86.233534 l
285.839235 86.834152 l
286.738555 86.821065 l
287.637876 87.03078 l
288.537196 87.64486 l
289.436516 87.041485 l
290.335836 87.375312 l
291.235156 86.573008 l
292.134476 87.226856 l
293.033796 86.703055 l
293.933116 85.85557 l
295.731756 82.763368 l
296.631076 81.743782 l
297.530396 81.494553 l
298.429716 82.356395 l
299.329036 82.618093 l
300.228357 82.13206 l
302.026997 80.631574 l
303.825637 80.788939 l
304.724957 80.134271 l
305.624277 80.404866 l
306.523597 80.382616 l
307.422917 80.813661 l
309.221557 83.273994 l
310.120877 83.687661 l
311.020197 83.079034 l
311.919517 82.743113 l
312.818838 82.282999 l
313.718158 81.960627 l
314.617478 82.16951 l
316.416118 82.965582 l
317.315438 81.745021 l
318.214758 81.53565 l
319.114078 81.184683 l
320.013398 81.366737 l
321.812038 81.533842 l
322.711358 79.269584 l
323.610678 78.802466 l
324.509998 78.544335 l
325.409318 78.560929 l
326.308639 79.178829 l
327.207959 78.976701 l
328.107279 78.902629 l
329.006599 79.373841 l
329.905919 78.747889 l
330.805239 78.739831 l
331.704559 78.92735 l
332.603879 78.895033 l
333.503199 78.414935 l
334.402519 78.392608 l
335.301839 78.954874 l
336.201159 79.271876 l
337.100479 79.186039 l
337.999799 79.228579 l
338.89912 80.372081 l
339.79844 82.007515 l
340.69776 81.977757 l
341.59708 81.783464 l
342.4964 82.081663 l
345.19436 80.937461 l
346.09368 82.086559 l
346.993 84.55354 l
347.89232 85.80434 l
348.79164 86.835681 l
349.69096 86.436768 l
351.489601 84.709079 l
352.388921 84.477696 l
353.288241 84.987074 l
354.187561 85.631632 l
355.086881 85.081305 l
355.986201 84.820702 l
356.885521 83.887139 l
357.784841 83.416156 l
358.684161 82.536934 l
359.583481 81.883 l
360.482801 81.502139 l
361.382121 81.332468 l
362.281441 81.399647 l
363.180761 81.228971 l
364.080082 81.724385 l
364.979402 81.705779 l
365.878722 82.393044 l
366.778042 81.53519 l
367.677362 80.947362 l
368.576682 80.996321 l
369.476002 81.614368 l
370.375322 83.214166 l
371.274642 84.432074 l
372.173962 84.751156 l
373.972602 84.306332 l
374.871922 84.432752 l
375.771242 84.43874 l
376.670563 84.89428 l
377.569883 85.701254 l
378.469203 87.356937 l
379.368523 88.212352 l
379.368523 88.212352 l
stroke
grestore
0.800 setlinewidth
0 setlinejoin
[] 0 setdash
0.000 setgray
gsave
38.48125 23.871875 m
38.48125 289.983875 l
stroke
grestore
gsave
395.60125 23.871875 m
395.60125 289.983875 l
stroke
grestore
gsave
38.48125 23.871875 m
395.60125 23.871875 l
stroke
grestore
gsave
38.48125 289.983875 m
395.60125 289.983875 l
stroke
grestore
/DejaVuSans findfont
12.000 scalefont
setfont
gsave
41.322500 295.983875 translate
0.000000 rotate
0.000000 0.000000 m /R glyphshow
8.337891 0.000000 m /M glyphshow
18.691406 0.000000 m /S glyphshow
26.308594 0.000000 m /E glyphshow
33.890625 0.000000 m /space glyphshow
37.705078 0.000000 m /equal glyphshow
47.759766 0.000000 m /space glyphshow
51.574219 0.000000 m /zero glyphshow
59.208984 0.000000 m /period glyphshow
63.023438 0.000000 m /one glyphshow
70.658203 0.000000 m /seven glyphshow
78.292969 0.000000 m /one glyphshow
85.927734 0.000000 m /four glyphshow
93.562500 0.000000 m /eight glyphshow
101.197266 0.000000 m /space glyphshow
105.011719 0.000000 m /a glyphshow
112.365234 0.000000 m /c glyphshow
118.962891 0.000000 m /c glyphshow
125.560547 0.000000 m /u glyphshow
133.166016 0.000000 m /r glyphshow
138.099609 0.000000 m /a glyphshow
145.453125 0.000000 m /c glyphshow
152.050781 0.000000 m /y glyphshow
159.152344 0.000000 m /space glyphshow
162.966797 0.000000 m /equal glyphshow
173.021484 0.000000 m /space glyphshow
176.835938 0.000000 m /nine glyphshow
184.470703 0.000000 m /two glyphshow
192.105469 0.000000 m /period glyphshow
195.919922 0.000000 m /eight glyphshow
203.554688 0.000000 m /two glyphshow
211.189453 0.000000 m /percent glyphshow
222.591797 0.000000 m /space glyphshow
226.406250 0.000000 m /R glyphshow
234.744141 0.000000 m /hyphen glyphshow
239.074219 0.000000 m /s glyphshow
245.326172 0.000000 m /q glyphshow
252.943359 0.000000 m /u glyphshow
260.548828 0.000000 m /a glyphshow
267.902344 0.000000 m /r glyphshow
272.835938 0.000000 m /e glyphshow
280.218750 0.000000 m /d glyphshow
287.835938 0.000000 m /space glyphshow
291.650391 0.000000 m /equal glyphshow
301.705078 0.000000 m /space glyphshow
305.519531 0.000000 m /eight glyphshow
313.154297 0.000000 m /four glyphshow
320.789062 0.000000 m /period glyphshow
324.603516 0.000000 m /three glyphshow
332.238281 0.000000 m /two glyphshow
339.873047 0.000000 m /percent glyphshow
grestore
1.000 setlinewidth
0 setlinecap
0.800 setgray
gsave
415.45725 169.608875 m
512.160375 169.608875 l
513.493708 169.608875 514.160375 170.275542 514.160375 171.608875 c
514.160375 287.983875 l
514.160375 289.317208 513.493708 289.983875 512.160375 289.983875 c
415.45725 289.983875 l
414.123917 289.983875 413.45725 289.317208 413.45725 287.983875 c
413.45725 171.608875 l
413.45725 170.275542 414.123917 169.608875 415.45725 169.608875 c
cl
gsave
1.000 setgray
fill
grestore
stroke
grestore
1.500 setlinewidth
1 setlinejoin
2 setlinecap
[] 0 setdash
0.122 0.467 0.706 setrgbcolor
gsave
417.45725 281.890125 m
437.45725 281.890125 l
stroke
grestore
0.000 setgray
/DejaVuSans findfont
10.000 scalefont
setfont
gsave
445.457250 278.390125 translate
0.000000 rotate
0.000000 0.000000 m /A glyphshow
6.840820 0.000000 m /c glyphshow
12.338867 0.000000 m /t glyphshow
16.259766 0.000000 m /u glyphshow
22.597656 0.000000 m /a glyphshow
28.725586 0.000000 m /l glyphshow
31.503906 0.000000 m /space glyphshow
34.682617 0.000000 m /parenleft glyphshow
38.583984 0.000000 m /one glyphshow
44.946289 0.000000 m /parenright glyphshow
grestore
1.000 0.498 0.055 setrgbcolor
gsave
417.45725 267.21825 m
437.45725 267.21825 l
stroke
grestore
0.000 setgray
gsave
445.457250 263.718250 translate
0.000000 rotate
0.000000 0.000000 m /A glyphshow
6.840820 0.000000 m /c glyphshow
12.338867 0.000000 m /t glyphshow
16.259766 0.000000 m /u glyphshow
22.597656 0.000000 m /a glyphshow
28.725586 0.000000 m /l glyphshow
31.503906 0.000000 m /space glyphshow
34.682617 0.000000 m /parenleft glyphshow
38.583984 0.000000 m /two glyphshow
44.946289 0.000000 m /parenright glyphshow
grestore
0.173 0.627 0.173 setrgbcolor
gsave
417.45725 252.546375 m
437.45725 252.546375 l
stroke
grestore
0.000 setgray
gsave
445.457250 249.046375 translate
0.000000 rotate
0.000000 0.000000 m /A glyphshow
6.840820 0.000000 m /c glyphshow
12.338867 0.000000 m /t glyphshow
16.259766 0.000000 m /u glyphshow
22.597656 0.000000 m /a glyphshow
28.725586 0.000000 m /l glyphshow
31.503906 0.000000 m /space glyphshow
34.682617 0.000000 m /parenleft glyphshow
38.583984 0.000000 m /three glyphshow
44.946289 0.000000 m /parenright glyphshow
grestore
0.839 0.153 0.157 setrgbcolor
gsave
417.45725 237.8745 m
437.45725 237.8745 l
stroke
grestore
0.000 setgray
gsave
445.457250 234.374500 translate
0.000000 rotate
0.000000 0.000000 m /A glyphshow
6.840820 0.000000 m /c glyphshow
12.338867 0.000000 m /t glyphshow
16.259766 0.000000 m /u glyphshow
22.597656 0.000000 m /a glyphshow
28.725586 0.000000 m /l glyphshow
31.503906 0.000000 m /space glyphshow
34.682617 0.000000 m /parenleft glyphshow
38.583984 0.000000 m /four glyphshow
44.946289 0.000000 m /parenright glyphshow
grestore
0.580 0.404 0.741 setrgbcolor
gsave
417.45725 223.202625 m
437.45725 223.202625 l
stroke
grestore
0.000 setgray
gsave
445.457250 219.702625 translate
0.000000 rotate
0.000000 0.000000 m /P glyphshow
6.030273 0.000000 m /r glyphshow
10.141602 0.000000 m /e glyphshow
16.293945 0.000000 m /d glyphshow
22.641602 0.000000 m /i glyphshow
25.419922 0.000000 m /c glyphshow
30.917969 0.000000 m /t glyphshow
34.838867 0.000000 m /e glyphshow
40.991211 0.000000 m /d glyphshow
47.338867 0.000000 m /space glyphshow
50.517578 0.000000 m /parenleft glyphshow
54.418945 0.000000 m /one glyphshow
60.781250 0.000000 m /parenright glyphshow
grestore
0.549 0.337 0.294 setrgbcolor
gsave
417.45725 208.53075 m
437.45725 208.53075 l
stroke
grestore
0.000 setgray
gsave
445.457250 205.030750 translate
0.000000 rotate
0.000000 0.000000 m /P glyphshow
6.030273 0.000000 m /r glyphshow
10.141602 0.000000 m /e glyphshow
16.293945 0.000000 m /d glyphshow
22.641602 0.000000 m /i glyphshow
25.419922 0.000000 m /c glyphshow
30.917969 0.000000 m /t glyphshow
34.838867 0.000000 m /e glyphshow
40.991211 0.000000 m /d glyphshow
47.338867 0.000000 m /space glyphshow
50.517578 0.000000 m /parenleft glyphshow
54.418945 0.000000 m /two glyphshow
60.781250 0.000000 m /parenright glyphshow
grestore
0.890 0.467 0.761 setrgbcolor
gsave
417.45725 193.858875 m
437.45725 193.858875 l
stroke
grestore
0.000 setgray
gsave
445.457250 190.358875 translate
0.000000 rotate
0.000000 0.000000 m /P glyphshow
6.030273 0.000000 m /r glyphshow
10.141602 0.000000 m /e glyphshow
16.293945 0.000000 m /d glyphshow
22.641602 0.000000 m /i glyphshow
25.419922 0.000000 m /c glyphshow
30.917969 0.000000 m /t glyphshow
34.838867 0.000000 m /e glyphshow
40.991211 0.000000 m /d glyphshow
47.338867 0.000000 m /space glyphshow
50.517578 0.000000 m /parenleft glyphshow
54.418945 0.000000 m /three glyphshow
60.781250 0.000000 m /parenright glyphshow
grestore
0.498 setgray
gsave
417.45725 179.187 m
437.45725 179.187 l
stroke
grestore
0.000 setgray
gsave
445.457250 175.687000 translate
0.000000 rotate
0.000000 0.000000 m /P glyphshow
6.030273 0.000000 m /r glyphshow
10.141602 0.000000 m /e glyphshow
16.293945 0.000000 m /d glyphshow
22.641602 0.000000 m /i glyphshow
25.419922 0.000000 m /c glyphshow
30.917969 0.000000 m /t glyphshow
34.838867 0.000000 m /e glyphshow
40.991211 0.000000 m /d glyphshow
47.338867 0.000000 m /space glyphshow
50.517578 0.000000 m /parenleft glyphshow
54.418945 0.000000 m /four glyphshow
60.781250 0.000000 m /parenright glyphshow
grestore
/DejaVuSans findfont
12.000 scalefont
setfont
gsave
130.164062 315.418875 translate
0.000000 rotate
0.000000 0.000000 m /R glyphshow
8.337891 0.000000 m /B glyphshow
16.570312 0.000000 m /F glyphshow
23.472656 0.000000 m /space glyphshow
27.287109 0.000000 m /parenleft glyphshow
31.968750 0.000000 m /c glyphshow
38.566406 0.000000 m /a glyphshow
45.919922 0.000000 m /t glyphshow
50.625000 0.000000 m /e glyphshow
58.007812 0.000000 m /g glyphshow
65.625000 0.000000 m /o glyphshow
72.966797 0.000000 m /r glyphshow
77.900391 0.000000 m /i glyphshow
81.234375 0.000000 m /c glyphshow
87.832031 0.000000 m /a glyphshow
95.185547 0.000000 m /l glyphshow
98.519531 0.000000 m /parenright glyphshow
103.201172 0.000000 m /space glyphshow
107.015625 0.000000 m /parenleft glyphshow
111.697266 0.000000 m /three glyphshow
119.332031 0.000000 m /comma glyphshow
123.146484 0.000000 m /space glyphshow
126.960938 0.000000 m /six glyphshow
134.595703 0.000000 m /zero glyphshow
142.230469 0.000000 m /comma glyphshow
146.044922 0.000000 m /space glyphshow
149.859375 0.000000 m /four glyphshow
157.494141 0.000000 m /parenright glyphshow
grestore

end
showpage
