%!PS-Adobe-3.0 EPSF-3.0
%%Title: plots/2.eps
%%Creator: matplotlib version 2.2.2, http://matplotlib.org/
%%CreationDate: Thu May 31 19:17:01 2018
%%Orientation: portrait
%%BoundingBox: 55 230 556 561
%%EndComments
%%BeginProlog
/mpldict 8 dict def
mpldict begin
/m { moveto } bind def
/l { lineto } bind def
/r { rlineto } bind def
/c { curveto } bind def
/cl { closepath } bind def
/box {
m
1 index 0 r
0 exch r
neg 0 r
cl
} bind def
/clipbox {
box
clip
newpath
} bind def
%!PS-Adobe-3.0 Resource-Font
%%Title: DejaVu Sans
%%Copyright: Copyright (c) 2003 by Bitstream, Inc. All Rights Reserved. Copyright (c) 2006 by Tavmjong Bah. All Rights Reserved. DejaVu changes are in public domain 
%%Creator: Converted from TrueType to type 3 by PPR
25 dict begin
/_d{bind def}bind def
/_m{moveto}_d
/_l{lineto}_d
/_cl{closepath eofill}_d
/_c{curveto}_d
/_sc{7 -1 roll{setcachedevice}{pop pop pop pop pop pop}ifelse}_d
/_e{exec}_d
/FontName /DejaVuSans def
/PaintType 0 def
/FontMatrix[.001 0 0 .001 0 0]def
/FontBBox[-1021 -463 1793 1232]def
/FontType 3 def
/Encoding [ /space /percent /parenleft /parenright /comma /hyphen /period /zero /one /two /three /four /five /six /eight /nine /equal /A /E /M /P /R /S /a /c /d /e /i /l /n /o /p /q /r /s /t /u ] def
/FontInfo 10 dict dup begin
/FamilyName (DejaVu Sans) def
/FullName (DejaVu Sans) def
/Notice (Copyright (c) 2003 by Bitstream, Inc. All Rights Reserved. Copyright (c) 2006 by Tavmjong Bah. All Rights Reserved. DejaVu changes are in public domain ) def
/Weight (Book) def
/Version (Version 2.35) def
/ItalicAngle 0.0 def
/isFixedPitch false def
/UnderlinePosition -130 def
/UnderlineThickness 90 def
end readonly def
/CharStrings 38 dict dup begin
/.notdef 0 def
/space{318 0 0 0 0 0 _sc
}_d
/percent{{950 0 55 -13 895 742 _sc
727 321 _m
699 321 676 309 660 285 _c
644 261 636 227 636 184 _c
636 142 644 108 660 84 _c
676 60 699 48 727 48 _c
755 48 777 60 793 84 _c
809 108 817 142 817 184 _c
817 226 809 260 793 284 _c
777 308 755 321 727 321 _c
727 383 _m
778 383 819 365 849 329 _c
879 293 895 244 895 184 _c
895 123 879 75 849 40 _c
819 4 778 -13 727 -13 _c
}_e{675 -13 633 4 603 40 _c
573 75 558 123 558 184 _c
558 245 573 293 603 329 _c
633 365 675 383 727 383 _c
223 680 _m
195 680 173 667 157 643 _c
141 619 133 586 133 544 _c
133 500 141 467 157 443 _c
173 419 195 407 223 407 _c
251 407 274 419 290 443 _c
306 467 314 500 314 544 _c
314 586 305 619 289 643 _c
273 667 251 680 223 680 _c
664 742 _m
742 742 _l
286 -13 _l
}_e{208 -13 _l
664 742 _l
223 742 _m
274 742 315 724 346 688 _c
376 652 392 604 392 544 _c
392 482 376 434 346 398 _c
316 362 275 345 223 345 _c
171 345 130 362 100 398 _c
70 434 55 482 55 544 _c
55 604 70 652 100 688 _c
130 724 171 742 223 742 _c
_cl}_e}_d
/parenleft{390 0 86 -131 310 759 _sc
310 759 _m
266 683 234 609 213 536 _c
191 463 181 389 181 314 _c
181 238 191 164 213 91 _c
234 17 266 -56 310 -131 _c
232 -131 _l
183 -54 146 20 122 94 _c
98 168 86 241 86 314 _c
86 386 98 459 122 533 _c
146 607 182 682 232 759 _c
310 759 _l
_cl}_d
/parenright{390 0 80 -131 304 759 _sc
80 759 _m
158 759 _l
206 682 243 607 267 533 _c
291 459 304 386 304 314 _c
304 241 291 168 267 94 _c
243 20 206 -54 158 -131 _c
80 -131 _l
123 -56 155 17 177 91 _c
198 164 209 238 209 314 _c
209 389 198 463 177 536 _c
155 609 123 683 80 759 _c
_cl}_d
/comma{318 0 77 -115 220 124 _sc
117 124 _m
220 124 _l
220 40 _l
140 -115 _l
77 -115 _l
117 40 _l
117 124 _l
_cl}_d
/hyphen{361 0 49 234 312 314 _sc
49 314 _m
312 314 _l
312 234 _l
49 234 _l
49 314 _l
_cl}_d
/period{318 0 107 0 210 124 _sc
107 124 _m
210 124 _l
210 0 _l
107 0 _l
107 124 _l
_cl}_d
/zero{636 0 66 -13 570 742 _sc
318 664 _m
267 664 229 639 203 589 _c
177 539 165 464 165 364 _c
165 264 177 189 203 139 _c
229 89 267 64 318 64 _c
369 64 407 89 433 139 _c
458 189 471 264 471 364 _c
471 464 458 539 433 589 _c
407 639 369 664 318 664 _c
318 742 _m
399 742 461 709 505 645 _c
548 580 570 486 570 364 _c
570 241 548 147 505 83 _c
461 19 399 -13 318 -13 _c
236 -13 173 19 130 83 _c
87 147 66 241 66 364 _c
66 486 87 580 130 645 _c
173 709 236 742 318 742 _c
_cl}_d
/one{636 0 110 0 544 729 _sc
124 83 _m
285 83 _l
285 639 _l
110 604 _l
110 694 _l
284 729 _l
383 729 _l
383 83 _l
544 83 _l
544 0 _l
124 0 _l
124 83 _l
_cl}_d
/two{{636 0 73 0 536 742 _sc
192 83 _m
536 83 _l
536 0 _l
73 0 _l
73 83 _l
110 121 161 173 226 239 _c
290 304 331 346 348 365 _c
380 400 402 430 414 455 _c
426 479 433 504 433 528 _c
433 566 419 598 392 622 _c
365 646 330 659 286 659 _c
255 659 222 653 188 643 _c
154 632 117 616 78 594 _c
78 694 _l
118 710 155 722 189 730 _c
223 738 255 742 284 742 _c
}_e{359 742 419 723 464 685 _c
509 647 532 597 532 534 _c
532 504 526 475 515 449 _c
504 422 484 390 454 354 _c
446 344 420 317 376 272 _c
332 227 271 164 192 83 _c
_cl}_e}_d
/three{{636 0 76 -13 556 742 _sc
406 393 _m
453 383 490 362 516 330 _c
542 298 556 258 556 212 _c
556 140 531 84 482 45 _c
432 6 362 -13 271 -13 _c
240 -13 208 -10 176 -4 _c
144 1 110 10 76 22 _c
76 117 _l
103 101 133 89 166 81 _c
198 73 232 69 268 69 _c
330 69 377 81 409 105 _c
441 129 458 165 458 212 _c
458 254 443 288 413 312 _c
383 336 341 349 287 349 _c
}_e{202 349 _l
202 430 _l
291 430 _l
339 430 376 439 402 459 _c
428 478 441 506 441 543 _c
441 580 427 609 401 629 _c
374 649 336 659 287 659 _c
260 659 231 656 200 650 _c
169 644 135 635 98 623 _c
98 711 _l
135 721 170 729 203 734 _c
235 739 266 742 296 742 _c
370 742 429 725 473 691 _c
517 657 539 611 539 553 _c
539 513 527 479 504 451 _c
481 423 448 403 406 393 _c
_cl}_e}_d
/four{636 0 49 0 580 729 _sc
378 643 _m
129 254 _l
378 254 _l
378 643 _l
352 729 _m
476 729 _l
476 254 _l
580 254 _l
580 172 _l
476 172 _l
476 0 _l
378 0 _l
378 172 _l
49 172 _l
49 267 _l
352 729 _l
_cl}_d
/five{{636 0 77 -13 549 729 _sc
108 729 _m
495 729 _l
495 646 _l
198 646 _l
198 467 _l
212 472 227 476 241 478 _c
255 480 270 482 284 482 _c
365 482 429 459 477 415 _c
525 370 549 310 549 234 _c
549 155 524 94 475 51 _c
426 8 357 -13 269 -13 _c
238 -13 207 -10 175 -6 _c
143 -1 111 6 77 17 _c
77 116 _l
106 100 136 88 168 80 _c
199 72 232 69 267 69 _c
}_e{323 69 368 83 401 113 _c
433 143 450 183 450 234 _c
450 284 433 324 401 354 _c
368 384 323 399 267 399 _c
241 399 214 396 188 390 _c
162 384 135 375 108 363 _c
108 729 _l
_cl}_e}_d
/six{{636 0 70 -13 573 742 _sc
330 404 _m
286 404 251 388 225 358 _c
199 328 186 286 186 234 _c
186 181 199 139 225 109 _c
251 79 286 64 330 64 _c
374 64 409 79 435 109 _c
461 139 474 181 474 234 _c
474 286 461 328 435 358 _c
409 388 374 404 330 404 _c
526 713 _m
526 623 _l
501 635 476 644 451 650 _c
425 656 400 659 376 659 _c
310 659 260 637 226 593 _c
}_e{192 549 172 482 168 394 _c
187 422 211 444 240 459 _c
269 474 301 482 336 482 _c
409 482 467 459 509 415 _c
551 371 573 310 573 234 _c
573 159 550 99 506 54 _c
462 9 403 -13 330 -13 _c
246 -13 181 19 137 83 _c
92 147 70 241 70 364 _c
70 479 97 571 152 639 _c
206 707 280 742 372 742 _c
396 742 421 739 447 735 _c
472 730 498 723 526 713 _c
_cl}_e}_d
/eight{{636 0 68 -13 568 742 _sc
318 346 _m
271 346 234 333 207 308 _c
180 283 167 249 167 205 _c
167 161 180 126 207 101 _c
234 76 271 64 318 64 _c
364 64 401 76 428 102 _c
455 127 469 161 469 205 _c
469 249 455 283 429 308 _c
402 333 365 346 318 346 _c
219 388 _m
177 398 144 418 120 447 _c
96 476 85 511 85 553 _c
85 611 105 657 147 691 _c
188 725 245 742 318 742 _c
}_e{390 742 447 725 489 691 _c
530 657 551 611 551 553 _c
551 511 539 476 515 447 _c
491 418 459 398 417 388 _c
464 377 501 355 528 323 _c
554 291 568 251 568 205 _c
568 134 546 80 503 43 _c
459 5 398 -13 318 -13 _c
237 -13 175 5 132 43 _c
89 80 68 134 68 205 _c
68 251 81 291 108 323 _c
134 355 171 377 219 388 _c
183 544 _m
183 506 194 476 218 455 _c
}_e{242 434 275 424 318 424 _c
360 424 393 434 417 455 _c
441 476 453 506 453 544 _c
453 582 441 611 417 632 _c
393 653 360 664 318 664 _c
275 664 242 653 218 632 _c
194 611 183 582 183 544 _c
_cl}_e}_d
/nine{{636 0 63 -13 566 742 _sc
110 15 _m
110 105 _l
134 93 159 84 185 78 _c
210 72 235 69 260 69 _c
324 69 374 90 408 134 _c
442 178 462 244 468 334 _c
448 306 424 284 396 269 _c
367 254 335 247 300 247 _c
226 247 168 269 126 313 _c
84 357 63 417 63 494 _c
63 568 85 628 129 674 _c
173 719 232 742 306 742 _c
390 742 455 709 499 645 _c
543 580 566 486 566 364 _c
}_e{566 248 538 157 484 89 _c
429 21 356 -13 264 -13 _c
239 -13 214 -10 189 -6 _c
163 -2 137 5 110 15 _c
306 324 _m
350 324 385 339 411 369 _c
437 399 450 441 450 494 _c
450 546 437 588 411 618 _c
385 648 350 664 306 664 _c
262 664 227 648 201 618 _c
175 588 162 546 162 494 _c
162 441 175 399 201 369 _c
227 339 262 324 306 324 _c
_cl}_e}_d
/equal{838 0 106 172 732 454 _sc
106 454 _m
732 454 _l
732 372 _l
106 372 _l
106 454 _l
106 255 _m
732 255 _l
732 172 _l
106 172 _l
106 255 _l
_cl}_d
/A{684 0 8 0 676 729 _sc
342 632 _m
208 269 _l
476 269 _l
342 632 _l
286 729 _m
398 729 _l
676 0 _l
573 0 _l
507 187 _l
178 187 _l
112 0 _l
8 0 _l
286 729 _l
_cl}_d
/E{632 0 98 0 568 729 _sc
98 729 _m
559 729 _l
559 646 _l
197 646 _l
197 430 _l
544 430 _l
544 347 _l
197 347 _l
197 83 _l
568 83 _l
568 0 _l
98 0 _l
98 729 _l
_cl}_d
/M{863 0 98 0 765 729 _sc
98 729 _m
245 729 _l
431 233 _l
618 729 _l
765 729 _l
765 0 _l
669 0 _l
669 640 _l
481 140 _l
382 140 _l
194 640 _l
194 0 _l
98 0 _l
98 729 _l
_cl}_d
/P{603 0 98 0 569 729 _sc
197 648 _m
197 374 _l
321 374 _l
367 374 402 385 427 409 _c
452 433 465 467 465 511 _c
465 555 452 588 427 612 _c
402 636 367 648 321 648 _c
197 648 _l
98 729 _m
321 729 _l
402 729 464 710 506 673 _c
548 636 569 582 569 511 _c
569 439 548 384 506 348 _c
464 311 402 293 321 293 _c
197 293 _l
197 0 _l
98 0 _l
98 729 _l
_cl}_d
/R{{695 0 98 0 666 729 _sc
444 342 _m
465 334 486 319 506 296 _c
526 272 546 240 566 199 _c
666 0 _l
560 0 _l
467 187 _l
443 235 419 268 397 284 _c
374 300 343 308 304 308 _c
197 308 _l
197 0 _l
98 0 _l
98 729 _l
321 729 _l
404 729 466 711 507 677 _c
548 642 569 589 569 519 _c
569 473 558 434 537 404 _c
515 374 484 353 444 342 _c
197 648 _m
197 389 _l
321 389 _l
}_e{368 389 404 400 428 422 _c
452 444 465 476 465 519 _c
465 561 452 593 428 615 _c
404 637 368 648 321 648 _c
197 648 _l
_cl}_e}_d
/S{{635 0 66 -13 579 742 _sc
535 705 _m
535 609 _l
497 627 462 640 429 649 _c
395 657 363 662 333 662 _c
279 662 237 651 208 631 _c
179 610 165 580 165 542 _c
165 510 174 485 194 469 _c
213 452 250 439 304 429 _c
364 417 _l
437 403 491 378 526 343 _c
561 307 579 260 579 201 _c
579 130 555 77 508 41 _c
460 5 391 -13 300 -13 _c
265 -13 228 -9 189 -2 _c
}_e{150 5 110 16 69 32 _c
69 134 _l
109 111 148 94 186 83 _c
224 71 262 66 300 66 _c
356 66 399 77 430 99 _c
460 121 476 152 476 194 _c
476 230 465 258 443 278 _c
421 298 385 313 335 323 _c
275 335 _l
201 349 148 372 115 404 _c
82 435 66 478 66 534 _c
66 598 88 649 134 686 _c
179 723 242 742 322 742 _c
356 742 390 739 426 733 _c
461 727 497 717 535 705 _c
}_e{_cl}_e}_d
/a{{613 0 60 -13 522 560 _sc
343 275 _m
270 275 220 266 192 250 _c
164 233 150 205 150 165 _c
150 133 160 107 181 89 _c
202 70 231 61 267 61 _c
317 61 357 78 387 114 _c
417 149 432 196 432 255 _c
432 275 _l
343 275 _l
522 312 _m
522 0 _l
432 0 _l
432 83 _l
411 49 385 25 355 10 _c
325 -5 287 -13 243 -13 _c
187 -13 142 2 109 33 _c
76 64 60 106 60 159 _c
}_e{60 220 80 266 122 298 _c
163 329 224 345 306 345 _c
432 345 _l
432 354 _l
432 395 418 427 391 450 _c
364 472 326 484 277 484 _c
245 484 215 480 185 472 _c
155 464 127 453 100 439 _c
100 522 _l
132 534 164 544 195 550 _c
226 556 256 560 286 560 _c
365 560 424 539 463 498 _c
502 457 522 395 522 312 _c
_cl}_e}_d
/c{{550 0 55 -13 488 560 _sc
488 526 _m
488 442 _l
462 456 437 466 411 473 _c
385 480 360 484 334 484 _c
276 484 230 465 198 428 _c
166 391 150 339 150 273 _c
150 206 166 154 198 117 _c
230 80 276 62 334 62 _c
360 62 385 65 411 72 _c
437 79 462 90 488 104 _c
488 21 _l
462 9 436 0 410 -5 _c
383 -10 354 -13 324 -13 _c
242 -13 176 12 128 64 _c
}_e{79 115 55 185 55 273 _c
55 362 79 432 128 483 _c
177 534 244 560 330 560 _c
358 560 385 557 411 551 _c
437 545 463 537 488 526 _c
_cl}_e}_d
/d{{635 0 55 -13 544 760 _sc
454 464 _m
454 760 _l
544 760 _l
544 0 _l
454 0 _l
454 82 _l
435 49 411 25 382 10 _c
353 -5 319 -13 279 -13 _c
213 -13 159 13 117 65 _c
75 117 55 187 55 273 _c
55 359 75 428 117 481 _c
159 533 213 560 279 560 _c
319 560 353 552 382 536 _c
411 520 435 496 454 464 _c
148 273 _m
148 207 161 155 188 117 _c
215 79 253 61 301 61 _c
}_e{348 61 385 79 413 117 _c
440 155 454 207 454 273 _c
454 339 440 390 413 428 _c
385 466 348 485 301 485 _c
253 485 215 466 188 428 _c
161 390 148 339 148 273 _c
_cl}_e}_d
/e{{615 0 55 -13 562 560 _sc
562 296 _m
562 252 _l
149 252 _l
153 190 171 142 205 110 _c
238 78 284 62 344 62 _c
378 62 412 66 444 74 _c
476 82 509 95 541 113 _c
541 28 _l
509 14 476 3 442 -3 _c
408 -9 373 -13 339 -13 _c
251 -13 182 12 131 62 _c
80 112 55 181 55 268 _c
55 357 79 428 127 481 _c
175 533 241 560 323 560 _c
397 560 455 536 498 489 _c
}_e{540 441 562 377 562 296 _c
472 322 _m
471 371 457 410 431 440 _c
404 469 368 484 324 484 _c
274 484 234 469 204 441 _c
174 413 156 373 152 322 _c
472 322 _l
_cl}_e}_d
/i{278 0 94 0 184 760 _sc
94 547 _m
184 547 _l
184 0 _l
94 0 _l
94 547 _l
94 760 _m
184 760 _l
184 646 _l
94 646 _l
94 760 _l
_cl}_d
/l{278 0 94 0 184 760 _sc
94 760 _m
184 760 _l
184 0 _l
94 0 _l
94 760 _l
_cl}_d
/n{634 0 91 0 549 560 _sc
549 330 _m
549 0 _l
459 0 _l
459 327 _l
459 379 448 417 428 443 _c
408 469 378 482 338 482 _c
289 482 251 466 223 435 _c
195 404 181 362 181 309 _c
181 0 _l
91 0 _l
91 547 _l
181 547 _l
181 462 _l
202 494 227 519 257 535 _c
286 551 320 560 358 560 _c
420 560 468 540 500 501 _c
532 462 549 405 549 330 _c
_cl}_d
/o{612 0 55 -13 557 560 _sc
306 484 _m
258 484 220 465 192 427 _c
164 389 150 338 150 273 _c
150 207 163 156 191 118 _c
219 80 257 62 306 62 _c
354 62 392 80 420 118 _c
448 156 462 207 462 273 _c
462 337 448 389 420 427 _c
392 465 354 484 306 484 _c
306 560 _m
384 560 445 534 490 484 _c
534 433 557 363 557 273 _c
557 183 534 113 490 63 _c
445 12 384 -13 306 -13 _c
227 -13 165 12 121 63 _c
77 113 55 183 55 273 _c
55 363 77 433 121 484 _c
165 534 227 560 306 560 _c
_cl}_d
/p{{635 0 91 -207 580 560 _sc
181 82 _m
181 -207 _l
91 -207 _l
91 547 _l
181 547 _l
181 464 _l
199 496 223 520 252 536 _c
281 552 316 560 356 560 _c
422 560 476 533 518 481 _c
559 428 580 359 580 273 _c
580 187 559 117 518 65 _c
476 13 422 -13 356 -13 _c
316 -13 281 -5 252 10 _c
223 25 199 49 181 82 _c
487 273 _m
487 339 473 390 446 428 _c
418 466 381 485 334 485 _c
}_e{286 485 249 466 222 428 _c
194 390 181 339 181 273 _c
181 207 194 155 222 117 _c
249 79 286 61 334 61 _c
381 61 418 79 446 117 _c
473 155 487 207 487 273 _c
_cl}_e}_d
/q{{635 0 55 -207 544 560 _sc
148 273 _m
148 207 161 155 188 117 _c
215 79 253 61 301 61 _c
348 61 385 79 413 117 _c
440 155 454 207 454 273 _c
454 339 440 390 413 428 _c
385 466 348 485 301 485 _c
253 485 215 466 188 428 _c
161 390 148 339 148 273 _c
454 82 _m
435 49 411 25 382 10 _c
353 -5 319 -13 279 -13 _c
213 -13 159 13 117 65 _c
75 117 55 187 55 273 _c
}_e{55 359 75 428 117 481 _c
159 533 213 560 279 560 _c
319 560 353 552 382 536 _c
411 520 435 496 454 464 _c
454 547 _l
544 547 _l
544 -207 _l
454 -207 _l
454 82 _l
_cl}_e}_d
/r{411 0 91 0 411 560 _sc
411 463 _m
401 469 390 473 378 476 _c
366 478 353 480 339 480 _c
288 480 249 463 222 430 _c
194 397 181 350 181 288 _c
181 0 _l
91 0 _l
91 547 _l
181 547 _l
181 462 _l
199 495 224 520 254 536 _c
284 552 321 560 365 560 _c
371 560 378 559 386 559 _c
393 558 401 557 411 555 _c
411 463 _l
_cl}_d
/s{{521 0 54 -13 472 560 _sc
443 531 _m
443 446 _l
417 458 391 468 364 475 _c
336 481 308 485 279 485 _c
234 485 200 478 178 464 _c
156 450 145 430 145 403 _c
145 382 153 366 169 354 _c
185 342 217 330 265 320 _c
296 313 _l
360 299 405 279 432 255 _c
458 230 472 195 472 151 _c
472 100 452 60 412 31 _c
372 1 316 -13 246 -13 _c
216 -13 186 -10 154 -5 _c
}_e{122 0 89 8 54 20 _c
54 113 _l
87 95 120 82 152 74 _c
184 65 216 61 248 61 _c
290 61 323 68 346 82 _c
368 96 380 117 380 144 _c
380 168 371 187 355 200 _c
339 213 303 226 247 238 _c
216 245 _l
160 257 119 275 95 299 _c
70 323 58 356 58 399 _c
58 450 76 490 112 518 _c
148 546 200 560 268 560 _c
301 560 332 557 362 552 _c
391 547 418 540 443 531 _c
}_e{_cl}_e}_d
/t{392 0 27 0 368 702 _sc
183 702 _m
183 547 _l
368 547 _l
368 477 _l
183 477 _l
183 180 _l
183 135 189 106 201 94 _c
213 81 238 75 276 75 _c
368 75 _l
368 0 _l
276 0 _l
206 0 158 13 132 39 _c
106 65 93 112 93 180 _c
93 477 _l
27 477 _l
27 547 _l
93 547 _l
93 702 _l
183 702 _l
_cl}_d
/u{634 0 85 -13 543 560 _sc
85 216 _m
85 547 _l
175 547 _l
175 219 _l
175 167 185 129 205 103 _c
225 77 255 64 296 64 _c
344 64 383 79 411 110 _c
439 141 453 183 453 237 _c
453 547 _l
543 547 _l
543 0 _l
453 0 _l
453 84 _l
431 50 405 26 377 10 _c
348 -5 315 -13 277 -13 _c
214 -13 166 6 134 45 _c
101 83 85 140 85 216 _c
311 560 _m
311 560 _l
_cl}_d
end readonly def

/BuildGlyph
 {exch begin
 CharStrings exch
 2 copy known not{pop /.notdef}if
 true 3 1 roll get exec
 end}_d

/BuildChar {
 1 index /Encoding get exch get
 1 index /BuildGlyph get exec
}_d

FontName currentdict end definefont pop
end
%%EndProlog
mpldict begin
55.007 230.128 translate
501.985 331.744 0 0 clipbox
gsave
0 0 m
501.985375 0 l
501.985375 331.743875 l
0 331.743875 l
cl
1.000 setgray
fill
grestore
gsave
36.465625 23.871875 m
393.585625 23.871875 l
393.585625 289.983875 l
36.465625 289.983875 l
cl
1.000 setgray
fill
grestore
0.800 setlinewidth
1 setlinejoin
0 setlinecap
[] 0 setdash
0.000 setgray
gsave
/o {
gsave
newpath
translate
0.8 setlinewidth
1 setlinejoin
0 setlinecap
0 0 m
0 -3.5 l

gsave
0.000 setgray
fill
grestore
stroke
grestore
} bind def
52.6984 23.8719 o
grestore
/DejaVuSans findfont
10.000 scalefont
setfont
gsave
49.518665 9.278125 translate
0.000000 rotate
0.000000 0.000000 m /zero glyphshow
grestore
gsave
/o {
gsave
newpath
translate
0.8 setlinewidth
1 setlinejoin
0 setlinecap
0 0 m
0 -3.5 l

gsave
0.000 setgray
fill
grestore
stroke
grestore
} bind def
98.0412 23.8719 o
grestore
gsave
91.681791 9.278125 translate
0.000000 rotate
0.000000 0.000000 m /five glyphshow
6.362305 0.000000 m /zero glyphshow
grestore
gsave
/o {
gsave
newpath
translate
0.8 setlinewidth
1 setlinejoin
0 setlinecap
0 0 m
0 -3.5 l

gsave
0.000 setgray
fill
grestore
stroke
grestore
} bind def
143.384 23.8719 o
grestore
gsave
133.844917 9.278125 translate
0.000000 rotate
0.000000 0.000000 m /one glyphshow
6.362305 0.000000 m /zero glyphshow
12.724609 0.000000 m /zero glyphshow
grestore
gsave
/o {
gsave
newpath
translate
0.8 setlinewidth
1 setlinejoin
0 setlinecap
0 0 m
0 -3.5 l

gsave
0.000 setgray
fill
grestore
stroke
grestore
} bind def
188.727 23.8719 o
grestore
gsave
179.187731 9.278125 translate
0.000000 rotate
0.000000 0.000000 m /one glyphshow
6.362305 0.000000 m /five glyphshow
12.724609 0.000000 m /zero glyphshow
grestore
gsave
/o {
gsave
newpath
translate
0.8 setlinewidth
1 setlinejoin
0 setlinecap
0 0 m
0 -3.5 l

gsave
0.000 setgray
fill
grestore
stroke
grestore
} bind def
234.07 23.8719 o
grestore
gsave
224.530544 9.278125 translate
0.000000 rotate
0.000000 0.000000 m /two glyphshow
6.362305 0.000000 m /zero glyphshow
12.724609 0.000000 m /zero glyphshow
grestore
gsave
/o {
gsave
newpath
translate
0.8 setlinewidth
1 setlinejoin
0 setlinecap
0 0 m
0 -3.5 l

gsave
0.000 setgray
fill
grestore
stroke
grestore
} bind def
279.412 23.8719 o
grestore
gsave
269.873358 9.278125 translate
0.000000 rotate
0.000000 0.000000 m /two glyphshow
6.362305 0.000000 m /five glyphshow
12.724609 0.000000 m /zero glyphshow
grestore
gsave
/o {
gsave
newpath
translate
0.8 setlinewidth
1 setlinejoin
0 setlinecap
0 0 m
0 -3.5 l

gsave
0.000 setgray
fill
grestore
stroke
grestore
} bind def
324.755 23.8719 o
grestore
gsave
315.216171 9.278125 translate
0.000000 rotate
0.000000 0.000000 m /three glyphshow
6.362305 0.000000 m /zero glyphshow
12.724609 0.000000 m /zero glyphshow
grestore
gsave
/o {
gsave
newpath
translate
0.8 setlinewidth
1 setlinejoin
0 setlinecap
0 0 m
0 -3.5 l

gsave
0.000 setgray
fill
grestore
stroke
grestore
} bind def
370.098 23.8719 o
grestore
gsave
360.558985 9.278125 translate
0.000000 rotate
0.000000 0.000000 m /three glyphshow
6.362305 0.000000 m /five glyphshow
12.724609 0.000000 m /zero glyphshow
grestore
gsave
/o {
gsave
newpath
translate
0.8 setlinewidth
1 setlinejoin
0 setlinecap
0 0 m
-3.5 0 l

gsave
0.000 setgray
fill
grestore
stroke
grestore
} bind def
36.4656 31.5949 o
grestore
gsave
7.200000 27.798063 translate
0.000000 rotate
0.000000 0.000000 m /one glyphshow
6.362305 0.000000 m /period glyphshow
9.541016 0.000000 m /zero glyphshow
15.903320 0.000000 m /four glyphshow
grestore
gsave
/o {
gsave
newpath
translate
0.8 setlinewidth
1 setlinejoin
0 setlinecap
0 0 m
-3.5 0 l

gsave
0.000 setgray
fill
grestore
stroke
grestore
} bind def
36.4656 61.7225 o
grestore
gsave
7.200000 57.925639 translate
0.000000 rotate
0.000000 0.000000 m /one glyphshow
6.362305 0.000000 m /period glyphshow
9.541016 0.000000 m /zero glyphshow
15.903320 0.000000 m /six glyphshow
grestore
gsave
/o {
gsave
newpath
translate
0.8 setlinewidth
1 setlinejoin
0 setlinecap
0 0 m
-3.5 0 l

gsave
0.000 setgray
fill
grestore
stroke
grestore
} bind def
36.4656 91.8501 o
grestore
gsave
7.200000 88.053216 translate
0.000000 rotate
0.000000 0.000000 m /one glyphshow
6.362305 0.000000 m /period glyphshow
9.541016 0.000000 m /zero glyphshow
15.903320 0.000000 m /eight glyphshow
grestore
gsave
/o {
gsave
newpath
translate
0.8 setlinewidth
1 setlinejoin
0 setlinecap
0 0 m
-3.5 0 l

gsave
0.000 setgray
fill
grestore
stroke
grestore
} bind def
36.4656 121.978 o
grestore
gsave
7.200000 118.180792 translate
0.000000 rotate
0.000000 0.000000 m /one glyphshow
6.362305 0.000000 m /period glyphshow
9.541016 0.000000 m /one glyphshow
15.903320 0.000000 m /zero glyphshow
grestore
gsave
/o {
gsave
newpath
translate
0.8 setlinewidth
1 setlinejoin
0 setlinecap
0 0 m
-3.5 0 l

gsave
0.000 setgray
fill
grestore
stroke
grestore
} bind def
36.4656 152.105 o
grestore
gsave
7.200000 148.308369 translate
0.000000 rotate
0.000000 0.000000 m /one glyphshow
6.362305 0.000000 m /period glyphshow
9.541016 0.000000 m /one glyphshow
15.903320 0.000000 m /two glyphshow
grestore
gsave
/o {
gsave
newpath
translate
0.8 setlinewidth
1 setlinejoin
0 setlinecap
0 0 m
-3.5 0 l

gsave
0.000 setgray
fill
grestore
stroke
grestore
} bind def
36.4656 182.233 o
grestore
gsave
7.200000 178.435945 translate
0.000000 rotate
0.000000 0.000000 m /one glyphshow
6.362305 0.000000 m /period glyphshow
9.541016 0.000000 m /one glyphshow
15.903320 0.000000 m /four glyphshow
grestore
gsave
/o {
gsave
newpath
translate
0.8 setlinewidth
1 setlinejoin
0 setlinecap
0 0 m
-3.5 0 l

gsave
0.000 setgray
fill
grestore
stroke
grestore
} bind def
36.4656 212.36 o
grestore
gsave
7.200000 208.563521 translate
0.000000 rotate
0.000000 0.000000 m /one glyphshow
6.362305 0.000000 m /period glyphshow
9.541016 0.000000 m /one glyphshow
15.903320 0.000000 m /six glyphshow
grestore
gsave
/o {
gsave
newpath
translate
0.8 setlinewidth
1 setlinejoin
0 setlinecap
0 0 m
-3.5 0 l

gsave
0.000 setgray
fill
grestore
stroke
grestore
} bind def
36.4656 242.488 o
grestore
gsave
7.200000 238.691098 translate
0.000000 rotate
0.000000 0.000000 m /one glyphshow
6.362305 0.000000 m /period glyphshow
9.541016 0.000000 m /one glyphshow
15.903320 0.000000 m /eight glyphshow
grestore
gsave
/o {
gsave
newpath
translate
0.8 setlinewidth
1 setlinejoin
0 setlinecap
0 0 m
-3.5 0 l

gsave
0.000 setgray
fill
grestore
stroke
grestore
} bind def
36.4656 272.616 o
grestore
gsave
7.200000 268.818674 translate
0.000000 rotate
0.000000 0.000000 m /one glyphshow
6.362305 0.000000 m /period glyphshow
9.541016 0.000000 m /two glyphshow
15.903320 0.000000 m /zero glyphshow
grestore
1.500 setlinewidth
2 setlinecap
0.122 0.467 0.706 setrgbcolor
gsave
357.1 266.1 36.47 23.87 clipbox
52.698352 44.549796 m
53.605209 61.556813 l
54.512065 51.795478 l
55.418921 51.479138 l
56.325777 50.891651 l
57.232634 56.962357 l
58.13949 55.832573 l
59.046346 57.519717 l
59.953202 65.036548 l
60.860059 67.31118 l
61.766915 67.732966 l
62.673771 61.993663 l
63.580628 61.602004 l
64.487484 77.509364 l
65.39434 67.476881 l
66.301196 70.775851 l
67.208053 76.108432 l
68.114909 76.635665 l
69.021765 77.554556 l
69.928621 83.323987 l
70.835478 81.742289 l
71.742334 84.634536 l
72.64919 73.095674 l
73.556047 76.018049 l
74.462903 76.469963 l
75.369759 79.045871 l
76.276615 75.957794 l
77.183472 91.262603 l
78.090328 87.270699 l
78.997184 86.08066 l
79.90404 88.777078 l
80.810897 88.897588 l
81.717753 90.946263 l
82.624609 84.393516 l
83.531466 74.993712 l
84.438322 74.82801 l
86.252034 67.371435 l
87.158891 67.296116 l
88.065747 65.277568 l
88.972603 61.089835 l
89.879459 58.122269 l
90.786316 62.008726 l
91.693172 72.764271 l
92.600028 62.957745 l
93.506885 63.650679 l
94.413741 62.626342 l
95.320597 63.921827 l
96.227453 53.301857 l
97.13431 56.61589 l
98.041166 58.950777 l
98.948022 55.847637 l
99.854878 54.341258 l
100.761735 56.721337 l
101.668591 60.201072 l
102.575447 60.924134 l
103.482304 53.557941 l
104.38916 47.713191 l
105.296016 64.087529 l
106.202872 64.464124 l
107.109729 62.084045 l
108.016585 59.071288 l
108.923441 57.203378 l
109.830297 53.136155 l
110.737154 59.011032 l
111.64401 74.767755 l
112.550866 72.267166 l
113.457723 73.125802 l
114.364579 69.631003 l
115.271435 62.264811 l
116.178291 81.892927 l
117.085148 86.653084 l
117.992004 82.299649 l
119.805716 81.365694 l
120.712573 82.721435 l
121.619429 93.35647 l
123.433142 89.1838 l
124.339998 91.398177 l
125.246854 91.096901 l
126.15371 97.303182 l
127.060567 101.370405 l
127.967423 93.401661 l
128.874279 86.427127 l
129.781135 72.824526 l
130.687992 69.480365 l
131.594848 71.212701 l
132.501704 70.836106 l
133.408561 72.101464 l
134.315417 72.704016 l
135.222273 71.077127 l
136.129129 68.290326 l
137.035986 60.140817 l
137.942842 59.734094 l
139.756554 62.400385 l
140.663411 71.318147 l
141.570267 63.695871 l
142.477123 63.33434 l
143.383979 63.484978 l
144.290836 64.072465 l
145.197692 68.109561 l
146.104548 81.365694 l
147.011405 78.307745 l
148.825117 80.491994 l
149.731973 109.550042 l
150.63883 101.957893 l
151.545686 110.69489 l
152.452542 107.39592 l
153.359398 102.726146 l
154.266255 105.799159 l
155.173111 105.889541 l
156.079967 108.420258 l
156.986824 106.627667 l
157.89368 111.13174 l
158.800536 104.443418 l
159.707392 119.612652 l
160.614249 121.375116 l
161.521105 121.224478 l
162.427961 124.538511 l
163.334817 110.483997 l
164.241674 102.846656 l
166.055386 100.99381 l
166.962243 111.13174 l
167.869099 110.830464 l
168.775955 111.37276 l
169.682811 118.241848 l
170.589668 134.390229 l
171.496524 145.853771 l
172.40338 137.493369 l
173.310236 152.948816 l
174.217093 152.707795 l
175.123949 150.930268 l
176.030805 157.633654 l
176.937662 149.34857 l
177.844518 154.75647 l
178.751374 153.581495 l
179.65823 149.243124 l
180.565087 148.640572 l
182.378799 146.396068 l
183.285655 149.996313 l
184.192512 158.597736 l
185.099368 153.973153 l
186.006224 164.532869 l
186.913081 164.005636 l
187.819937 162.800533 l
188.726793 160.254753 l
189.633649 163.58385 l
190.540506 160.48071 l
191.447362 154.214174 l
192.354218 151.231544 l
193.261074 151.201416 l
194.167931 153.159709 l
195.074787 152.436647 l
195.981643 153.64175 l
196.8885 154.575705 l
197.795356 143.624331 l
198.702212 151.397245 l
199.609068 149.649846 l
200.515925 152.707795 l
201.422781 144.211819 l
202.329637 142.102888 l
203.236493 147.23964 l
204.14335 144.678796 l
205.050206 151.111034 l
205.957062 149.5444 l
206.863919 151.547883 l
207.770775 149.10755 l
208.677631 172.923399 l
209.584487 178.69283 l
210.491344 188.258335 l
211.3982 185.998767 l
212.305056 186.300043 l
213.211912 184.492388 l
214.118769 176.719473 l
215.025625 173.947736 l
215.932481 174.806372 l
216.839338 185.501662 l
217.746194 182.172565 l
218.65305 181.931544 l
219.559906 181.570013 l
220.466763 182.021927 l
221.373619 192.385813 l
222.280475 183.889837 l
223.187331 181.690524 l
224.094188 192.566579 l
225.001044 191.466922 l
225.9079 193.123939 l
226.814757 193.907256 l
227.721613 205.220161 l
228.628469 199.345283 l
229.535325 216.698767 l
230.442182 221.398669 l
231.349038 221.248031 l
232.255894 222.001221 l
233.16275 218.431103 l
234.069607 219.289739 l
234.976463 232.244597 l
235.883319 223.582919 l
236.790176 234.624675 l
237.697032 235.106717 l
238.603888 234.293272 l
239.510744 248.664126 l
240.417601 242.623547 l
241.324457 250.833311 l
242.231313 252.866923 l
243.138169 238.059219 l
244.045026 238.270112 l
244.951882 238.119474 l
245.858738 241.629337 l
246.765595 235.091653 l
247.672451 236.251564 l
248.579307 238.179729 l
249.486163 245.470603 l
250.39302 246.118346 l
251.299876 245.304901 l
253.113588 232.470554 l
254.020445 237.42654 l
254.927301 230.828601 l
255.834157 236.251564 l
256.741014 236.462457 l
257.64787 235.799651 l
258.554726 244.672222 l
259.461582 236.537776 l
260.368439 243.3918 l
261.275295 242.292143 l
262.182151 260.850731 l
263.089007 261.16707 l
263.995864 264.119573 l
264.90272 269.346707 l
265.809576 268.247051 l
266.716433 254.960789 l
267.623289 258.892438 l
268.530145 251.22497 l
269.437001 251.074332 l
270.343858 254.629386 l
272.15757 259.585372 l
273.064426 260.05235 l
273.971283 275.628307 l
274.878139 277.646854 l
275.784995 277.887875 l
276.691852 275.025755 l
277.598708 265.399995 l
278.505564 267.418542 l
279.41242 255.231938 l
280.319277 260.338562 l
281.226133 263.953871 l
282.132989 263.848424 l
283.039845 260.474136 l
283.946702 265.158974 l
284.853558 271.711722 l
285.760414 256.135765 l
286.667271 263.622468 l
287.574127 264.616678 l
288.480983 265.234293 l
291.201552 241.207551 l
292.108408 234.157698 l
293.015264 240.213341 l
293.922121 244.416138 l
294.828977 244.446265 l
295.735833 241.011721 l
296.642689 232.13915 l
297.549546 233.750976 l
298.456402 236.31182 l
299.363258 228.945627 l
300.270115 231.928257 l
301.176971 231.325706 l
302.083827 231.431152 l
302.990683 233.344253 l
303.89754 243.542438 l
304.804396 251.22497 l
305.711252 246.901663 l
307.524965 243.994352 l
308.431821 241.870357 l
309.338677 237.290966 l
310.245534 240.52968 l
311.15239 250.170505 l
312.059246 239.927129 l
312.966102 239.927129 l
313.872959 236.929435 l
314.779815 234.865696 l
315.686671 236.718542 l
316.593527 244.295627 l
317.500384 219.89229 l
318.40724 213.595627 l
319.314096 213.264224 l
320.220953 213.219032 l
321.127809 219.741653 l
322.034665 219.259611 l
322.941521 215.086942 l
323.848378 221.08233 l
324.755234 213.264224 l
325.66209 213.113586 l
326.568946 214.017413 l
327.475803 213.746265 l
328.382659 210.884145 l
329.289515 212.059121 l
330.196372 218.672124 l
331.103228 222.151859 l
332.010084 221.850583 l
332.91694 220.193566 l
333.823797 222.648964 l
334.730653 241.418444 l
335.637509 241.267806 l
336.544365 237.9839 l
337.451222 241.674528 l
338.358078 240.604999 l
339.264934 240.077767 l
340.171791 231.792683 l
341.078647 233.178552 l
341.985503 245.440475 l
342.892359 250.125313 l
343.799216 262.16128 l
344.706072 262.221535 l
345.612928 263.396511 l
346.519784 257.461378 l
347.426641 248.694253 l
348.333497 250.155441 l
349.240353 257.837973 l
350.14721 256.19602 l
351.054066 257.114911 l
351.960922 250.652546 l
352.867778 250.923694 l
353.774635 245.952644 l
354.681491 241.779975 l
355.588347 238.646707 l
356.495203 237.140328 l
357.40206 237.757943 l
358.308916 236.462457 l
359.215772 238.390622 l
360.122629 234.157698 l
361.029485 246.223792 l
361.936341 240.499553 l
362.843197 235.543566 l
363.750054 234.805441 l
364.65691 233.359317 l
365.563766 239.580662 l
366.470622 248.573743 l
367.377479 254.282919 l
368.284335 254.011771 l
369.191191 251.22497 l
370.098048 251.526246 l
371.004904 251.22497 l
371.91176 252.881987 l
372.818616 251.932968 l
373.725473 256.708189 l
374.632329 263.637531 l
375.539185 272.208827 l
376.446041 271.711722 l
377.352898 271.86236 l
377.352898 271.86236 l
stroke
grestore
1.000 0.498 0.055 setrgbcolor
gsave
357.1 266.1 36.47 23.87 clipbox
52.698352 35.967875 m
53.605209 42.700836 l
54.512065 59.106569 l
55.418921 56.922226 l
56.325777 53.847195 l
57.232634 51.832371 l
58.13949 55.791626 l
59.046346 57.173092 l
59.953202 59.718378 l
60.860059 65.362759 l
61.766915 67.31581 l
62.673771 67.607618 l
63.580628 63.81429 l
64.487484 63.74659 l
65.39434 73.932406 l
66.301196 70.131715 l
67.208053 72.074171 l
68.114909 75.663862 l
69.021765 75.379057 l
69.928621 76.884609 l
70.835478 83.58363 l
71.742334 83.631935 l
72.64919 83.997728 l
73.556047 75.540495 l
74.462903 76.024448 l
75.369759 76.787818 l
76.276615 78.760442 l
77.183472 77.779787 l
78.090328 89.106439 l
78.997184 89.893693 l
79.90404 86.91222 l
81.717753 90.905774 l
82.624609 91.066852 l
83.531466 86.585395 l
84.438322 78.844124 l
86.252034 71.582496 l
87.158891 68.85548 l
88.065747 69.094314 l
88.972603 67.38333 l
89.879459 62.669144 l
90.786316 59.884485 l
91.693172 62.851412 l
92.600028 71.670488 l
93.506885 67.086314 l
94.413741 66.19778 l
95.320597 63.965671 l
96.227453 64.573889 l
97.13431 56.808196 l
98.041166 57.590782 l
98.948022 60.169649 l
99.854878 57.970222 l
100.761735 56.187408 l
101.668591 58.618126 l
102.575447 61.60355 l
103.482304 62.64562 l
104.38916 57.68829 l
105.296016 51.894324 l
106.202872 61.749723 l
107.109729 65.539999 l
108.016585 65.898789 l
108.923441 63.935143 l
110.737154 54.606974 l
111.64401 59.524977 l
112.550866 74.3149 l
113.457723 75.316925 l
114.364579 74.791849 l
115.271435 71.624337 l
116.178291 65.571963 l
117.085148 77.692693 l
117.992004 86.209186 l
118.89886 85.8407 l
119.805716 83.793373 l
120.712573 80.925391 l
121.619429 80.838477 l
122.526285 91.35022 l
123.433142 93.715035 l
124.339998 90.93253 l
125.246854 90.248532 l
126.15371 90.173649 l
127.060567 95.141933 l
127.967423 100.729748 l
128.874279 96.783601 l
129.781135 88.320442 l
130.687992 76.66463 l
131.594848 69.760894 l
132.501704 70.126867 l
133.408561 72.3658 l
134.315417 73.559071 l
135.222273 74.032429 l
136.129129 72.83826 l
137.035986 69.878515 l
137.942842 63.231212 l
138.849698 61.203997 l
139.756554 61.206691 l
140.663411 63.181829 l
141.570267 71.191204 l
142.477123 67.569189 l
143.383979 65.594051 l
144.290836 64.525584 l
145.197692 65.485409 l
146.104548 69.608077 l
147.011405 80.959869 l
147.918261 81.699356 l
148.825117 81.346672 l
149.731973 81.690916 l
150.63883 103.437909 l
151.545686 105.09107 l
152.452542 110.520321 l
153.359398 108.649874 l
154.266255 102.629465 l
155.173111 102.632338 l
156.079967 104.001952 l
156.986824 107.835864 l
157.89368 106.402681 l
158.800536 108.062128 l
159.707392 104.293042 l
160.614249 115.33417 l
161.521105 119.640363 l
162.427961 120.791974 l
163.334817 123.694613 l
165.14853 103.725407 l
166.055386 100.736572 l
166.962243 100.978099 l
167.869099 108.855487 l
168.775955 112.606616 l
169.682811 113.011017 l
170.589668 117.743699 l
172.40338 144.450355 l
173.310236 141.711308 l
174.217093 150.42641 l
175.123949 151.734609 l
176.030805 149.577203 l
176.937662 154.454442 l
177.844518 151.064258 l
178.751374 151.846304 l
179.65823 151.606752 l
180.565087 148.52364 l
181.471943 147.254409 l
183.285655 144.172554 l
184.192512 147.934277 l
185.099368 156.032183 l
186.006224 154.498797 l
186.913081 161.138379 l
187.819937 164.308046 l
188.726793 164.106384 l
189.633649 160.532495 l
190.540506 163.298299 l
191.447362 160.583854 l
192.354218 155.212785 l
193.261074 150.960644 l
194.167931 149.329031 l
195.074787 151.462734 l
195.981643 151.754901 l
196.8885 153.081237 l
197.795356 154.152219 l
198.702212 144.737136 l
199.609068 147.68826 l
200.515925 149.071342 l
201.422781 151.889223 l
202.329637 145.005779 l
203.236493 141.723878 l
204.14335 144.531882 l
205.050206 143.869791 l
205.957062 149.451501 l
206.863919 150.68374 l
207.770775 151.509243 l
208.677631 148.904158 l
209.584487 167.991655 l
210.491344 176.6044 l
211.3982 182.797919 l
212.305056 183.253679 l
213.211912 182.782116 l
214.118769 182.915899 l
215.025625 176.391245 l
215.932481 173.810761 l
216.839338 173.093721 l
217.746194 179.987401 l
218.65305 180.564553 l
219.559906 181.276565 l
220.466763 180.920828 l
221.373619 180.294652 l
222.280475 188.36634 l
223.187331 185.860739 l
224.094188 181.984088 l
225.001044 187.988875 l
225.9079 190.376495 l
226.814757 192.068983 l
227.721613 192.876888 l
228.628469 199.260038 l
229.535325 198.088495 l
230.442182 207.605576 l
231.349038 213.389666 l
232.255894 215.233176 l
233.16275 215.063658 l
234.069607 213.744685 l
234.976463 214.815846 l
235.883319 221.232576 l
236.790176 219.503454 l
237.697032 224.446059 l
238.603888 227.271482 l
239.510744 228.016536 l
240.417601 236.453298 l
241.324457 237.999612 l
242.231313 241.52322 l
243.138169 244.121122 l
244.045026 236.935814 l
244.951882 235.382496 l
245.858738 233.46123 l
246.765595 235.430981 l
247.672451 231.798012 l
248.579307 231.877923 l
249.486163 233.023966 l
250.39302 238.959976 l
251.299876 241.212198 l
252.206732 241.565061 l
253.113588 236.70111 l
254.020445 230.015916 l
254.927301 230.730084 l
255.834157 227.372043 l
256.741014 228.5461 l
257.64787 227.826726 l
258.554726 227.942012 l
259.461582 234.356767 l
260.368439 231.863737 l
261.275295 235.631565 l
262.182151 235.57051 l
263.089007 247.200284 l
263.995864 251.224725 l
264.90272 254.52997 l
265.809576 257.213888 l
266.716433 258.299056 l
267.623289 250.677561 l
268.530145 250.866653 l
269.437001 246.356464 l
270.343858 244.651944 l
271.250714 246.972943 l
272.15757 250.579155 l
273.064426 253.60624 l
273.971283 255.045169 l
274.878139 264.892128 l
275.784995 272.070613 l
276.691852 272.749763 l
277.598708 269.7893 l
278.505564 261.426702 l
279.41242 259.838188 l
280.319277 249.567612 l
281.226133 250.374979 l
282.132989 252.781095 l
283.039845 254.490643 l
283.946702 253.534949 l
284.853558 258.062377 l
285.760414 263.952595 l
286.667271 255.194215 l
287.574127 256.28908 l
289.387839 257.098601 l
290.294696 250.584003 l
293.015264 227.90502 l
293.922121 230.208959 l
294.828977 235.117085 l
295.735833 237.186679 l
296.642689 233.979661 l
297.549546 227.559339 l
298.456402 226.56755 l
299.363258 228.287154 l
300.270115 224.260559 l
302.083827 222.911057 l
302.990683 222.034555 l
303.89754 223.947022 l
304.804396 230.183459 l
305.711252 237.427309 l
306.618108 237.95436 l
307.524965 237.53667 l
308.431821 236.929529 l
309.338677 235.382675 l
310.245534 231.474778 l
311.15239 232.100056 l
312.059246 238.527561 l
312.966102 234.890462 l
313.872959 234.037664 l
314.779815 232.523313 l
315.686671 231.413544 l
316.593527 231.742344 l
317.500384 237.023267 l
319.314096 210.049224 l
320.220953 205.63385 l
321.127809 207.486698 l
322.034665 213.77611 l
322.941521 213.719544 l
323.848378 211.384539 l
324.755234 214.611849 l
325.66209 210.137575 l
326.568946 208.915392 l
327.475803 209.876294 l
328.382659 208.507578 l
329.289515 205.967679 l
330.196372 207.337472 l
331.103228 210.381078 l
332.010084 213.93216 l
332.91694 215.050729 l
333.823797 215.59035 l
334.730653 217.269909 l
335.637509 229.300851 l
336.544365 232.87905 l
337.451222 232.37265 l
338.358078 233.208748 l
339.264934 232.775615 l
340.171791 233.15739 l
341.078647 229.075845 l
341.985503 227.828162 l
342.892359 235.262899 l
343.799216 240.807437 l
344.706072 249.798904 l
345.612928 253.72422 l
346.519784 255.422634 l
347.426641 252.82976 l
348.333497 247.62803 l
349.240353 246.26524 l
350.14721 249.798904 l
351.054066 249.527029 l
351.960922 250.251611 l
352.867778 245.648223 l
353.774635 244.536837 l
354.681491 242.114918 l
355.588347 239.278721 l
357.40206 232.948186 l
358.308916 232.363671 l
359.215772 231.439402 l
360.122629 231.063374 l
361.029485 227.974156 l
361.936341 233.669716 l
362.843197 233.448301 l
363.750054 230.443483 l
365.563766 226.076235 l
366.470622 229.321502 l
368.284335 241.731167 l
369.191191 243.672187 l
370.098048 242.584146 l
371.004904 243.064148 l
371.91176 244.085028 l
372.818616 245.629367 l
373.725473 244.683011 l
374.632329 247.955573 l
375.539185 252.924934 l
376.446041 261.108138 l
377.352898 263.506892 l
377.352898 263.506892 l
stroke
grestore
0.800 setlinewidth
0 setlinejoin
[] 0 setdash
0.000 setgray
gsave
36.465625 23.871875 m
36.465625 289.983875 l
stroke
grestore
gsave
393.585625 23.871875 m
393.585625 289.983875 l
stroke
grestore
gsave
36.465625 23.871875 m
393.585625 23.871875 l
stroke
grestore
gsave
36.465625 289.983875 m
393.585625 289.983875 l
stroke
grestore
/DejaVuSans findfont
12.000 scalefont
setfont
gsave
100.025625 295.983875 translate
0.000000 rotate
0.000000 0.000000 m /R glyphshow
8.337891 0.000000 m /M glyphshow
18.691406 0.000000 m /S glyphshow
26.308594 0.000000 m /E glyphshow
33.890625 0.000000 m /space glyphshow
37.705078 0.000000 m /equal glyphshow
47.759766 0.000000 m /space glyphshow
51.574219 0.000000 m /zero glyphshow
59.208984 0.000000 m /period glyphshow
63.023438 0.000000 m /zero glyphshow
70.658203 0.000000 m /zero glyphshow
78.292969 0.000000 m /five glyphshow
85.927734 0.000000 m /five glyphshow
93.562500 0.000000 m /three glyphshow
101.197266 0.000000 m /space glyphshow
105.011719 0.000000 m /R glyphshow
113.349609 0.000000 m /hyphen glyphshow
117.679688 0.000000 m /s glyphshow
123.931641 0.000000 m /q glyphshow
131.548828 0.000000 m /u glyphshow
139.154297 0.000000 m /a glyphshow
146.507812 0.000000 m /r glyphshow
151.441406 0.000000 m /e glyphshow
158.824219 0.000000 m /d glyphshow
166.441406 0.000000 m /space glyphshow
170.255859 0.000000 m /equal glyphshow
180.310547 0.000000 m /space glyphshow
184.125000 0.000000 m /nine glyphshow
191.759766 0.000000 m /eight glyphshow
199.394531 0.000000 m /period glyphshow
203.208984 0.000000 m /eight glyphshow
210.843750 0.000000 m /one glyphshow
218.478516 0.000000 m /percent glyphshow
grestore
1.000 setlinewidth
0 setlinecap
0.800 setgray
gsave
413.441625 257.640125 m
492.785375 257.640125 l
494.118708 257.640125 494.785375 258.306792 494.785375 259.640125 c
494.785375 287.983875 l
494.785375 289.317208 494.118708 289.983875 492.785375 289.983875 c
413.441625 289.983875 l
412.108292 289.983875 411.441625 289.317208 411.441625 287.983875 c
411.441625 259.640125 l
411.441625 258.306792 412.108292 257.640125 413.441625 257.640125 c
cl
gsave
1.000 setgray
fill
grestore
stroke
grestore
1.500 setlinewidth
1 setlinejoin
2 setlinecap
[] 0 setdash
0.122 0.467 0.706 setrgbcolor
gsave
415.441625 281.890125 m
435.441625 281.890125 l
stroke
grestore
0.000 setgray
/DejaVuSans findfont
10.000 scalefont
setfont
gsave
443.441625 278.390125 translate
0.000000 rotate
0.000000 0.000000 m /A glyphshow
6.840820 0.000000 m /c glyphshow
12.338867 0.000000 m /t glyphshow
16.259766 0.000000 m /u glyphshow
22.597656 0.000000 m /a glyphshow
28.725586 0.000000 m /l glyphshow
grestore
1.000 0.498 0.055 setrgbcolor
gsave
415.441625 267.21825 m
435.441625 267.21825 l
stroke
grestore
0.000 setgray
gsave
443.441625 263.718250 translate
0.000000 rotate
0.000000 0.000000 m /P glyphshow
6.030273 0.000000 m /r glyphshow
10.141602 0.000000 m /e glyphshow
16.293945 0.000000 m /d glyphshow
22.641602 0.000000 m /i glyphshow
25.419922 0.000000 m /c glyphshow
30.917969 0.000000 m /t glyphshow
34.838867 0.000000 m /e glyphshow
40.991211 0.000000 m /d glyphshow
grestore
/DejaVuSans findfont
12.000 scalefont
setfont
gsave
131.609375 315.418875 translate
0.000000 rotate
0.000000 0.000000 m /P glyphshow
7.236328 0.000000 m /e glyphshow
14.619141 0.000000 m /r glyphshow
19.552734 0.000000 m /c glyphshow
26.150391 0.000000 m /e glyphshow
33.533203 0.000000 m /p glyphshow
41.150391 0.000000 m /t glyphshow
45.855469 0.000000 m /r glyphshow
50.789062 0.000000 m /o glyphshow
58.130859 0.000000 m /n glyphshow
65.736328 0.000000 m /space glyphshow
69.550781 0.000000 m /parenleft glyphshow
74.232422 0.000000 m /two glyphshow
81.867188 0.000000 m /zero glyphshow
89.501953 0.000000 m /comma glyphshow
93.316406 0.000000 m /space glyphshow
97.130859 0.000000 m /four glyphshow
104.765625 0.000000 m /zero glyphshow
112.400391 0.000000 m /comma glyphshow
116.214844 0.000000 m /space glyphshow
120.029297 0.000000 m /eight glyphshow
127.664062 0.000000 m /zero glyphshow
135.298828 0.000000 m /comma glyphshow
139.113281 0.000000 m /space glyphshow
142.927734 0.000000 m /one glyphshow
150.562500 0.000000 m /parenright glyphshow
grestore

end
showpage
