%!PS-Adobe-3.0 EPSF-3.0
%%Title: plots/4.eps
%%Creator: matplotlib version 2.2.2, http://matplotlib.org/
%%CreationDate: Thu May 31 19:17:12 2018
%%Orientation: portrait
%%BoundingBox: 55 230 556 561
%%EndComments
%%BeginProlog
/mpldict 8 dict def
mpldict begin
/m { moveto } bind def
/l { lineto } bind def
/r { rlineto } bind def
/c { curveto } bind def
/cl { closepath } bind def
/box {
m
1 index 0 r
0 exch r
neg 0 r
cl
} bind def
/clipbox {
box
clip
newpath
} bind def
%!PS-Adobe-3.0 Resource-Font
%%Title: DejaVu Sans
%%Copyright: Copyright (c) 2003 by Bitstream, Inc. All Rights Reserved. Copyright (c) 2006 by Tavmjong Bah. All Rights Reserved. DejaVu changes are in public domain 
%%Creator: Converted from TrueType to type 3 by PPR
25 dict begin
/_d{bind def}bind def
/_m{moveto}_d
/_l{lineto}_d
/_cl{closepath eofill}_d
/_c{curveto}_d
/_sc{7 -1 roll{setcachedevice}{pop pop pop pop pop pop}ifelse}_d
/_e{exec}_d
/FontName /DejaVuSans def
/PaintType 0 def
/FontMatrix[.001 0 0 .001 0 0]def
/FontBBox[-1021 -463 1793 1232]def
/FontType 3 def
/Encoding [ /space /percent /parenleft /parenright /comma /hyphen /period /zero /one /two /three /four /five /six /seven /eight /nine /equal /A /E /M /P /R /S /a /c /d /e /i /l /n /o /p /q /r /s /t /u ] def
/FontInfo 10 dict dup begin
/FamilyName (DejaVu Sans) def
/FullName (DejaVu Sans) def
/Notice (Copyright (c) 2003 by Bitstream, Inc. All Rights Reserved. Copyright (c) 2006 by Tavmjong Bah. All Rights Reserved. DejaVu changes are in public domain ) def
/Weight (Book) def
/Version (Version 2.35) def
/ItalicAngle 0.0 def
/isFixedPitch false def
/UnderlinePosition -130 def
/UnderlineThickness 90 def
end readonly def
/CharStrings 39 dict dup begin
/.notdef 0 def
/space{318 0 0 0 0 0 _sc
}_d
/percent{{950 0 55 -13 895 742 _sc
727 321 _m
699 321 676 309 660 285 _c
644 261 636 227 636 184 _c
636 142 644 108 660 84 _c
676 60 699 48 727 48 _c
755 48 777 60 793 84 _c
809 108 817 142 817 184 _c
817 226 809 260 793 284 _c
777 308 755 321 727 321 _c
727 383 _m
778 383 819 365 849 329 _c
879 293 895 244 895 184 _c
895 123 879 75 849 40 _c
819 4 778 -13 727 -13 _c
}_e{675 -13 633 4 603 40 _c
573 75 558 123 558 184 _c
558 245 573 293 603 329 _c
633 365 675 383 727 383 _c
223 680 _m
195 680 173 667 157 643 _c
141 619 133 586 133 544 _c
133 500 141 467 157 443 _c
173 419 195 407 223 407 _c
251 407 274 419 290 443 _c
306 467 314 500 314 544 _c
314 586 305 619 289 643 _c
273 667 251 680 223 680 _c
664 742 _m
742 742 _l
286 -13 _l
}_e{208 -13 _l
664 742 _l
223 742 _m
274 742 315 724 346 688 _c
376 652 392 604 392 544 _c
392 482 376 434 346 398 _c
316 362 275 345 223 345 _c
171 345 130 362 100 398 _c
70 434 55 482 55 544 _c
55 604 70 652 100 688 _c
130 724 171 742 223 742 _c
_cl}_e}_d
/parenleft{390 0 86 -131 310 759 _sc
310 759 _m
266 683 234 609 213 536 _c
191 463 181 389 181 314 _c
181 238 191 164 213 91 _c
234 17 266 -56 310 -131 _c
232 -131 _l
183 -54 146 20 122 94 _c
98 168 86 241 86 314 _c
86 386 98 459 122 533 _c
146 607 182 682 232 759 _c
310 759 _l
_cl}_d
/parenright{390 0 80 -131 304 759 _sc
80 759 _m
158 759 _l
206 682 243 607 267 533 _c
291 459 304 386 304 314 _c
304 241 291 168 267 94 _c
243 20 206 -54 158 -131 _c
80 -131 _l
123 -56 155 17 177 91 _c
198 164 209 238 209 314 _c
209 389 198 463 177 536 _c
155 609 123 683 80 759 _c
_cl}_d
/comma{318 0 77 -115 220 124 _sc
117 124 _m
220 124 _l
220 40 _l
140 -115 _l
77 -115 _l
117 40 _l
117 124 _l
_cl}_d
/hyphen{361 0 49 234 312 314 _sc
49 314 _m
312 314 _l
312 234 _l
49 234 _l
49 314 _l
_cl}_d
/period{318 0 107 0 210 124 _sc
107 124 _m
210 124 _l
210 0 _l
107 0 _l
107 124 _l
_cl}_d
/zero{636 0 66 -13 570 742 _sc
318 664 _m
267 664 229 639 203 589 _c
177 539 165 464 165 364 _c
165 264 177 189 203 139 _c
229 89 267 64 318 64 _c
369 64 407 89 433 139 _c
458 189 471 264 471 364 _c
471 464 458 539 433 589 _c
407 639 369 664 318 664 _c
318 742 _m
399 742 461 709 505 645 _c
548 580 570 486 570 364 _c
570 241 548 147 505 83 _c
461 19 399 -13 318 -13 _c
236 -13 173 19 130 83 _c
87 147 66 241 66 364 _c
66 486 87 580 130 645 _c
173 709 236 742 318 742 _c
_cl}_d
/one{636 0 110 0 544 729 _sc
124 83 _m
285 83 _l
285 639 _l
110 604 _l
110 694 _l
284 729 _l
383 729 _l
383 83 _l
544 83 _l
544 0 _l
124 0 _l
124 83 _l
_cl}_d
/two{{636 0 73 0 536 742 _sc
192 83 _m
536 83 _l
536 0 _l
73 0 _l
73 83 _l
110 121 161 173 226 239 _c
290 304 331 346 348 365 _c
380 400 402 430 414 455 _c
426 479 433 504 433 528 _c
433 566 419 598 392 622 _c
365 646 330 659 286 659 _c
255 659 222 653 188 643 _c
154 632 117 616 78 594 _c
78 694 _l
118 710 155 722 189 730 _c
223 738 255 742 284 742 _c
}_e{359 742 419 723 464 685 _c
509 647 532 597 532 534 _c
532 504 526 475 515 449 _c
504 422 484 390 454 354 _c
446 344 420 317 376 272 _c
332 227 271 164 192 83 _c
_cl}_e}_d
/three{{636 0 76 -13 556 742 _sc
406 393 _m
453 383 490 362 516 330 _c
542 298 556 258 556 212 _c
556 140 531 84 482 45 _c
432 6 362 -13 271 -13 _c
240 -13 208 -10 176 -4 _c
144 1 110 10 76 22 _c
76 117 _l
103 101 133 89 166 81 _c
198 73 232 69 268 69 _c
330 69 377 81 409 105 _c
441 129 458 165 458 212 _c
458 254 443 288 413 312 _c
383 336 341 349 287 349 _c
}_e{202 349 _l
202 430 _l
291 430 _l
339 430 376 439 402 459 _c
428 478 441 506 441 543 _c
441 580 427 609 401 629 _c
374 649 336 659 287 659 _c
260 659 231 656 200 650 _c
169 644 135 635 98 623 _c
98 711 _l
135 721 170 729 203 734 _c
235 739 266 742 296 742 _c
370 742 429 725 473 691 _c
517 657 539 611 539 553 _c
539 513 527 479 504 451 _c
481 423 448 403 406 393 _c
_cl}_e}_d
/four{636 0 49 0 580 729 _sc
378 643 _m
129 254 _l
378 254 _l
378 643 _l
352 729 _m
476 729 _l
476 254 _l
580 254 _l
580 172 _l
476 172 _l
476 0 _l
378 0 _l
378 172 _l
49 172 _l
49 267 _l
352 729 _l
_cl}_d
/five{{636 0 77 -13 549 729 _sc
108 729 _m
495 729 _l
495 646 _l
198 646 _l
198 467 _l
212 472 227 476 241 478 _c
255 480 270 482 284 482 _c
365 482 429 459 477 415 _c
525 370 549 310 549 234 _c
549 155 524 94 475 51 _c
426 8 357 -13 269 -13 _c
238 -13 207 -10 175 -6 _c
143 -1 111 6 77 17 _c
77 116 _l
106 100 136 88 168 80 _c
199 72 232 69 267 69 _c
}_e{323 69 368 83 401 113 _c
433 143 450 183 450 234 _c
450 284 433 324 401 354 _c
368 384 323 399 267 399 _c
241 399 214 396 188 390 _c
162 384 135 375 108 363 _c
108 729 _l
_cl}_e}_d
/six{{636 0 70 -13 573 742 _sc
330 404 _m
286 404 251 388 225 358 _c
199 328 186 286 186 234 _c
186 181 199 139 225 109 _c
251 79 286 64 330 64 _c
374 64 409 79 435 109 _c
461 139 474 181 474 234 _c
474 286 461 328 435 358 _c
409 388 374 404 330 404 _c
526 713 _m
526 623 _l
501 635 476 644 451 650 _c
425 656 400 659 376 659 _c
310 659 260 637 226 593 _c
}_e{192 549 172 482 168 394 _c
187 422 211 444 240 459 _c
269 474 301 482 336 482 _c
409 482 467 459 509 415 _c
551 371 573 310 573 234 _c
573 159 550 99 506 54 _c
462 9 403 -13 330 -13 _c
246 -13 181 19 137 83 _c
92 147 70 241 70 364 _c
70 479 97 571 152 639 _c
206 707 280 742 372 742 _c
396 742 421 739 447 735 _c
472 730 498 723 526 713 _c
_cl}_e}_d
/seven{636 0 82 0 551 729 _sc
82 729 _m
551 729 _l
551 687 _l
286 0 _l
183 0 _l
432 646 _l
82 646 _l
82 729 _l
_cl}_d
/eight{{636 0 68 -13 568 742 _sc
318 346 _m
271 346 234 333 207 308 _c
180 283 167 249 167 205 _c
167 161 180 126 207 101 _c
234 76 271 64 318 64 _c
364 64 401 76 428 102 _c
455 127 469 161 469 205 _c
469 249 455 283 429 308 _c
402 333 365 346 318 346 _c
219 388 _m
177 398 144 418 120 447 _c
96 476 85 511 85 553 _c
85 611 105 657 147 691 _c
188 725 245 742 318 742 _c
}_e{390 742 447 725 489 691 _c
530 657 551 611 551 553 _c
551 511 539 476 515 447 _c
491 418 459 398 417 388 _c
464 377 501 355 528 323 _c
554 291 568 251 568 205 _c
568 134 546 80 503 43 _c
459 5 398 -13 318 -13 _c
237 -13 175 5 132 43 _c
89 80 68 134 68 205 _c
68 251 81 291 108 323 _c
134 355 171 377 219 388 _c
183 544 _m
183 506 194 476 218 455 _c
}_e{242 434 275 424 318 424 _c
360 424 393 434 417 455 _c
441 476 453 506 453 544 _c
453 582 441 611 417 632 _c
393 653 360 664 318 664 _c
275 664 242 653 218 632 _c
194 611 183 582 183 544 _c
_cl}_e}_d
/nine{{636 0 63 -13 566 742 _sc
110 15 _m
110 105 _l
134 93 159 84 185 78 _c
210 72 235 69 260 69 _c
324 69 374 90 408 134 _c
442 178 462 244 468 334 _c
448 306 424 284 396 269 _c
367 254 335 247 300 247 _c
226 247 168 269 126 313 _c
84 357 63 417 63 494 _c
63 568 85 628 129 674 _c
173 719 232 742 306 742 _c
390 742 455 709 499 645 _c
543 580 566 486 566 364 _c
}_e{566 248 538 157 484 89 _c
429 21 356 -13 264 -13 _c
239 -13 214 -10 189 -6 _c
163 -2 137 5 110 15 _c
306 324 _m
350 324 385 339 411 369 _c
437 399 450 441 450 494 _c
450 546 437 588 411 618 _c
385 648 350 664 306 664 _c
262 664 227 648 201 618 _c
175 588 162 546 162 494 _c
162 441 175 399 201 369 _c
227 339 262 324 306 324 _c
_cl}_e}_d
/equal{838 0 106 172 732 454 _sc
106 454 _m
732 454 _l
732 372 _l
106 372 _l
106 454 _l
106 255 _m
732 255 _l
732 172 _l
106 172 _l
106 255 _l
_cl}_d
/A{684 0 8 0 676 729 _sc
342 632 _m
208 269 _l
476 269 _l
342 632 _l
286 729 _m
398 729 _l
676 0 _l
573 0 _l
507 187 _l
178 187 _l
112 0 _l
8 0 _l
286 729 _l
_cl}_d
/E{632 0 98 0 568 729 _sc
98 729 _m
559 729 _l
559 646 _l
197 646 _l
197 430 _l
544 430 _l
544 347 _l
197 347 _l
197 83 _l
568 83 _l
568 0 _l
98 0 _l
98 729 _l
_cl}_d
/M{863 0 98 0 765 729 _sc
98 729 _m
245 729 _l
431 233 _l
618 729 _l
765 729 _l
765 0 _l
669 0 _l
669 640 _l
481 140 _l
382 140 _l
194 640 _l
194 0 _l
98 0 _l
98 729 _l
_cl}_d
/P{603 0 98 0 569 729 _sc
197 648 _m
197 374 _l
321 374 _l
367 374 402 385 427 409 _c
452 433 465 467 465 511 _c
465 555 452 588 427 612 _c
402 636 367 648 321 648 _c
197 648 _l
98 729 _m
321 729 _l
402 729 464 710 506 673 _c
548 636 569 582 569 511 _c
569 439 548 384 506 348 _c
464 311 402 293 321 293 _c
197 293 _l
197 0 _l
98 0 _l
98 729 _l
_cl}_d
/R{{695 0 98 0 666 729 _sc
444 342 _m
465 334 486 319 506 296 _c
526 272 546 240 566 199 _c
666 0 _l
560 0 _l
467 187 _l
443 235 419 268 397 284 _c
374 300 343 308 304 308 _c
197 308 _l
197 0 _l
98 0 _l
98 729 _l
321 729 _l
404 729 466 711 507 677 _c
548 642 569 589 569 519 _c
569 473 558 434 537 404 _c
515 374 484 353 444 342 _c
197 648 _m
197 389 _l
321 389 _l
}_e{368 389 404 400 428 422 _c
452 444 465 476 465 519 _c
465 561 452 593 428 615 _c
404 637 368 648 321 648 _c
197 648 _l
_cl}_e}_d
/S{{635 0 66 -13 579 742 _sc
535 705 _m
535 609 _l
497 627 462 640 429 649 _c
395 657 363 662 333 662 _c
279 662 237 651 208 631 _c
179 610 165 580 165 542 _c
165 510 174 485 194 469 _c
213 452 250 439 304 429 _c
364 417 _l
437 403 491 378 526 343 _c
561 307 579 260 579 201 _c
579 130 555 77 508 41 _c
460 5 391 -13 300 -13 _c
265 -13 228 -9 189 -2 _c
}_e{150 5 110 16 69 32 _c
69 134 _l
109 111 148 94 186 83 _c
224 71 262 66 300 66 _c
356 66 399 77 430 99 _c
460 121 476 152 476 194 _c
476 230 465 258 443 278 _c
421 298 385 313 335 323 _c
275 335 _l
201 349 148 372 115 404 _c
82 435 66 478 66 534 _c
66 598 88 649 134 686 _c
179 723 242 742 322 742 _c
356 742 390 739 426 733 _c
461 727 497 717 535 705 _c
}_e{_cl}_e}_d
/a{{613 0 60 -13 522 560 _sc
343 275 _m
270 275 220 266 192 250 _c
164 233 150 205 150 165 _c
150 133 160 107 181 89 _c
202 70 231 61 267 61 _c
317 61 357 78 387 114 _c
417 149 432 196 432 255 _c
432 275 _l
343 275 _l
522 312 _m
522 0 _l
432 0 _l
432 83 _l
411 49 385 25 355 10 _c
325 -5 287 -13 243 -13 _c
187 -13 142 2 109 33 _c
76 64 60 106 60 159 _c
}_e{60 220 80 266 122 298 _c
163 329 224 345 306 345 _c
432 345 _l
432 354 _l
432 395 418 427 391 450 _c
364 472 326 484 277 484 _c
245 484 215 480 185 472 _c
155 464 127 453 100 439 _c
100 522 _l
132 534 164 544 195 550 _c
226 556 256 560 286 560 _c
365 560 424 539 463 498 _c
502 457 522 395 522 312 _c
_cl}_e}_d
/c{{550 0 55 -13 488 560 _sc
488 526 _m
488 442 _l
462 456 437 466 411 473 _c
385 480 360 484 334 484 _c
276 484 230 465 198 428 _c
166 391 150 339 150 273 _c
150 206 166 154 198 117 _c
230 80 276 62 334 62 _c
360 62 385 65 411 72 _c
437 79 462 90 488 104 _c
488 21 _l
462 9 436 0 410 -5 _c
383 -10 354 -13 324 -13 _c
242 -13 176 12 128 64 _c
}_e{79 115 55 185 55 273 _c
55 362 79 432 128 483 _c
177 534 244 560 330 560 _c
358 560 385 557 411 551 _c
437 545 463 537 488 526 _c
_cl}_e}_d
/d{{635 0 55 -13 544 760 _sc
454 464 _m
454 760 _l
544 760 _l
544 0 _l
454 0 _l
454 82 _l
435 49 411 25 382 10 _c
353 -5 319 -13 279 -13 _c
213 -13 159 13 117 65 _c
75 117 55 187 55 273 _c
55 359 75 428 117 481 _c
159 533 213 560 279 560 _c
319 560 353 552 382 536 _c
411 520 435 496 454 464 _c
148 273 _m
148 207 161 155 188 117 _c
215 79 253 61 301 61 _c
}_e{348 61 385 79 413 117 _c
440 155 454 207 454 273 _c
454 339 440 390 413 428 _c
385 466 348 485 301 485 _c
253 485 215 466 188 428 _c
161 390 148 339 148 273 _c
_cl}_e}_d
/e{{615 0 55 -13 562 560 _sc
562 296 _m
562 252 _l
149 252 _l
153 190 171 142 205 110 _c
238 78 284 62 344 62 _c
378 62 412 66 444 74 _c
476 82 509 95 541 113 _c
541 28 _l
509 14 476 3 442 -3 _c
408 -9 373 -13 339 -13 _c
251 -13 182 12 131 62 _c
80 112 55 181 55 268 _c
55 357 79 428 127 481 _c
175 533 241 560 323 560 _c
397 560 455 536 498 489 _c
}_e{540 441 562 377 562 296 _c
472 322 _m
471 371 457 410 431 440 _c
404 469 368 484 324 484 _c
274 484 234 469 204 441 _c
174 413 156 373 152 322 _c
472 322 _l
_cl}_e}_d
/i{278 0 94 0 184 760 _sc
94 547 _m
184 547 _l
184 0 _l
94 0 _l
94 547 _l
94 760 _m
184 760 _l
184 646 _l
94 646 _l
94 760 _l
_cl}_d
/l{278 0 94 0 184 760 _sc
94 760 _m
184 760 _l
184 0 _l
94 0 _l
94 760 _l
_cl}_d
/n{634 0 91 0 549 560 _sc
549 330 _m
549 0 _l
459 0 _l
459 327 _l
459 379 448 417 428 443 _c
408 469 378 482 338 482 _c
289 482 251 466 223 435 _c
195 404 181 362 181 309 _c
181 0 _l
91 0 _l
91 547 _l
181 547 _l
181 462 _l
202 494 227 519 257 535 _c
286 551 320 560 358 560 _c
420 560 468 540 500 501 _c
532 462 549 405 549 330 _c
_cl}_d
/o{612 0 55 -13 557 560 _sc
306 484 _m
258 484 220 465 192 427 _c
164 389 150 338 150 273 _c
150 207 163 156 191 118 _c
219 80 257 62 306 62 _c
354 62 392 80 420 118 _c
448 156 462 207 462 273 _c
462 337 448 389 420 427 _c
392 465 354 484 306 484 _c
306 560 _m
384 560 445 534 490 484 _c
534 433 557 363 557 273 _c
557 183 534 113 490 63 _c
445 12 384 -13 306 -13 _c
227 -13 165 12 121 63 _c
77 113 55 183 55 273 _c
55 363 77 433 121 484 _c
165 534 227 560 306 560 _c
_cl}_d
/p{{635 0 91 -207 580 560 _sc
181 82 _m
181 -207 _l
91 -207 _l
91 547 _l
181 547 _l
181 464 _l
199 496 223 520 252 536 _c
281 552 316 560 356 560 _c
422 560 476 533 518 481 _c
559 428 580 359 580 273 _c
580 187 559 117 518 65 _c
476 13 422 -13 356 -13 _c
316 -13 281 -5 252 10 _c
223 25 199 49 181 82 _c
487 273 _m
487 339 473 390 446 428 _c
418 466 381 485 334 485 _c
}_e{286 485 249 466 222 428 _c
194 390 181 339 181 273 _c
181 207 194 155 222 117 _c
249 79 286 61 334 61 _c
381 61 418 79 446 117 _c
473 155 487 207 487 273 _c
_cl}_e}_d
/q{{635 0 55 -207 544 560 _sc
148 273 _m
148 207 161 155 188 117 _c
215 79 253 61 301 61 _c
348 61 385 79 413 117 _c
440 155 454 207 454 273 _c
454 339 440 390 413 428 _c
385 466 348 485 301 485 _c
253 485 215 466 188 428 _c
161 390 148 339 148 273 _c
454 82 _m
435 49 411 25 382 10 _c
353 -5 319 -13 279 -13 _c
213 -13 159 13 117 65 _c
75 117 55 187 55 273 _c
}_e{55 359 75 428 117 481 _c
159 533 213 560 279 560 _c
319 560 353 552 382 536 _c
411 520 435 496 454 464 _c
454 547 _l
544 547 _l
544 -207 _l
454 -207 _l
454 82 _l
_cl}_e}_d
/r{411 0 91 0 411 560 _sc
411 463 _m
401 469 390 473 378 476 _c
366 478 353 480 339 480 _c
288 480 249 463 222 430 _c
194 397 181 350 181 288 _c
181 0 _l
91 0 _l
91 547 _l
181 547 _l
181 462 _l
199 495 224 520 254 536 _c
284 552 321 560 365 560 _c
371 560 378 559 386 559 _c
393 558 401 557 411 555 _c
411 463 _l
_cl}_d
/s{{521 0 54 -13 472 560 _sc
443 531 _m
443 446 _l
417 458 391 468 364 475 _c
336 481 308 485 279 485 _c
234 485 200 478 178 464 _c
156 450 145 430 145 403 _c
145 382 153 366 169 354 _c
185 342 217 330 265 320 _c
296 313 _l
360 299 405 279 432 255 _c
458 230 472 195 472 151 _c
472 100 452 60 412 31 _c
372 1 316 -13 246 -13 _c
216 -13 186 -10 154 -5 _c
}_e{122 0 89 8 54 20 _c
54 113 _l
87 95 120 82 152 74 _c
184 65 216 61 248 61 _c
290 61 323 68 346 82 _c
368 96 380 117 380 144 _c
380 168 371 187 355 200 _c
339 213 303 226 247 238 _c
216 245 _l
160 257 119 275 95 299 _c
70 323 58 356 58 399 _c
58 450 76 490 112 518 _c
148 546 200 560 268 560 _c
301 560 332 557 362 552 _c
391 547 418 540 443 531 _c
}_e{_cl}_e}_d
/t{392 0 27 0 368 702 _sc
183 702 _m
183 547 _l
368 547 _l
368 477 _l
183 477 _l
183 180 _l
183 135 189 106 201 94 _c
213 81 238 75 276 75 _c
368 75 _l
368 0 _l
276 0 _l
206 0 158 13 132 39 _c
106 65 93 112 93 180 _c
93 477 _l
27 477 _l
27 547 _l
93 547 _l
93 702 _l
183 702 _l
_cl}_d
/u{634 0 85 -13 543 560 _sc
85 216 _m
85 547 _l
175 547 _l
175 219 _l
175 167 185 129 205 103 _c
225 77 255 64 296 64 _c
344 64 383 79 411 110 _c
439 141 453 183 453 237 _c
453 547 _l
543 547 _l
543 0 _l
453 0 _l
453 84 _l
431 50 405 26 377 10 _c
348 -5 315 -13 277 -13 _c
214 -13 166 6 134 45 _c
101 83 85 140 85 216 _c
311 560 _m
311 560 _l
_cl}_d
end readonly def

/BuildGlyph
 {exch begin
 CharStrings exch
 2 copy known not{pop /.notdef}if
 true 3 1 roll get exec
 end}_d

/BuildChar {
 1 index /Encoding get exch get
 1 index /BuildGlyph get exec
}_d

FontName currentdict end definefont pop
end
%%EndProlog
mpldict begin
55.007 230.128 translate
501.985 331.744 0 0 clipbox
gsave
0 0 m
501.985375 0 l
501.985375 331.743875 l
0 331.743875 l
cl
1.000 setgray
fill
grestore
gsave
36.465625 23.871875 m
393.585625 23.871875 l
393.585625 289.983875 l
36.465625 289.983875 l
cl
1.000 setgray
fill
grestore
0.800 setlinewidth
1 setlinejoin
0 setlinecap
[] 0 setdash
0.000 setgray
gsave
/o {
gsave
newpath
translate
0.8 setlinewidth
1 setlinejoin
0 setlinecap
0 0 m
0 -3.5 l

gsave
0.000 setgray
fill
grestore
stroke
grestore
} bind def
52.6984 23.8719 o
grestore
/DejaVuSans findfont
10.000 scalefont
setfont
gsave
49.518665 9.278125 translate
0.000000 rotate
0.000000 0.000000 m /zero glyphshow
grestore
gsave
/o {
gsave
newpath
translate
0.8 setlinewidth
1 setlinejoin
0 setlinecap
0 0 m
0 -3.5 l

gsave
0.000 setgray
fill
grestore
stroke
grestore
} bind def
97.7893 23.8719 o
grestore
gsave
91.429886 9.278125 translate
0.000000 rotate
0.000000 0.000000 m /five glyphshow
6.362305 0.000000 m /zero glyphshow
grestore
gsave
/o {
gsave
newpath
translate
0.8 setlinewidth
1 setlinejoin
0 setlinecap
0 0 m
0 -3.5 l

gsave
0.000 setgray
fill
grestore
stroke
grestore
} bind def
142.88 23.8719 o
grestore
gsave
133.341108 9.278125 translate
0.000000 rotate
0.000000 0.000000 m /one glyphshow
6.362305 0.000000 m /zero glyphshow
12.724609 0.000000 m /zero glyphshow
grestore
gsave
/o {
gsave
newpath
translate
0.8 setlinewidth
1 setlinejoin
0 setlinecap
0 0 m
0 -3.5 l

gsave
0.000 setgray
fill
grestore
stroke
grestore
} bind def
187.971 23.8719 o
grestore
gsave
178.432017 9.278125 translate
0.000000 rotate
0.000000 0.000000 m /one glyphshow
6.362305 0.000000 m /five glyphshow
12.724609 0.000000 m /zero glyphshow
grestore
gsave
/o {
gsave
newpath
translate
0.8 setlinewidth
1 setlinejoin
0 setlinecap
0 0 m
0 -3.5 l

gsave
0.000 setgray
fill
grestore
stroke
grestore
} bind def
233.062 23.8719 o
grestore
gsave
223.522926 9.278125 translate
0.000000 rotate
0.000000 0.000000 m /two glyphshow
6.362305 0.000000 m /zero glyphshow
12.724609 0.000000 m /zero glyphshow
grestore
gsave
/o {
gsave
newpath
translate
0.8 setlinewidth
1 setlinejoin
0 setlinecap
0 0 m
0 -3.5 l

gsave
0.000 setgray
fill
grestore
stroke
grestore
} bind def
278.153 23.8719 o
grestore
gsave
268.613835 9.278125 translate
0.000000 rotate
0.000000 0.000000 m /two glyphshow
6.362305 0.000000 m /five glyphshow
12.724609 0.000000 m /zero glyphshow
grestore
gsave
/o {
gsave
newpath
translate
0.8 setlinewidth
1 setlinejoin
0 setlinecap
0 0 m
0 -3.5 l

gsave
0.000 setgray
fill
grestore
stroke
grestore
} bind def
323.244 23.8719 o
grestore
gsave
313.704744 9.278125 translate
0.000000 rotate
0.000000 0.000000 m /three glyphshow
6.362305 0.000000 m /zero glyphshow
12.724609 0.000000 m /zero glyphshow
grestore
gsave
/o {
gsave
newpath
translate
0.8 setlinewidth
1 setlinejoin
0 setlinecap
0 0 m
0 -3.5 l

gsave
0.000 setgray
fill
grestore
stroke
grestore
} bind def
368.335 23.8719 o
grestore
gsave
358.795653 9.278125 translate
0.000000 rotate
0.000000 0.000000 m /three glyphshow
6.362305 0.000000 m /five glyphshow
12.724609 0.000000 m /zero glyphshow
grestore
gsave
/o {
gsave
newpath
translate
0.8 setlinewidth
1 setlinejoin
0 setlinecap
0 0 m
-3.5 0 l

gsave
0.000 setgray
fill
grestore
stroke
grestore
} bind def
36.4656 35.7161 o
grestore
gsave
7.200000 31.919201 translate
0.000000 rotate
0.000000 0.000000 m /one glyphshow
6.362305 0.000000 m /period glyphshow
9.541016 0.000000 m /zero glyphshow
15.903320 0.000000 m /four glyphshow
grestore
gsave
/o {
gsave
newpath
translate
0.8 setlinewidth
1 setlinejoin
0 setlinecap
0 0 m
-3.5 0 l

gsave
0.000 setgray
fill
grestore
stroke
grestore
} bind def
36.4656 65.3395 o
grestore
gsave
7.200000 61.542662 translate
0.000000 rotate
0.000000 0.000000 m /one glyphshow
6.362305 0.000000 m /period glyphshow
9.541016 0.000000 m /zero glyphshow
15.903320 0.000000 m /six glyphshow
grestore
gsave
/o {
gsave
newpath
translate
0.8 setlinewidth
1 setlinejoin
0 setlinecap
0 0 m
-3.5 0 l

gsave
0.000 setgray
fill
grestore
stroke
grestore
} bind def
36.4656 94.963 o
grestore
gsave
7.200000 91.166124 translate
0.000000 rotate
0.000000 0.000000 m /one glyphshow
6.362305 0.000000 m /period glyphshow
9.541016 0.000000 m /zero glyphshow
15.903320 0.000000 m /eight glyphshow
grestore
gsave
/o {
gsave
newpath
translate
0.8 setlinewidth
1 setlinejoin
0 setlinecap
0 0 m
-3.5 0 l

gsave
0.000 setgray
fill
grestore
stroke
grestore
} bind def
36.4656 124.586 o
grestore
gsave
7.200000 120.789586 translate
0.000000 rotate
0.000000 0.000000 m /one glyphshow
6.362305 0.000000 m /period glyphshow
9.541016 0.000000 m /one glyphshow
15.903320 0.000000 m /zero glyphshow
grestore
gsave
/o {
gsave
newpath
translate
0.8 setlinewidth
1 setlinejoin
0 setlinecap
0 0 m
-3.5 0 l

gsave
0.000 setgray
fill
grestore
stroke
grestore
} bind def
36.4656 154.21 o
grestore
gsave
7.200000 150.413047 translate
0.000000 rotate
0.000000 0.000000 m /one glyphshow
6.362305 0.000000 m /period glyphshow
9.541016 0.000000 m /one glyphshow
15.903320 0.000000 m /two glyphshow
grestore
gsave
/o {
gsave
newpath
translate
0.8 setlinewidth
1 setlinejoin
0 setlinecap
0 0 m
-3.5 0 l

gsave
0.000 setgray
fill
grestore
stroke
grestore
} bind def
36.4656 183.833 o
grestore
gsave
7.200000 180.036509 translate
0.000000 rotate
0.000000 0.000000 m /one glyphshow
6.362305 0.000000 m /period glyphshow
9.541016 0.000000 m /one glyphshow
15.903320 0.000000 m /four glyphshow
grestore
gsave
/o {
gsave
newpath
translate
0.8 setlinewidth
1 setlinejoin
0 setlinecap
0 0 m
-3.5 0 l

gsave
0.000 setgray
fill
grestore
stroke
grestore
} bind def
36.4656 213.457 o
grestore
gsave
7.200000 209.659971 translate
0.000000 rotate
0.000000 0.000000 m /one glyphshow
6.362305 0.000000 m /period glyphshow
9.541016 0.000000 m /one glyphshow
15.903320 0.000000 m /six glyphshow
grestore
gsave
/o {
gsave
newpath
translate
0.8 setlinewidth
1 setlinejoin
0 setlinecap
0 0 m
-3.5 0 l

gsave
0.000 setgray
fill
grestore
stroke
grestore
} bind def
36.4656 243.08 o
grestore
gsave
7.200000 239.283432 translate
0.000000 rotate
0.000000 0.000000 m /one glyphshow
6.362305 0.000000 m /period glyphshow
9.541016 0.000000 m /one glyphshow
15.903320 0.000000 m /eight glyphshow
grestore
gsave
/o {
gsave
newpath
translate
0.8 setlinewidth
1 setlinejoin
0 setlinecap
0 0 m
-3.5 0 l

gsave
0.000 setgray
fill
grestore
stroke
grestore
} bind def
36.4656 272.704 o
grestore
gsave
7.200000 268.906894 translate
0.000000 rotate
0.000000 0.000000 m /one glyphshow
6.362305 0.000000 m /period glyphshow
9.541016 0.000000 m /two glyphshow
15.903320 0.000000 m /zero glyphshow
grestore
1.500 setlinewidth
2 setlinecap
0.122 0.467 0.706 setrgbcolor
gsave
357.1 266.1 36.47 23.87 clipbox
52.698352 44.588302 m
53.60017 35.967875 l
54.501989 48.454164 l
55.403807 65.176608 l
56.305625 55.578607 l
57.207443 55.26756 l
58.109261 54.689903 l
59.01108 60.65903 l
59.912898 59.548151 l
60.814716 61.207064 l
61.716534 68.598118 l
62.618352 70.834689 l
63.52017 71.249418 l
64.421989 65.606148 l
65.323807 65.221043 l
66.225625 80.862231 l
67.127443 70.997618 l
68.029261 74.241388 l
68.93108 79.48474 l
69.832898 80.003151 l
70.734716 80.906666 l
71.636534 86.579559 l
72.538352 85.024328 l
73.44017 87.86818 l
74.341989 76.522394 l
75.243807 79.39587 l
76.145625 79.840222 l
77.047443 82.373028 l
77.949261 79.336623 l
78.85108 94.385341 l
79.752898 90.460233 l
80.654716 89.290106 l
81.556534 91.941406 l
82.458352 92.0599 l
83.36017 94.074295 l
84.261989 87.631192 l
85.163807 78.388672 l
86.065625 78.225743 l
87.869261 70.893936 l
88.77108 70.819878 l
89.672898 68.835106 l
90.574716 64.717445 l
91.476534 61.799534 l
92.378352 65.62096 l
93.28017 76.196536 l
94.181989 66.554099 l
95.083807 67.235439 l
95.985625 66.228241 l
96.887443 67.50205 l
97.789261 57.05978 l
98.69108 60.318361 l
99.592898 62.614179 l
100.494716 59.562962 l
101.396534 58.081789 l
102.298352 60.422043 l
103.20017 63.843552 l
104.101989 64.554516 l
105.003807 57.311579 l
105.905625 51.564628 l
106.807443 67.664979 l
107.709261 68.035272 l
108.61108 65.695019 l
109.512898 62.732673 l
110.414716 60.896018 l
111.316534 56.896851 l
112.218352 62.673426 l
113.12017 78.166496 l
114.021989 75.707749 l
114.923807 76.552018 l
115.825625 73.115696 l
116.727443 65.87276 l
117.629261 85.172445 l
118.53108 89.852952 l
119.432898 85.572362 l
121.236534 84.654034 l
122.138352 85.98709 l
123.04017 96.444172 l
124.843807 92.341323 l
125.745625 94.518647 l
126.647443 94.222412 l
127.549261 100.324846 l
128.45108 104.324013 l
129.352898 96.488607 l
130.254716 89.630776 l
131.156534 76.255783 l
132.058352 72.967579 l
132.96017 74.670928 l
133.861989 74.300634 l
134.763807 75.54482 l
135.665625 76.137289 l
136.567443 74.537622 l
137.469261 71.797452 l
138.37108 63.784306 l
139.272898 63.384389 l
141.076534 66.006065 l
141.978352 74.77461 l
142.88017 67.279874 l
143.781989 66.924392 l
144.683807 67.07251 l
145.585625 67.650167 l
146.487443 71.619711 l
147.389261 84.654034 l
148.29108 81.647253 l
150.094716 83.794954 l
150.996534 112.366783 l
151.898352 104.90167 l
152.80017 113.492474 l
153.701989 110.248705 l
154.603807 105.657069 l
155.505625 108.678662 l
156.407443 108.767532 l
157.309261 111.255903 l
158.21108 109.493307 l
159.112898 113.922014 l
160.014716 107.345606 l
160.916534 122.261019 l
161.818352 123.993991 l
162.72017 123.845874 l
163.621989 127.104455 l
164.523807 113.28511 l
165.425625 105.775563 l
167.229261 103.95372 l
168.13108 113.922014 l
169.032898 113.62578 l
169.934716 114.159002 l
170.836534 120.913151 l
171.738352 136.791327 l
172.64017 148.063054 l
173.541989 139.842543 l
174.443807 155.039379 l
175.345625 154.802392 l
176.247443 153.054607 l
177.149261 159.645828 l
178.05108 151.499376 l
178.952898 156.816787 l
179.854716 155.661472 l
180.756534 151.395694 l
181.658352 150.803224 l
183.461989 148.596276 l
184.363807 152.13628 l
185.265625 160.593778 l
186.167443 156.046577 l
187.069261 166.4296 l
187.97108 165.91119 l
188.872898 164.726251 l
189.774716 162.223069 l
190.676534 165.496461 l
191.578352 162.445245 l
192.48017 156.283565 l
193.381989 153.350842 l
194.283807 153.321219 l
195.185625 155.246744 l
196.087443 154.53578 l
196.989261 155.720719 l
197.89108 156.639046 l
198.792898 145.870918 l
199.694716 153.513771 l
200.596534 151.79561 l
201.498352 154.802392 l
202.40017 146.448575 l
203.301989 144.374933 l
204.203807 149.425733 l
205.105625 146.907739 l
206.007443 153.232348 l
206.909261 151.691928 l
207.81108 153.661888 l
208.712898 151.262388 l
209.614716 174.679734 l
210.516534 180.352627 l
211.418352 189.758076 l
212.32017 187.536317 l
213.221989 187.832551 l
214.123807 186.055144 l
215.025625 178.412291 l
215.927443 175.686932 l
216.829261 176.531201 l
217.73108 187.04753 l
218.632898 183.774137 l
219.534716 183.537149 l
220.436534 183.181668 l
221.338352 183.62602 l
222.24017 193.816491 l
223.141989 185.462674 l
224.043807 183.300162 l
224.945625 193.994231 l
225.847443 192.912975 l
226.749261 194.542265 l
227.65108 195.312476 l
228.552898 206.436085 l
229.454716 200.65951 l
230.356534 217.722624 l
231.258352 222.343884 l
232.16017 222.195767 l
233.061989 222.936354 l
233.963807 219.425973 l
234.865625 220.270242 l
235.767443 233.008331 l
236.669261 224.491585 l
237.57108 235.348584 l
238.472898 235.822559 l
239.374716 235.022726 l
240.276534 249.153117 l
241.178352 243.213613 l
242.08017 251.286006 l
242.981989 253.28559 l
243.883807 238.725659 l
244.785625 238.933023 l
245.687443 238.784906 l
246.589261 242.236039 l
247.49108 235.807748 l
248.392898 236.948251 l
249.294716 238.844152 l
250.196534 246.01303 l
251.098352 246.649935 l
252.00017 245.850101 l
253.803807 233.230506 l
254.705625 238.103566 l
255.607443 231.616028 l
256.509261 236.948251 l
257.41108 237.155615 l
258.312898 236.503899 l
259.214716 245.228008 l
260.116534 237.229674 l
261.018352 243.969011 l
261.92017 242.887755 l
262.821989 261.135807 l
263.723807 261.446854 l
264.625625 264.349953 l
265.527443 269.489624 l
266.429261 268.408367 l
267.33108 255.344421 l
268.232898 259.210282 l
269.134716 251.671111 l
270.036534 251.522994 l
270.938352 255.018563 l
272.741989 259.891622 l
273.643807 260.350786 l
274.545625 275.666115 l
275.447443 277.650887 l
276.349261 277.887875 l
277.25108 275.073646 l
278.152898 265.60895 l
279.054716 267.593722 l
279.956534 255.611032 l
280.858352 260.632209 l
281.76017 264.187024 l
282.661989 264.083342 l
283.563807 260.765514 l
284.465625 265.371962 l
285.367443 271.815065 l
286.269261 256.499736 l
287.17108 263.861166 l
288.072898 264.83874 l
288.974716 265.446021 l
291.68017 241.82131 l
292.581989 234.88942 l
293.483807 240.843736 l
294.385625 244.976209 l
295.287443 245.005833 l
296.189261 241.628758 l
297.09108 232.904648 l
297.992898 234.489504 l
298.894716 237.007498 l
299.796534 229.764561 l
300.698352 232.697284 l
301.60017 232.104815 l
302.501989 232.208497 l
303.403807 234.089587 l
304.305625 244.117129 l
305.207443 251.671111 l
306.109261 247.420145 l
307.912898 244.561481 l
308.814716 242.473027 l
309.716534 237.97026 l
310.618352 241.154782 l
311.52017 250.63429 l
312.421989 240.562313 l
313.323807 240.562313 l
314.225625 237.614779 l
315.127443 235.585572 l
316.029261 237.407415 l
316.93108 244.857715 l
317.832898 220.862711 l
318.734716 214.671408 l
319.636534 214.34555 l
320.538352 214.301114 l
321.44017 220.714594 l
322.341989 220.240619 l
323.243807 216.137769 l
324.145625 222.032838 l
325.047443 214.34555 l
325.949261 214.197432 l
326.85108 215.086136 l
327.752898 214.819525 l
328.654716 212.005296 l
329.556534 213.160611 l
330.458352 219.662961 l
331.36017 223.084471 l
332.261989 222.788236 l
333.163807 221.158946 l
334.065625 223.573258 l
334.967443 242.028675 l
335.869261 241.880557 l
336.77108 238.6516 l
337.672898 242.280474 l
338.574716 241.228841 l
339.476534 240.710431 l
340.378352 232.563979 l
341.28017 233.926658 l
342.181989 245.983407 l
343.083807 250.589855 l
343.985625 262.424428 l
344.887443 262.483675 l
345.789261 263.63899 l
346.69108 257.803168 l
347.592898 249.182741 l
348.494716 250.619479 l
349.396534 258.173461 l
350.298352 256.558983 l
351.20017 257.462498 l
352.101989 251.108266 l
353.003807 251.374877 l
353.905625 246.487006 l
354.807443 242.384156 l
355.709261 239.303316 l
356.61108 237.822143 l
357.512898 238.429424 l
358.414716 237.155615 l
359.316534 239.051517 l
360.218352 234.88942 l
361.12017 246.753617 l
362.021989 241.125159 l
362.923807 236.2521 l
363.825625 235.526325 l
364.727443 234.104399 l
365.629261 240.221643 l
366.53108 249.064247 l
367.432898 254.677893 l
368.334716 254.411282 l
369.236534 251.671111 l
370.138352 251.967346 l
371.04017 251.671111 l
371.941989 253.300402 l
372.843807 252.367263 l
373.745625 257.062581 l
374.647443 263.875978 l
375.549261 272.303852 l
376.45108 271.815065 l
377.352898 271.963183 l
377.352898 271.963183 l
stroke
grestore
1.000 0.498 0.055 setrgbcolor
gsave
357.1 266.1 36.47 23.87 clipbox
52.698352 55.773089 m
53.60017 52.36247 l
54.501989 46.0155 l
55.403807 48.001025 l
56.305625 56.004395 l
57.207443 57.297237 l
58.109261 59.350742 l
59.01108 59.067524 l
59.912898 60.713329 l
61.716534 62.722161 l
63.52017 69.997005 l
64.421989 72.339377 l
65.323807 71.03029 l
66.225625 69.415738 l
67.127443 75.42087 l
68.029261 74.153983 l
68.93108 75.73587 l
69.832898 78.789641 l
70.734716 79.894437 l
71.636534 81.93823 l
72.538352 85.357147 l
73.44017 85.850483 l
74.341989 88.193561 l
75.243807 83.853834 l
76.145625 82.314147 l
77.047443 81.353785 l
77.949261 81.850475 l
78.85108 81.391924 l
79.752898 88.15295 l
80.654716 90.00799 l
81.556534 91.323787 l
82.458352 93.012145 l
83.36017 92.987072 l
84.261989 94.162496 l
85.163807 92.02106 l
86.065625 85.962251 l
86.967443 82.56823 l
88.77108 74.593112 l
89.672898 72.982797 l
90.574716 71.045475 l
92.378352 66.165622 l
93.28017 66.23519 l
94.181989 71.29797 l
95.083807 70.23767 l
95.985625 70.523183 l
96.887443 69.662406 l
97.789261 69.133403 l
98.69108 64.583028 l
99.592898 63.288597 l
100.494716 63.084482 l
101.396534 62.109995 l
102.298352 61.468517 l
103.20017 61.91312 l
104.101989 63.517607 l
105.003807 65.370882 l
105.905625 63.027097 l
106.807443 58.926445 l
107.709261 63.596887 l
108.61108 66.122362 l
109.512898 67.51532 l
110.414716 67.329568 l
111.316534 65.283833 l
112.218352 62.316051 l
113.12017 63.286831 l
114.021989 70.444609 l
115.825625 77.604153 l
116.727443 77.575725 l
117.629261 73.172433 l
118.53108 79.539709 l
119.432898 84.665347 l
121.236534 88.146417 l
122.138352 87.425483 l
123.04017 87.358917 l
123.941989 92.41428 l
124.843807 93.771924 l
125.745625 94.294747 l
126.647443 95.644091 l
127.549261 95.390538 l
128.45108 98.227481 l
129.352898 101.725854 l
130.254716 99.957157 l
131.156534 96.23507 l
132.058352 87.21872 l
132.96017 79.861065 l
133.861989 76.448505 l
134.763807 74.508182 l
135.665625 75.058549 l
136.567443 76.274937 l
137.469261 76.303894 l
138.37108 75.370371 l
139.272898 70.810638 l
140.174716 67.745037 l
141.076534 66.399753 l
141.978352 66.397281 l
142.88017 71.071078 l
143.781989 70.492813 l
145.585625 70.120074 l
146.487443 69.466414 l
147.389261 71.35306 l
148.29108 78.448332 l
150.094716 83.940529 l
150.996534 85.550667 l
151.898352 98.725231 l
152.80017 102.992565 l
153.701989 110.28277 l
154.603807 112.282597 l
155.505625 110.013325 l
156.407443 110.258227 l
157.309261 109.508159 l
158.21108 109.76701 l
159.112898 110.189718 l
160.014716 111.996025 l
160.916534 110.210376 l
161.818352 116.105329 l
162.72017 119.945188 l
163.621989 122.416103 l
164.523807 125.766157 l
165.425625 120.384316 l
166.327443 113.657721 l
168.13108 104.841778 l
169.032898 108.22185 l
170.836534 112.689414 l
171.738352 117.556731 l
172.64017 126.928162 l
173.541989 137.607444 l
174.443807 140.472639 l
175.345625 148.763817 l
176.247443 152.142829 l
177.149261 152.959993 l
178.05108 156.677313 l
178.952898 153.573043 l
179.854716 154.495266 l
180.756534 154.664949 l
181.658352 151.953547 l
182.56017 150.942509 l
184.363807 147.786151 l
185.265625 149.12808 l
186.167443 153.495882 l
187.069261 154.299274 l
187.97108 160.053147 l
188.872898 162.620292 l
189.774716 163.383073 l
190.676534 162.901214 l
191.578352 163.207033 l
192.48017 161.720317 l
194.283807 154.953817 l
195.185625 152.690548 l
196.087443 152.405565 l
196.989261 152.388261 l
197.89108 153.104957 l
198.792898 154.118113 l
199.694716 149.791275 l
200.596534 150.866055 l
201.498352 150.114045 l
202.40017 151.256097 l
204.203807 146.005623 l
205.105625 146.549634 l
206.007443 145.712165 l
206.909261 148.479717 l
207.81108 149.624241 l
208.712898 151.025144 l
209.614716 151.127554 l
210.516534 161.474709 l
211.418352 169.820977 l
212.32017 179.873966 l
213.221989 184.751172 l
214.123807 186.591203 l
215.025625 186.151545 l
216.829261 177.126544 l
217.73108 174.854269 l
218.632898 178.271774 l
220.436534 180.778532 l
221.338352 181.23726 l
222.24017 181.164514 l
223.141989 185.902582 l
224.043807 184.672068 l
224.945625 183.12938 l
225.847443 187.118087 l
226.749261 188.055318 l
227.65108 190.306228 l
228.552898 192.006769 l
229.454716 197.199328 l
230.356534 198.033089 l
231.258352 206.53262 l
232.16017 212.882415 l
233.061989 216.594085 l
233.963807 219.508366 l
234.865625 218.33047 l
235.767443 217.398006 l
236.669261 222.875195 l
237.57108 221.427677 l
238.472898 226.561791 l
239.374716 229.439876 l
240.276534 230.260571 l
241.178352 238.063005 l
242.08017 238.795592 l
242.981989 243.035028 l
243.883807 246.12429 l
244.785625 240.99512 l
246.589261 235.602154 l
247.49108 235.070857 l
248.392898 233.188801 l
249.294716 232.465572 l
250.196534 232.885631 l
251.098352 236.783052 l
252.00017 239.525884 l
252.901989 240.936498 l
253.803807 238.728496 l
254.705625 234.063527 l
255.607443 233.182268 l
256.509261 229.344175 l
258.312898 231.010286 l
259.214716 231.197626 l
260.116534 236.062648 l
261.018352 234.748617 l
261.92017 237.238601 l
262.821989 238.136811 l
263.723807 245.861024 l
264.625625 250.589381 l
267.33108 258.85531 l
268.232898 253.990641 l
269.134716 253.390481 l
270.036534 249.157402 l
270.938352 246.855464 l
271.84017 247.320902 l
272.741989 248.211342 l
273.643807 250.401158 l
274.545625 252.207465 l
275.447443 257.489898 l
276.349261 265.327469 l
277.25108 268.958799 l
278.152898 269.81675 l
279.054716 265.516045 l
279.956534 263.333998 l
280.858352 253.383948 l
281.76017 252.42906 l
283.563807 253.012622 l
284.465625 253.05906 l
285.367443 253.867219 l
286.269261 258.422185 l
287.17108 253.683057 l
288.974716 254.077514 l
289.876534 254.479739 l
290.778352 253.144697 l
291.68017 249.357279 l
292.581989 243.138498 l
293.483807 236.002261 l
294.385625 234.262521 l
295.287443 235.618399 l
296.189261 237.33748 l
297.09108 237.724874 l
297.992898 233.549003 l
298.894716 231.581665 l
299.796534 231.264722 l
300.698352 227.667647 l
301.60017 227.708611 l
302.501989 227.201856 l
303.403807 227.051419 l
304.305625 228.481986 l
305.207443 233.60427 l
306.109261 240.208679 l
307.01108 242.598901 l
307.912898 243.145737 l
308.814716 242.166482 l
309.716534 239.888911 l
310.618352 236.546978 l
311.52017 235.862065 l
312.421989 239.871254 l
313.323807 238.006679 l
314.225625 237.614165 l
315.127443 235.408987 l
316.029261 232.56145 l
316.93108 232.415603 l
317.832898 235.563486 l
318.734716 226.254207 l
319.636534 219.087071 l
320.538352 213.568565 l
321.44017 209.730119 l
322.341989 212.104803 l
323.243807 213.648374 l
324.145625 212.914375 l
325.047443 216.083975 l
325.949261 213.440199 l
326.85108 211.980321 l
327.752898 211.487869 l
329.556534 209.359499 l
330.458352 209.344667 l
331.36017 211.950834 l
332.261989 215.429608 l
333.163807 217.581992 l
334.065625 218.100047 l
334.967443 219.079655 l
335.869261 227.882709 l
336.77108 232.900287 l
337.672898 234.948847 l
338.574716 237.685499 l
340.378352 237.069624 l
341.28017 233.023179 l
342.181989 230.582811 l
343.985625 239.868076 l
344.887443 248.021353 l
345.789261 252.389685 l
346.69108 253.802948 l
347.592898 253.587533 l
348.494716 249.820774 l
349.396534 247.189181 l
350.298352 248.259192 l
351.20017 248.426227 l
352.101989 249.837371 l
353.003807 248.100633 l
353.905625 246.990717 l
354.807443 244.326281 l
356.61108 237.02301 l
357.512898 234.255635 l
358.414716 233.158608 l
359.316534 232.396357 l
360.218352 233.006405 l
361.12017 231.640463 l
362.021989 236.52632 l
362.923807 236.608071 l
363.825625 234.690526 l
364.727443 233.262254 l
365.629261 230.793105 l
366.53108 232.517131 l
368.334716 243.573742 l
369.236534 247.009786 l
370.138352 247.706 l
371.04017 247.611006 l
371.941989 246.988598 l
372.843807 247.051456 l
373.745625 246.721271 l
374.647443 248.424638 l
376.45108 255.773994 l
377.352898 261.296561 l
377.352898 261.296561 l
stroke
grestore
0.800 setlinewidth
0 setlinejoin
[] 0 setdash
0.000 setgray
gsave
36.465625 23.871875 m
36.465625 289.983875 l
stroke
grestore
gsave
393.585625 23.871875 m
393.585625 289.983875 l
stroke
grestore
gsave
36.465625 23.871875 m
393.585625 23.871875 l
stroke
grestore
gsave
36.465625 289.983875 m
393.585625 289.983875 l
stroke
grestore
/DejaVuSans findfont
12.000 scalefont
setfont
gsave
100.025625 295.983875 translate
0.000000 rotate
0.000000 0.000000 m /R glyphshow
8.337891 0.000000 m /M glyphshow
18.691406 0.000000 m /S glyphshow
26.308594 0.000000 m /E glyphshow
33.890625 0.000000 m /space glyphshow
37.705078 0.000000 m /equal glyphshow
47.759766 0.000000 m /space glyphshow
51.574219 0.000000 m /zero glyphshow
59.208984 0.000000 m /period glyphshow
63.023438 0.000000 m /zero glyphshow
70.658203 0.000000 m /zero glyphshow
78.292969 0.000000 m /five glyphshow
85.927734 0.000000 m /six glyphshow
93.562500 0.000000 m /eight glyphshow
101.197266 0.000000 m /space glyphshow
105.011719 0.000000 m /R glyphshow
113.349609 0.000000 m /hyphen glyphshow
117.679688 0.000000 m /s glyphshow
123.931641 0.000000 m /q glyphshow
131.548828 0.000000 m /u glyphshow
139.154297 0.000000 m /a glyphshow
146.507812 0.000000 m /r glyphshow
151.441406 0.000000 m /e glyphshow
158.824219 0.000000 m /d glyphshow
166.441406 0.000000 m /space glyphshow
170.255859 0.000000 m /equal glyphshow
180.310547 0.000000 m /space glyphshow
184.125000 0.000000 m /nine glyphshow
191.759766 0.000000 m /eight glyphshow
199.394531 0.000000 m /period glyphshow
203.208984 0.000000 m /seven glyphshow
210.843750 0.000000 m /six glyphshow
218.478516 0.000000 m /percent glyphshow
grestore
1.000 setlinewidth
0 setlinecap
0.800 setgray
gsave
413.441625 257.640125 m
492.785375 257.640125 l
494.118708 257.640125 494.785375 258.306792 494.785375 259.640125 c
494.785375 287.983875 l
494.785375 289.317208 494.118708 289.983875 492.785375 289.983875 c
413.441625 289.983875 l
412.108292 289.983875 411.441625 289.317208 411.441625 287.983875 c
411.441625 259.640125 l
411.441625 258.306792 412.108292 257.640125 413.441625 257.640125 c
cl
gsave
1.000 setgray
fill
grestore
stroke
grestore
1.500 setlinewidth
1 setlinejoin
2 setlinecap
[] 0 setdash
0.122 0.467 0.706 setrgbcolor
gsave
415.441625 281.890125 m
435.441625 281.890125 l
stroke
grestore
0.000 setgray
/DejaVuSans findfont
10.000 scalefont
setfont
gsave
443.441625 278.390125 translate
0.000000 rotate
0.000000 0.000000 m /A glyphshow
6.840820 0.000000 m /c glyphshow
12.338867 0.000000 m /t glyphshow
16.259766 0.000000 m /u glyphshow
22.597656 0.000000 m /a glyphshow
28.725586 0.000000 m /l glyphshow
grestore
1.000 0.498 0.055 setrgbcolor
gsave
415.441625 267.21825 m
435.441625 267.21825 l
stroke
grestore
0.000 setgray
gsave
443.441625 263.718250 translate
0.000000 rotate
0.000000 0.000000 m /P glyphshow
6.030273 0.000000 m /r glyphshow
10.141602 0.000000 m /e glyphshow
16.293945 0.000000 m /d glyphshow
22.641602 0.000000 m /i glyphshow
25.419922 0.000000 m /c glyphshow
30.917969 0.000000 m /t glyphshow
34.838867 0.000000 m /e glyphshow
40.991211 0.000000 m /d glyphshow
grestore
/DejaVuSans findfont
12.000 scalefont
setfont
gsave
101.070312 315.418875 translate
0.000000 rotate
0.000000 0.000000 m /P glyphshow
7.236328 0.000000 m /e glyphshow
14.619141 0.000000 m /r glyphshow
19.552734 0.000000 m /c glyphshow
26.150391 0.000000 m /e glyphshow
33.533203 0.000000 m /p glyphshow
41.150391 0.000000 m /t glyphshow
45.855469 0.000000 m /r glyphshow
50.789062 0.000000 m /o glyphshow
58.130859 0.000000 m /n glyphshow
65.736328 0.000000 m /space glyphshow
69.550781 0.000000 m /parenleft glyphshow
74.232422 0.000000 m /eight glyphshow
81.867188 0.000000 m /comma glyphshow
85.681641 0.000000 m /space glyphshow
89.496094 0.000000 m /one glyphshow
97.130859 0.000000 m /zero glyphshow
104.765625 0.000000 m /comma glyphshow
108.580078 0.000000 m /space glyphshow
112.394531 0.000000 m /two glyphshow
120.029297 0.000000 m /zero glyphshow
127.664062 0.000000 m /comma glyphshow
131.478516 0.000000 m /space glyphshow
135.292969 0.000000 m /four glyphshow
142.927734 0.000000 m /zero glyphshow
150.562500 0.000000 m /comma glyphshow
154.376953 0.000000 m /space glyphshow
158.191406 0.000000 m /two glyphshow
165.826172 0.000000 m /zero glyphshow
173.460938 0.000000 m /comma glyphshow
177.275391 0.000000 m /space glyphshow
181.089844 0.000000 m /one glyphshow
188.724609 0.000000 m /zero glyphshow
196.359375 0.000000 m /comma glyphshow
200.173828 0.000000 m /space glyphshow
203.988281 0.000000 m /one glyphshow
211.623047 0.000000 m /parenright glyphshow
grestore

end
showpage
