%!PS-Adobe-3.0 EPSF-3.0
%%Title: plots/5.eps
%%Creator: matplotlib version 2.2.2, http://matplotlib.org/
%%CreationDate: Thu May 31 19:17:28 2018
%%Orientation: portrait
%%BoundingBox: 55 230 556 561
%%EndComments
%%BeginProlog
/mpldict 8 dict def
mpldict begin
/m { moveto } bind def
/l { lineto } bind def
/r { rlineto } bind def
/c { curveto } bind def
/cl { closepath } bind def
/box {
m
1 index 0 r
0 exch r
neg 0 r
cl
} bind def
/clipbox {
box
clip
newpath
} bind def
%!PS-Adobe-3.0 Resource-Font
%%Title: DejaVu Sans
%%Copyright: Copyright (c) 2003 by Bitstream, Inc. All Rights Reserved. Copyright (c) 2006 by Tavmjong Bah. All Rights Reserved. DejaVu changes are in public domain 
%%Creator: Converted from TrueType to type 3 by PPR
25 dict begin
/_d{bind def}bind def
/_m{moveto}_d
/_l{lineto}_d
/_cl{closepath eofill}_d
/_c{curveto}_d
/_sc{7 -1 roll{setcachedevice}{pop pop pop pop pop pop}ifelse}_d
/_e{exec}_d
/FontName /DejaVuSans def
/PaintType 0 def
/FontMatrix[.001 0 0 .001 0 0]def
/FontBBox[-1021 -463 1793 1232]def
/FontType 3 def
/Encoding [ /space /percent /parenleft /parenright /comma /hyphen /period /zero /one /two /three /four /five /six /seven /eight /nine /equal /A /E /M /P /R /S /a /c /d /e /i /l /n /o /p /q /r /s /t /u ] def
/FontInfo 10 dict dup begin
/FamilyName (DejaVu Sans) def
/FullName (DejaVu Sans) def
/Notice (Copyright (c) 2003 by Bitstream, Inc. All Rights Reserved. Copyright (c) 2006 by Tavmjong Bah. All Rights Reserved. DejaVu changes are in public domain ) def
/Weight (Book) def
/Version (Version 2.35) def
/ItalicAngle 0.0 def
/isFixedPitch false def
/UnderlinePosition -130 def
/UnderlineThickness 90 def
end readonly def
/CharStrings 39 dict dup begin
/.notdef 0 def
/space{318 0 0 0 0 0 _sc
}_d
/percent{{950 0 55 -13 895 742 _sc
727 321 _m
699 321 676 309 660 285 _c
644 261 636 227 636 184 _c
636 142 644 108 660 84 _c
676 60 699 48 727 48 _c
755 48 777 60 793 84 _c
809 108 817 142 817 184 _c
817 226 809 260 793 284 _c
777 308 755 321 727 321 _c
727 383 _m
778 383 819 365 849 329 _c
879 293 895 244 895 184 _c
895 123 879 75 849 40 _c
819 4 778 -13 727 -13 _c
}_e{675 -13 633 4 603 40 _c
573 75 558 123 558 184 _c
558 245 573 293 603 329 _c
633 365 675 383 727 383 _c
223 680 _m
195 680 173 667 157 643 _c
141 619 133 586 133 544 _c
133 500 141 467 157 443 _c
173 419 195 407 223 407 _c
251 407 274 419 290 443 _c
306 467 314 500 314 544 _c
314 586 305 619 289 643 _c
273 667 251 680 223 680 _c
664 742 _m
742 742 _l
286 -13 _l
}_e{208 -13 _l
664 742 _l
223 742 _m
274 742 315 724 346 688 _c
376 652 392 604 392 544 _c
392 482 376 434 346 398 _c
316 362 275 345 223 345 _c
171 345 130 362 100 398 _c
70 434 55 482 55 544 _c
55 604 70 652 100 688 _c
130 724 171 742 223 742 _c
_cl}_e}_d
/parenleft{390 0 86 -131 310 759 _sc
310 759 _m
266 683 234 609 213 536 _c
191 463 181 389 181 314 _c
181 238 191 164 213 91 _c
234 17 266 -56 310 -131 _c
232 -131 _l
183 -54 146 20 122 94 _c
98 168 86 241 86 314 _c
86 386 98 459 122 533 _c
146 607 182 682 232 759 _c
310 759 _l
_cl}_d
/parenright{390 0 80 -131 304 759 _sc
80 759 _m
158 759 _l
206 682 243 607 267 533 _c
291 459 304 386 304 314 _c
304 241 291 168 267 94 _c
243 20 206 -54 158 -131 _c
80 -131 _l
123 -56 155 17 177 91 _c
198 164 209 238 209 314 _c
209 389 198 463 177 536 _c
155 609 123 683 80 759 _c
_cl}_d
/comma{318 0 77 -115 220 124 _sc
117 124 _m
220 124 _l
220 40 _l
140 -115 _l
77 -115 _l
117 40 _l
117 124 _l
_cl}_d
/hyphen{361 0 49 234 312 314 _sc
49 314 _m
312 314 _l
312 234 _l
49 234 _l
49 314 _l
_cl}_d
/period{318 0 107 0 210 124 _sc
107 124 _m
210 124 _l
210 0 _l
107 0 _l
107 124 _l
_cl}_d
/zero{636 0 66 -13 570 742 _sc
318 664 _m
267 664 229 639 203 589 _c
177 539 165 464 165 364 _c
165 264 177 189 203 139 _c
229 89 267 64 318 64 _c
369 64 407 89 433 139 _c
458 189 471 264 471 364 _c
471 464 458 539 433 589 _c
407 639 369 664 318 664 _c
318 742 _m
399 742 461 709 505 645 _c
548 580 570 486 570 364 _c
570 241 548 147 505 83 _c
461 19 399 -13 318 -13 _c
236 -13 173 19 130 83 _c
87 147 66 241 66 364 _c
66 486 87 580 130 645 _c
173 709 236 742 318 742 _c
_cl}_d
/one{636 0 110 0 544 729 _sc
124 83 _m
285 83 _l
285 639 _l
110 604 _l
110 694 _l
284 729 _l
383 729 _l
383 83 _l
544 83 _l
544 0 _l
124 0 _l
124 83 _l
_cl}_d
/two{{636 0 73 0 536 742 _sc
192 83 _m
536 83 _l
536 0 _l
73 0 _l
73 83 _l
110 121 161 173 226 239 _c
290 304 331 346 348 365 _c
380 400 402 430 414 455 _c
426 479 433 504 433 528 _c
433 566 419 598 392 622 _c
365 646 330 659 286 659 _c
255 659 222 653 188 643 _c
154 632 117 616 78 594 _c
78 694 _l
118 710 155 722 189 730 _c
223 738 255 742 284 742 _c
}_e{359 742 419 723 464 685 _c
509 647 532 597 532 534 _c
532 504 526 475 515 449 _c
504 422 484 390 454 354 _c
446 344 420 317 376 272 _c
332 227 271 164 192 83 _c
_cl}_e}_d
/three{{636 0 76 -13 556 742 _sc
406 393 _m
453 383 490 362 516 330 _c
542 298 556 258 556 212 _c
556 140 531 84 482 45 _c
432 6 362 -13 271 -13 _c
240 -13 208 -10 176 -4 _c
144 1 110 10 76 22 _c
76 117 _l
103 101 133 89 166 81 _c
198 73 232 69 268 69 _c
330 69 377 81 409 105 _c
441 129 458 165 458 212 _c
458 254 443 288 413 312 _c
383 336 341 349 287 349 _c
}_e{202 349 _l
202 430 _l
291 430 _l
339 430 376 439 402 459 _c
428 478 441 506 441 543 _c
441 580 427 609 401 629 _c
374 649 336 659 287 659 _c
260 659 231 656 200 650 _c
169 644 135 635 98 623 _c
98 711 _l
135 721 170 729 203 734 _c
235 739 266 742 296 742 _c
370 742 429 725 473 691 _c
517 657 539 611 539 553 _c
539 513 527 479 504 451 _c
481 423 448 403 406 393 _c
_cl}_e}_d
/four{636 0 49 0 580 729 _sc
378 643 _m
129 254 _l
378 254 _l
378 643 _l
352 729 _m
476 729 _l
476 254 _l
580 254 _l
580 172 _l
476 172 _l
476 0 _l
378 0 _l
378 172 _l
49 172 _l
49 267 _l
352 729 _l
_cl}_d
/five{{636 0 77 -13 549 729 _sc
108 729 _m
495 729 _l
495 646 _l
198 646 _l
198 467 _l
212 472 227 476 241 478 _c
255 480 270 482 284 482 _c
365 482 429 459 477 415 _c
525 370 549 310 549 234 _c
549 155 524 94 475 51 _c
426 8 357 -13 269 -13 _c
238 -13 207 -10 175 -6 _c
143 -1 111 6 77 17 _c
77 116 _l
106 100 136 88 168 80 _c
199 72 232 69 267 69 _c
}_e{323 69 368 83 401 113 _c
433 143 450 183 450 234 _c
450 284 433 324 401 354 _c
368 384 323 399 267 399 _c
241 399 214 396 188 390 _c
162 384 135 375 108 363 _c
108 729 _l
_cl}_e}_d
/six{{636 0 70 -13 573 742 _sc
330 404 _m
286 404 251 388 225 358 _c
199 328 186 286 186 234 _c
186 181 199 139 225 109 _c
251 79 286 64 330 64 _c
374 64 409 79 435 109 _c
461 139 474 181 474 234 _c
474 286 461 328 435 358 _c
409 388 374 404 330 404 _c
526 713 _m
526 623 _l
501 635 476 644 451 650 _c
425 656 400 659 376 659 _c
310 659 260 637 226 593 _c
}_e{192 549 172 482 168 394 _c
187 422 211 444 240 459 _c
269 474 301 482 336 482 _c
409 482 467 459 509 415 _c
551 371 573 310 573 234 _c
573 159 550 99 506 54 _c
462 9 403 -13 330 -13 _c
246 -13 181 19 137 83 _c
92 147 70 241 70 364 _c
70 479 97 571 152 639 _c
206 707 280 742 372 742 _c
396 742 421 739 447 735 _c
472 730 498 723 526 713 _c
_cl}_e}_d
/seven{636 0 82 0 551 729 _sc
82 729 _m
551 729 _l
551 687 _l
286 0 _l
183 0 _l
432 646 _l
82 646 _l
82 729 _l
_cl}_d
/eight{{636 0 68 -13 568 742 _sc
318 346 _m
271 346 234 333 207 308 _c
180 283 167 249 167 205 _c
167 161 180 126 207 101 _c
234 76 271 64 318 64 _c
364 64 401 76 428 102 _c
455 127 469 161 469 205 _c
469 249 455 283 429 308 _c
402 333 365 346 318 346 _c
219 388 _m
177 398 144 418 120 447 _c
96 476 85 511 85 553 _c
85 611 105 657 147 691 _c
188 725 245 742 318 742 _c
}_e{390 742 447 725 489 691 _c
530 657 551 611 551 553 _c
551 511 539 476 515 447 _c
491 418 459 398 417 388 _c
464 377 501 355 528 323 _c
554 291 568 251 568 205 _c
568 134 546 80 503 43 _c
459 5 398 -13 318 -13 _c
237 -13 175 5 132 43 _c
89 80 68 134 68 205 _c
68 251 81 291 108 323 _c
134 355 171 377 219 388 _c
183 544 _m
183 506 194 476 218 455 _c
}_e{242 434 275 424 318 424 _c
360 424 393 434 417 455 _c
441 476 453 506 453 544 _c
453 582 441 611 417 632 _c
393 653 360 664 318 664 _c
275 664 242 653 218 632 _c
194 611 183 582 183 544 _c
_cl}_e}_d
/nine{{636 0 63 -13 566 742 _sc
110 15 _m
110 105 _l
134 93 159 84 185 78 _c
210 72 235 69 260 69 _c
324 69 374 90 408 134 _c
442 178 462 244 468 334 _c
448 306 424 284 396 269 _c
367 254 335 247 300 247 _c
226 247 168 269 126 313 _c
84 357 63 417 63 494 _c
63 568 85 628 129 674 _c
173 719 232 742 306 742 _c
390 742 455 709 499 645 _c
543 580 566 486 566 364 _c
}_e{566 248 538 157 484 89 _c
429 21 356 -13 264 -13 _c
239 -13 214 -10 189 -6 _c
163 -2 137 5 110 15 _c
306 324 _m
350 324 385 339 411 369 _c
437 399 450 441 450 494 _c
450 546 437 588 411 618 _c
385 648 350 664 306 664 _c
262 664 227 648 201 618 _c
175 588 162 546 162 494 _c
162 441 175 399 201 369 _c
227 339 262 324 306 324 _c
_cl}_e}_d
/equal{838 0 106 172 732 454 _sc
106 454 _m
732 454 _l
732 372 _l
106 372 _l
106 454 _l
106 255 _m
732 255 _l
732 172 _l
106 172 _l
106 255 _l
_cl}_d
/A{684 0 8 0 676 729 _sc
342 632 _m
208 269 _l
476 269 _l
342 632 _l
286 729 _m
398 729 _l
676 0 _l
573 0 _l
507 187 _l
178 187 _l
112 0 _l
8 0 _l
286 729 _l
_cl}_d
/E{632 0 98 0 568 729 _sc
98 729 _m
559 729 _l
559 646 _l
197 646 _l
197 430 _l
544 430 _l
544 347 _l
197 347 _l
197 83 _l
568 83 _l
568 0 _l
98 0 _l
98 729 _l
_cl}_d
/M{863 0 98 0 765 729 _sc
98 729 _m
245 729 _l
431 233 _l
618 729 _l
765 729 _l
765 0 _l
669 0 _l
669 640 _l
481 140 _l
382 140 _l
194 640 _l
194 0 _l
98 0 _l
98 729 _l
_cl}_d
/P{603 0 98 0 569 729 _sc
197 648 _m
197 374 _l
321 374 _l
367 374 402 385 427 409 _c
452 433 465 467 465 511 _c
465 555 452 588 427 612 _c
402 636 367 648 321 648 _c
197 648 _l
98 729 _m
321 729 _l
402 729 464 710 506 673 _c
548 636 569 582 569 511 _c
569 439 548 384 506 348 _c
464 311 402 293 321 293 _c
197 293 _l
197 0 _l
98 0 _l
98 729 _l
_cl}_d
/R{{695 0 98 0 666 729 _sc
444 342 _m
465 334 486 319 506 296 _c
526 272 546 240 566 199 _c
666 0 _l
560 0 _l
467 187 _l
443 235 419 268 397 284 _c
374 300 343 308 304 308 _c
197 308 _l
197 0 _l
98 0 _l
98 729 _l
321 729 _l
404 729 466 711 507 677 _c
548 642 569 589 569 519 _c
569 473 558 434 537 404 _c
515 374 484 353 444 342 _c
197 648 _m
197 389 _l
321 389 _l
}_e{368 389 404 400 428 422 _c
452 444 465 476 465 519 _c
465 561 452 593 428 615 _c
404 637 368 648 321 648 _c
197 648 _l
_cl}_e}_d
/S{{635 0 66 -13 579 742 _sc
535 705 _m
535 609 _l
497 627 462 640 429 649 _c
395 657 363 662 333 662 _c
279 662 237 651 208 631 _c
179 610 165 580 165 542 _c
165 510 174 485 194 469 _c
213 452 250 439 304 429 _c
364 417 _l
437 403 491 378 526 343 _c
561 307 579 260 579 201 _c
579 130 555 77 508 41 _c
460 5 391 -13 300 -13 _c
265 -13 228 -9 189 -2 _c
}_e{150 5 110 16 69 32 _c
69 134 _l
109 111 148 94 186 83 _c
224 71 262 66 300 66 _c
356 66 399 77 430 99 _c
460 121 476 152 476 194 _c
476 230 465 258 443 278 _c
421 298 385 313 335 323 _c
275 335 _l
201 349 148 372 115 404 _c
82 435 66 478 66 534 _c
66 598 88 649 134 686 _c
179 723 242 742 322 742 _c
356 742 390 739 426 733 _c
461 727 497 717 535 705 _c
}_e{_cl}_e}_d
/a{{613 0 60 -13 522 560 _sc
343 275 _m
270 275 220 266 192 250 _c
164 233 150 205 150 165 _c
150 133 160 107 181 89 _c
202 70 231 61 267 61 _c
317 61 357 78 387 114 _c
417 149 432 196 432 255 _c
432 275 _l
343 275 _l
522 312 _m
522 0 _l
432 0 _l
432 83 _l
411 49 385 25 355 10 _c
325 -5 287 -13 243 -13 _c
187 -13 142 2 109 33 _c
76 64 60 106 60 159 _c
}_e{60 220 80 266 122 298 _c
163 329 224 345 306 345 _c
432 345 _l
432 354 _l
432 395 418 427 391 450 _c
364 472 326 484 277 484 _c
245 484 215 480 185 472 _c
155 464 127 453 100 439 _c
100 522 _l
132 534 164 544 195 550 _c
226 556 256 560 286 560 _c
365 560 424 539 463 498 _c
502 457 522 395 522 312 _c
_cl}_e}_d
/c{{550 0 55 -13 488 560 _sc
488 526 _m
488 442 _l
462 456 437 466 411 473 _c
385 480 360 484 334 484 _c
276 484 230 465 198 428 _c
166 391 150 339 150 273 _c
150 206 166 154 198 117 _c
230 80 276 62 334 62 _c
360 62 385 65 411 72 _c
437 79 462 90 488 104 _c
488 21 _l
462 9 436 0 410 -5 _c
383 -10 354 -13 324 -13 _c
242 -13 176 12 128 64 _c
}_e{79 115 55 185 55 273 _c
55 362 79 432 128 483 _c
177 534 244 560 330 560 _c
358 560 385 557 411 551 _c
437 545 463 537 488 526 _c
_cl}_e}_d
/d{{635 0 55 -13 544 760 _sc
454 464 _m
454 760 _l
544 760 _l
544 0 _l
454 0 _l
454 82 _l
435 49 411 25 382 10 _c
353 -5 319 -13 279 -13 _c
213 -13 159 13 117 65 _c
75 117 55 187 55 273 _c
55 359 75 428 117 481 _c
159 533 213 560 279 560 _c
319 560 353 552 382 536 _c
411 520 435 496 454 464 _c
148 273 _m
148 207 161 155 188 117 _c
215 79 253 61 301 61 _c
}_e{348 61 385 79 413 117 _c
440 155 454 207 454 273 _c
454 339 440 390 413 428 _c
385 466 348 485 301 485 _c
253 485 215 466 188 428 _c
161 390 148 339 148 273 _c
_cl}_e}_d
/e{{615 0 55 -13 562 560 _sc
562 296 _m
562 252 _l
149 252 _l
153 190 171 142 205 110 _c
238 78 284 62 344 62 _c
378 62 412 66 444 74 _c
476 82 509 95 541 113 _c
541 28 _l
509 14 476 3 442 -3 _c
408 -9 373 -13 339 -13 _c
251 -13 182 12 131 62 _c
80 112 55 181 55 268 _c
55 357 79 428 127 481 _c
175 533 241 560 323 560 _c
397 560 455 536 498 489 _c
}_e{540 441 562 377 562 296 _c
472 322 _m
471 371 457 410 431 440 _c
404 469 368 484 324 484 _c
274 484 234 469 204 441 _c
174 413 156 373 152 322 _c
472 322 _l
_cl}_e}_d
/i{278 0 94 0 184 760 _sc
94 547 _m
184 547 _l
184 0 _l
94 0 _l
94 547 _l
94 760 _m
184 760 _l
184 646 _l
94 646 _l
94 760 _l
_cl}_d
/l{278 0 94 0 184 760 _sc
94 760 _m
184 760 _l
184 0 _l
94 0 _l
94 760 _l
_cl}_d
/n{634 0 91 0 549 560 _sc
549 330 _m
549 0 _l
459 0 _l
459 327 _l
459 379 448 417 428 443 _c
408 469 378 482 338 482 _c
289 482 251 466 223 435 _c
195 404 181 362 181 309 _c
181 0 _l
91 0 _l
91 547 _l
181 547 _l
181 462 _l
202 494 227 519 257 535 _c
286 551 320 560 358 560 _c
420 560 468 540 500 501 _c
532 462 549 405 549 330 _c
_cl}_d
/o{612 0 55 -13 557 560 _sc
306 484 _m
258 484 220 465 192 427 _c
164 389 150 338 150 273 _c
150 207 163 156 191 118 _c
219 80 257 62 306 62 _c
354 62 392 80 420 118 _c
448 156 462 207 462 273 _c
462 337 448 389 420 427 _c
392 465 354 484 306 484 _c
306 560 _m
384 560 445 534 490 484 _c
534 433 557 363 557 273 _c
557 183 534 113 490 63 _c
445 12 384 -13 306 -13 _c
227 -13 165 12 121 63 _c
77 113 55 183 55 273 _c
55 363 77 433 121 484 _c
165 534 227 560 306 560 _c
_cl}_d
/p{{635 0 91 -207 580 560 _sc
181 82 _m
181 -207 _l
91 -207 _l
91 547 _l
181 547 _l
181 464 _l
199 496 223 520 252 536 _c
281 552 316 560 356 560 _c
422 560 476 533 518 481 _c
559 428 580 359 580 273 _c
580 187 559 117 518 65 _c
476 13 422 -13 356 -13 _c
316 -13 281 -5 252 10 _c
223 25 199 49 181 82 _c
487 273 _m
487 339 473 390 446 428 _c
418 466 381 485 334 485 _c
}_e{286 485 249 466 222 428 _c
194 390 181 339 181 273 _c
181 207 194 155 222 117 _c
249 79 286 61 334 61 _c
381 61 418 79 446 117 _c
473 155 487 207 487 273 _c
_cl}_e}_d
/q{{635 0 55 -207 544 560 _sc
148 273 _m
148 207 161 155 188 117 _c
215 79 253 61 301 61 _c
348 61 385 79 413 117 _c
440 155 454 207 454 273 _c
454 339 440 390 413 428 _c
385 466 348 485 301 485 _c
253 485 215 466 188 428 _c
161 390 148 339 148 273 _c
454 82 _m
435 49 411 25 382 10 _c
353 -5 319 -13 279 -13 _c
213 -13 159 13 117 65 _c
75 117 55 187 55 273 _c
}_e{55 359 75 428 117 481 _c
159 533 213 560 279 560 _c
319 560 353 552 382 536 _c
411 520 435 496 454 464 _c
454 547 _l
544 547 _l
544 -207 _l
454 -207 _l
454 82 _l
_cl}_e}_d
/r{411 0 91 0 411 560 _sc
411 463 _m
401 469 390 473 378 476 _c
366 478 353 480 339 480 _c
288 480 249 463 222 430 _c
194 397 181 350 181 288 _c
181 0 _l
91 0 _l
91 547 _l
181 547 _l
181 462 _l
199 495 224 520 254 536 _c
284 552 321 560 365 560 _c
371 560 378 559 386 559 _c
393 558 401 557 411 555 _c
411 463 _l
_cl}_d
/s{{521 0 54 -13 472 560 _sc
443 531 _m
443 446 _l
417 458 391 468 364 475 _c
336 481 308 485 279 485 _c
234 485 200 478 178 464 _c
156 450 145 430 145 403 _c
145 382 153 366 169 354 _c
185 342 217 330 265 320 _c
296 313 _l
360 299 405 279 432 255 _c
458 230 472 195 472 151 _c
472 100 452 60 412 31 _c
372 1 316 -13 246 -13 _c
216 -13 186 -10 154 -5 _c
}_e{122 0 89 8 54 20 _c
54 113 _l
87 95 120 82 152 74 _c
184 65 216 61 248 61 _c
290 61 323 68 346 82 _c
368 96 380 117 380 144 _c
380 168 371 187 355 200 _c
339 213 303 226 247 238 _c
216 245 _l
160 257 119 275 95 299 _c
70 323 58 356 58 399 _c
58 450 76 490 112 518 _c
148 546 200 560 268 560 _c
301 560 332 557 362 552 _c
391 547 418 540 443 531 _c
}_e{_cl}_e}_d
/t{392 0 27 0 368 702 _sc
183 702 _m
183 547 _l
368 547 _l
368 477 _l
183 477 _l
183 180 _l
183 135 189 106 201 94 _c
213 81 238 75 276 75 _c
368 75 _l
368 0 _l
276 0 _l
206 0 158 13 132 39 _c
106 65 93 112 93 180 _c
93 477 _l
27 477 _l
27 547 _l
93 547 _l
93 702 _l
183 702 _l
_cl}_d
/u{634 0 85 -13 543 560 _sc
85 216 _m
85 547 _l
175 547 _l
175 219 _l
175 167 185 129 205 103 _c
225 77 255 64 296 64 _c
344 64 383 79 411 110 _c
439 141 453 183 453 237 _c
453 547 _l
543 547 _l
543 0 _l
453 0 _l
453 84 _l
431 50 405 26 377 10 _c
348 -5 315 -13 277 -13 _c
214 -13 166 6 134 45 _c
101 83 85 140 85 216 _c
311 560 _m
311 560 _l
_cl}_d
end readonly def

/BuildGlyph
 {exch begin
 CharStrings exch
 2 copy known not{pop /.notdef}if
 true 3 1 roll get exec
 end}_d

/BuildChar {
 1 index /Encoding get exch get
 1 index /BuildGlyph get exec
}_d

FontName currentdict end definefont pop
end
%%EndProlog
mpldict begin
55.007 230.128 translate
501.985 331.744 0 0 clipbox
gsave
0 0 m
501.985375 0 l
501.985375 331.743875 l
0 331.743875 l
cl
1.000 setgray
fill
grestore
gsave
36.465625 23.871875 m
393.585625 23.871875 l
393.585625 289.983875 l
36.465625 289.983875 l
cl
1.000 setgray
fill
grestore
0.800 setlinewidth
1 setlinejoin
0 setlinecap
[] 0 setdash
0.000 setgray
gsave
/o {
gsave
newpath
translate
0.8 setlinewidth
1 setlinejoin
0 setlinecap
0 0 m
0 -3.5 l

gsave
0.000 setgray
fill
grestore
stroke
grestore
} bind def
52.6984 23.8719 o
grestore
/DejaVuSans findfont
10.000 scalefont
setfont
gsave
49.518665 9.278125 translate
0.000000 rotate
0.000000 0.000000 m /zero glyphshow
grestore
gsave
/o {
gsave
newpath
translate
0.8 setlinewidth
1 setlinejoin
0 setlinecap
0 0 m
0 -3.5 l

gsave
0.000 setgray
fill
grestore
stroke
grestore
} bind def
98.2959 23.8719 o
grestore
gsave
91.936526 9.278125 translate
0.000000 rotate
0.000000 0.000000 m /five glyphshow
6.362305 0.000000 m /zero glyphshow
grestore
gsave
/o {
gsave
newpath
translate
0.8 setlinewidth
1 setlinejoin
0 setlinecap
0 0 m
0 -3.5 l

gsave
0.000 setgray
fill
grestore
stroke
grestore
} bind def
143.893 23.8719 o
grestore
gsave
134.354387 9.278125 translate
0.000000 rotate
0.000000 0.000000 m /one glyphshow
6.362305 0.000000 m /zero glyphshow
12.724609 0.000000 m /zero glyphshow
grestore
gsave
/o {
gsave
newpath
translate
0.8 setlinewidth
1 setlinejoin
0 setlinecap
0 0 m
0 -3.5 l

gsave
0.000 setgray
fill
grestore
stroke
grestore
} bind def
189.491 23.8719 o
grestore
gsave
179.951935 9.278125 translate
0.000000 rotate
0.000000 0.000000 m /one glyphshow
6.362305 0.000000 m /five glyphshow
12.724609 0.000000 m /zero glyphshow
grestore
gsave
/o {
gsave
newpath
translate
0.8 setlinewidth
1 setlinejoin
0 setlinecap
0 0 m
0 -3.5 l

gsave
0.000 setgray
fill
grestore
stroke
grestore
} bind def
235.089 23.8719 o
grestore
gsave
225.549484 9.278125 translate
0.000000 rotate
0.000000 0.000000 m /two glyphshow
6.362305 0.000000 m /zero glyphshow
12.724609 0.000000 m /zero glyphshow
grestore
gsave
/o {
gsave
newpath
translate
0.8 setlinewidth
1 setlinejoin
0 setlinecap
0 0 m
0 -3.5 l

gsave
0.000 setgray
fill
grestore
stroke
grestore
} bind def
280.686 23.8719 o
grestore
gsave
271.147032 9.278125 translate
0.000000 rotate
0.000000 0.000000 m /two glyphshow
6.362305 0.000000 m /five glyphshow
12.724609 0.000000 m /zero glyphshow
grestore
gsave
/o {
gsave
newpath
translate
0.8 setlinewidth
1 setlinejoin
0 setlinecap
0 0 m
0 -3.5 l

gsave
0.000 setgray
fill
grestore
stroke
grestore
} bind def
326.284 23.8719 o
grestore
gsave
316.744581 9.278125 translate
0.000000 rotate
0.000000 0.000000 m /three glyphshow
6.362305 0.000000 m /zero glyphshow
12.724609 0.000000 m /zero glyphshow
grestore
gsave
/o {
gsave
newpath
translate
0.8 setlinewidth
1 setlinejoin
0 setlinecap
0 0 m
0 -3.5 l

gsave
0.000 setgray
fill
grestore
stroke
grestore
} bind def
371.881 23.8719 o
grestore
gsave
362.342129 9.278125 translate
0.000000 rotate
0.000000 0.000000 m /three glyphshow
6.362305 0.000000 m /five glyphshow
12.724609 0.000000 m /zero glyphshow
grestore
gsave
/o {
gsave
newpath
translate
0.8 setlinewidth
1 setlinejoin
0 setlinecap
0 0 m
-3.5 0 l

gsave
0.000 setgray
fill
grestore
stroke
grestore
} bind def
36.4656 53.7433 o
grestore
gsave
7.200000 49.946393 translate
0.000000 rotate
0.000000 0.000000 m /one glyphshow
6.362305 0.000000 m /period glyphshow
9.541016 0.000000 m /zero glyphshow
15.903320 0.000000 m /six glyphshow
grestore
gsave
/o {
gsave
newpath
translate
0.8 setlinewidth
1 setlinejoin
0 setlinecap
0 0 m
-3.5 0 l

gsave
0.000 setgray
fill
grestore
stroke
grestore
} bind def
36.4656 84.9829 o
grestore
gsave
7.200000 81.186059 translate
0.000000 rotate
0.000000 0.000000 m /one glyphshow
6.362305 0.000000 m /period glyphshow
9.541016 0.000000 m /zero glyphshow
15.903320 0.000000 m /eight glyphshow
grestore
gsave
/o {
gsave
newpath
translate
0.8 setlinewidth
1 setlinejoin
0 setlinecap
0 0 m
-3.5 0 l

gsave
0.000 setgray
fill
grestore
stroke
grestore
} bind def
36.4656 116.223 o
grestore
gsave
7.200000 112.425726 translate
0.000000 rotate
0.000000 0.000000 m /one glyphshow
6.362305 0.000000 m /period glyphshow
9.541016 0.000000 m /one glyphshow
15.903320 0.000000 m /zero glyphshow
grestore
gsave
/o {
gsave
newpath
translate
0.8 setlinewidth
1 setlinejoin
0 setlinecap
0 0 m
-3.5 0 l

gsave
0.000 setgray
fill
grestore
stroke
grestore
} bind def
36.4656 147.462 o
grestore
gsave
7.200000 143.665392 translate
0.000000 rotate
0.000000 0.000000 m /one glyphshow
6.362305 0.000000 m /period glyphshow
9.541016 0.000000 m /one glyphshow
15.903320 0.000000 m /two glyphshow
grestore
gsave
/o {
gsave
newpath
translate
0.8 setlinewidth
1 setlinejoin
0 setlinecap
0 0 m
-3.5 0 l

gsave
0.000 setgray
fill
grestore
stroke
grestore
} bind def
36.4656 178.702 o
grestore
gsave
7.200000 174.905059 translate
0.000000 rotate
0.000000 0.000000 m /one glyphshow
6.362305 0.000000 m /period glyphshow
9.541016 0.000000 m /one glyphshow
15.903320 0.000000 m /four glyphshow
grestore
gsave
/o {
gsave
newpath
translate
0.8 setlinewidth
1 setlinejoin
0 setlinecap
0 0 m
-3.5 0 l

gsave
0.000 setgray
fill
grestore
stroke
grestore
} bind def
36.4656 209.942 o
grestore
gsave
7.200000 206.144725 translate
0.000000 rotate
0.000000 0.000000 m /one glyphshow
6.362305 0.000000 m /period glyphshow
9.541016 0.000000 m /one glyphshow
15.903320 0.000000 m /six glyphshow
grestore
gsave
/o {
gsave
newpath
translate
0.8 setlinewidth
1 setlinejoin
0 setlinecap
0 0 m
-3.5 0 l

gsave
0.000 setgray
fill
grestore
stroke
grestore
} bind def
36.4656 241.181 o
grestore
gsave
7.200000 237.384392 translate
0.000000 rotate
0.000000 0.000000 m /one glyphshow
6.362305 0.000000 m /period glyphshow
9.541016 0.000000 m /one glyphshow
15.903320 0.000000 m /eight glyphshow
grestore
gsave
/o {
gsave
newpath
translate
0.8 setlinewidth
1 setlinejoin
0 setlinecap
0 0 m
-3.5 0 l

gsave
0.000 setgray
fill
grestore
stroke
grestore
} bind def
36.4656 272.421 o
grestore
gsave
7.200000 268.624058 translate
0.000000 rotate
0.000000 0.000000 m /one glyphshow
6.362305 0.000000 m /period glyphshow
9.541016 0.000000 m /two glyphshow
15.903320 0.000000 m /zero glyphshow
grestore
1.500 setlinewidth
2 setlinecap
0.122 0.467 0.706 setrgbcolor
gsave
357.1 266.1 36.47 23.87 clipbox
52.698352 43.449798 m
53.610303 43.121781 l
54.522254 42.512608 l
55.434205 48.8074 l
56.346156 47.635913 l
57.258107 49.385334 l
58.170058 57.179631 l
59.082009 59.538226 l
59.99396 59.975581 l
60.905911 54.024425 l
61.817862 53.618309 l
62.729813 70.112853 l
63.641764 59.710044 l
64.553715 63.130788 l
65.465666 68.660209 l
66.377617 69.206903 l
67.289568 70.159713 l
68.201519 76.142109 l
69.11347 74.502026 l
70.025421 77.501034 l
70.937372 65.536242 l
71.849323 68.56649 l
72.761274 69.035085 l
73.673225 71.706076 l
74.585176 68.50401 l
75.497127 84.373761 l
76.409078 80.234505 l
77.321028 79.000538 l
78.232979 81.796488 l
79.14493 81.921447 l
80.056881 84.045744 l
80.968832 77.251117 l
81.880783 67.504341 l
82.792734 67.332523 l
84.616636 59.600705 l
85.528587 59.522606 l
86.440538 57.429548 l
87.352489 53.087235 l
88.26444 50.010128 l
89.176391 54.040045 l
90.088342 65.192606 l
91.000293 55.024094 l
91.912244 55.742606 l
92.824195 54.680458 l
93.736146 56.023763 l
94.648097 45.011781 l
95.560048 48.448144 l
96.471999 50.869218 l
97.38395 47.651533 l
98.295901 46.089549 l
99.207852 48.557483 l
100.119803 52.165665 l
101.031754 52.915417 l
101.943705 45.277318 l
102.855656 39.216823 l
103.767607 56.195582 l
104.679558 56.586077 l
105.591509 54.118144 l
106.50346 50.994177 l
107.41541 49.057318 l
108.327361 44.839963 l
109.239312 50.931698 l
110.151263 67.270043 l
111.063214 64.677151 l
111.975165 65.567482 l
112.887116 61.94368 l
113.799067 54.305582 l
114.711018 74.658224 l
115.622969 79.594092 l
116.53492 75.07996 l
118.358822 74.11153 l
119.270773 75.517315 l
120.182724 86.544918 l
122.006626 82.218224 l
122.918577 84.514339 l
123.830528 84.201943 l
124.742479 90.637314 l
125.65443 94.854669 l
126.566381 86.591777 l
127.478332 79.359794 l
128.390283 65.255085 l
129.302234 61.787482 l
130.214185 63.583763 l
131.126136 63.193267 l
132.038087 64.505333 l
132.950038 65.130126 l
133.861989 63.443184 l
134.77394 60.553515 l
135.685891 52.103185 l
136.597842 51.68145 l
138.421743 54.44616 l
139.333694 63.693102 l
140.245645 55.789466 l
141.157596 55.41459 l
142.069547 55.570788 l
142.981498 56.179962 l
143.893449 60.366077 l
144.8054 74.11153 l
145.717351 70.940704 l
146.629302 71.987233 l
147.541253 73.20558 l
148.453204 103.336238 l
149.365155 95.463842 l
150.277106 104.523346 l
151.189057 101.102602 l
152.101008 96.260454 l
153.012959 99.4469 l
153.92491 99.540619 l
154.836861 102.164751 l
155.748812 100.305991 l
156.660763 104.976321 l
157.572714 98.041115 l
158.484665 113.770287 l
159.396616 115.597807 l
160.308567 115.441609 l
161.220518 118.877972 l
162.132469 104.304668 l
163.04442 96.385413 l
163.956371 95.338884 l
164.868322 94.464173 l
165.780273 104.976321 l
166.692224 104.663924 l
167.604175 105.226238 l
168.516126 112.348882 l
169.428076 129.093343 l
170.340027 140.980037 l
171.251978 132.311029 l
172.163929 148.336978 l
173.07588 148.087061 l
173.987831 146.24392 l
174.899782 153.194746 l
175.811733 144.603838 l
176.723684 150.211358 l
177.635635 148.993011 l
178.547586 144.494499 l
179.459537 143.869706 l
181.283439 141.542351 l
182.19539 145.275491 l
183.107341 154.194415 l
184.019292 149.399127 l
184.931243 160.34863 l
185.843194 159.801936 l
186.755145 158.552349 l
187.667096 155.912597 l
188.579047 159.36458 l
189.490998 156.146895 l
190.402949 149.649044 l
191.3149 146.556317 l
192.226851 146.525077 l
193.138802 148.555656 l
194.050753 147.805904 l
194.962704 149.05549 l
195.874655 150.02392 l
196.786606 138.668301 l
197.698557 146.728135 l
198.610508 144.916234 l
199.522459 148.087061 l
200.434409 139.277475 l
201.34636 137.090698 l
202.258311 142.417061 l
203.170262 139.76169 l
204.082213 146.431358 l
204.994164 144.806896 l
205.906115 146.884333 l
206.818066 144.35392 l
207.730017 169.048877 l
208.641968 175.031273 l
209.553919 184.949867 l
210.46587 182.606892 l
211.377821 182.919289 l
212.289772 181.044909 l
213.201723 172.985075 l
214.113674 170.111026 l
215.025625 171.001356 l
215.937576 182.091438 l
216.849527 178.639454 l
217.761478 178.389537 l
218.673429 178.014661 l
219.58538 178.483256 l
220.497331 189.229701 l
221.409282 180.420115 l
222.321233 178.13962 l
223.233184 189.417139 l
224.145135 188.276892 l
225.057086 189.995073 l
225.969037 190.807305 l
226.880988 202.537799 l
227.792939 196.446064 l
228.70489 214.440112 l
229.616841 219.3135 l
230.528791 219.157302 l
231.440742 219.938294 l
232.352693 216.236393 l
233.264644 217.126724 l
234.176595 230.55978 l
235.088546 221.578376 l
236.000497 233.027714 l
236.912448 233.527549 l
237.824399 232.684078 l
238.73635 247.585398 l
239.648301 241.321845 l
240.560252 249.834654 l
241.472203 251.943332 l
242.384154 236.589036 l
243.296105 236.807714 l
244.208056 236.651515 l
245.120007 240.290936 l
246.031958 233.511929 l
246.943909 234.714656 l
247.85586 236.713995 l
248.767811 244.273994 l
249.679762 244.945647 l
250.591713 244.102176 l
252.415615 230.794078 l
253.327566 235.933003 l
254.239517 229.091516 l
255.151468 234.714656 l
256.063419 234.933334 l
256.97537 234.246061 l
257.887321 243.446143 l
258.799272 235.011433 l
259.711223 242.118457 l
260.623174 240.978209 l
261.535124 260.221844 l
262.447075 260.54986 l
263.359026 263.611347 l
264.270977 269.03143 l
265.182928 267.891182 l
266.094879 254.114489 l
267.00683 258.191265 l
267.918781 250.24077 l
268.830732 250.084572 l
269.742683 253.770852 l
271.566585 258.909778 l
272.478536 259.393992 l
273.390487 275.5449 l
274.302438 277.637958 l
275.214389 277.887875 l
276.12634 274.920107 l
277.038291 264.939033 l
277.950242 267.032091 l
278.862193 254.395646 l
279.774144 259.690769 l
280.686095 263.439529 l
281.598046 263.33019 l
282.509997 259.831348 l
283.421948 264.689116 l
284.333899 271.483743 l
285.24585 255.332836 l
286.157801 263.095893 l
287.069752 264.126802 l
287.981703 264.767215 l
290.717556 239.853581 l
291.629507 232.543499 l
292.541457 238.822672 l
293.453408 243.180606 l
294.365359 243.211845 l
295.27731 239.650523 l
296.189261 230.450441 l
297.101212 232.121764 l
298.013163 234.777135 l
298.925114 227.139037 l
299.837065 230.231764 l
300.749016 229.60697 l
301.660967 229.716309 l
302.572918 231.700028 l
303.484869 242.274655 l
304.39682 250.24077 l
305.308771 245.757878 l
307.132673 242.74325 l
308.044624 240.540854 l
308.956575 235.792424 l
309.868526 239.150689 l
310.780477 249.147382 l
311.692428 238.525895 l
312.604379 238.525895 l
313.51633 235.417548 l
314.428281 233.277631 l
315.340232 235.198871 l
316.252183 243.055647 l
317.164134 217.751517 l
318.076085 211.222427 l
318.988036 210.87879 l
319.899987 210.831931 l
320.811938 217.595319 l
321.723889 217.095484 l
322.63584 212.76879 l
323.54779 218.985484 l
324.459741 210.87879 l
325.371692 210.722592 l
326.283643 211.659782 l
327.195594 211.378625 l
328.107545 208.410857 l
329.019496 209.629204 l
329.931447 216.48631 l
330.843398 220.094492 l
331.755349 219.782095 l
332.6673 218.063914 l
333.579251 220.609946 l
334.491202 240.072259 l
335.403153 239.91606 l
336.315104 236.510937 l
337.227055 240.337796 l
338.139006 239.228788 l
339.050957 238.682094 l
339.962908 230.091185 l
340.874859 231.52821 l
341.78681 244.242754 l
342.698761 249.100522 l
343.610712 261.580769 l
344.522663 261.643248 l
345.434614 262.861595 l
346.346565 256.707381 l
347.258516 247.616638 l
348.170467 249.131762 l
349.082418 257.097877 l
349.994369 255.395315 l
350.90632 256.348125 l
351.818271 249.647216 l
352.730222 249.928373 l
353.642172 244.773828 l
354.554123 240.447135 l
355.466074 237.198209 l
356.378025 235.636226 l
357.289976 236.276639 l
358.201927 234.933334 l
359.113878 236.932672 l
360.025829 232.543499 l
360.93778 245.054985 l
361.849731 239.119449 l
362.761682 233.980524 l
363.673633 233.215152 l
364.585584 231.715648 l
365.497535 238.166639 l
366.409486 247.491679 l
367.321437 253.411596 l
368.233388 253.130439 l
369.145339 250.24077 l
370.05729 250.553167 l
370.969241 250.24077 l
371.881192 251.958952 l
372.793143 250.974902 l
373.705094 255.926389 l
374.617045 263.111513 l
375.528996 271.999198 l
376.440947 271.483743 l
377.352898 271.639942 l
377.352898 271.639942 l
stroke
grestore
1.000 0.498 0.055 setrgbcolor
gsave
357.1 266.1 36.47 23.87 clipbox
52.698352 48.409954 m
53.610303 40.257804 l
54.522254 35.967875 l
55.434205 37.313191 l
56.346156 42.718848 l
57.258107 43.911292 l
58.170058 43.503507 l
59.082009 49.697175 l
59.99396 53.708545 l
60.905911 51.329616 l
61.817862 47.605558 l
62.729813 48.647922 l
63.641764 60.720202 l
64.553715 54.577926 l
65.465666 57.099858 l
66.377617 60.057133 l
67.289568 59.841138 l
68.201519 63.833142 l
69.11347 71.01592 l
70.025421 69.164318 l
70.937372 71.049623 l
71.849323 57.216049 l
72.761274 60.370885 l
73.673225 64.371641 l
74.585176 63.652898 l
75.497127 62.022691 l
76.409078 78.252883 l
77.321028 74.913706 l
78.232979 68.410196 l
79.14493 75.43824 l
80.056881 77.579387 l
80.968832 76.551361 l
81.880783 72.690629 l
82.792734 61.900542 l
83.704685 61.324803 l
84.616636 59.088506 l
85.528587 54.390047 l
86.440538 55.378226 l
87.352489 54.526534 l
88.26444 47.718397 l
89.176391 46.811588 l
90.088342 51.356057 l
91.000293 59.276757 l
91.912244 53.123867 l
92.824195 51.991195 l
93.736146 51.789165 l
94.648097 52.826688 l
95.560048 43.215079 l
96.471999 44.203072 l
97.38395 49.262764 l
98.295901 44.513844 l
99.207852 42.415151 l
100.119803 46.000302 l
101.031754 49.129442 l
101.943705 48.493559 l
103.767607 37.783726 l
104.679558 49.162028 l
105.591509 50.915128 l
107.41541 48.426526 l
109.239312 41.82526 l
110.151263 46.484057 l
111.063214 59.787698 l
111.975165 59.655121 l
113.799067 57.115127 l
114.711018 51.671857 l
115.622969 67.086294 l
116.53492 73.039015 l
117.446871 70.551716 l
118.358822 70.200165 l
119.270773 66.480576 l
120.182724 67.278455 l
121.094675 82.22366 l
122.006626 79.428941 l
122.918577 75.872092 l
123.830528 77.869119 l
124.742479 75.416081 l
125.65443 83.414987 l
126.566381 90.024632 l
127.478332 80.429967 l
128.390283 74.681325 l
130.214185 52.910479 l
131.126136 57.017929 l
132.038087 60.221364 l
132.950038 58.101816 l
133.861989 61.373216 l
134.77394 59.762746 l
136.597842 50.193406 l
137.509793 48.877137 l
138.421743 48.811222 l
139.333694 51.573542 l
140.245645 59.277874 l
141.157596 52.488357 l
142.069547 52.45093 l
142.981498 53.551762 l
143.893449 53.235775 l
144.8054 56.455969 l
145.717351 66.69564 l
146.629302 65.801307 l
148.453204 69.388693 l
149.365155 94.634085 l
150.277106 93.162709 l
151.189057 95.766757 l
152.101008 94.459799 l
153.012959 90.541717 l
153.92491 92.979672 l
154.836861 95.841797 l
155.748812 98.187209 l
156.660763 96.504307 l
157.572714 95.982194 l
158.484665 92.771683 l
159.396616 106.31776 l
160.308567 107.833452 l
161.220518 108.808038 l
162.132469 113.801628 l
163.04442 100.061342 l
163.956371 88.70166 l
164.868322 89.02677 l
165.780273 87.676613 l
166.692224 96.211969 l
167.604175 99.835664 l
168.516126 95.677008 l
169.428076 102.759236 l
170.340027 122.000887 l
171.251978 132.813132 l
172.163929 129.435225 l
173.07588 144.453608 l
173.987831 146.003561 l
174.899782 139.987158 l
175.811733 147.90041 l
176.723684 140.407232 l
177.635635 142.870697 l
178.547586 143.85329 l
179.459537 136.899169 l
180.371488 138.351738 l
181.283439 137.011636 l
182.19539 134.273522 l
184.019292 151.688522 l
184.931243 143.62817 l
185.843194 153.417603 l
186.755145 155.28466 l
187.667096 150.36313 l
188.579047 147.299161 l
189.490998 151.119486 l
190.402949 146.909252 l
191.3149 143.498015 l
192.226851 139.545485 l
193.138802 137.905782 l
194.050753 143.577337 l
194.962704 142.453789 l
195.874655 141.699667 l
196.786606 145.897425 l
197.698557 134.721898 l
198.610508 139.766136 l
199.522459 143.163035 l
200.434409 143.338997 l
201.34636 135.342513 l
202.258311 133.608033 l
203.170262 136.522853 l
204.082213 135.286652 l
204.994164 139.875623 l
205.906115 140.409839 l
206.818066 141.908959 l
207.730017 140.462907 l
208.641968 161.430846 l
209.553919 171.810728 l
210.46587 179.2581 l
211.377821 176.843234 l
212.289772 177.210426 l
213.201723 175.383962 l
214.113674 168.619023 l
215.025625 165.434767 l
215.937576 166.95679 l
216.849527 176.90915 l
217.761478 174.551635 l
218.673429 172.614379 l
219.58538 172.825906 l
220.497331 172.233408 l
221.409282 183.842602 l
223.233184 173.160326 l
224.145135 183.260904 l
225.057086 183.370577 l
225.969037 181.654345 l
226.880988 185.461636 l
227.792939 191.794398 l
228.70489 186.809932 l
229.616841 201.040862 l
230.528791 207.11536 l
231.440742 208.876281 l
232.352693 208.292908 l
233.264644 207.989397 l
234.176595 206.596226 l
235.088546 216.177298 l
236.000497 211.126916 l
236.912448 219.151331 l
237.824399 222.558844 l
238.73635 220.503909 l
239.648301 228.36279 l
240.560252 230.187764 l
241.472203 229.947935 l
242.384154 234.996082 l
243.296105 225.726715 l
244.208056 222.347318 l
245.120007 225.528222 l
246.031958 226.472457 l
246.943909 222.116985 l
248.767811 222.746537 l
249.679762 225.73677 l
250.591713 231.702339 l
251.503664 232.185722 l
252.415615 226.968316 l
253.327566 222.877996 l
254.239517 226.189429 l
255.151468 222.684159 l
256.063419 226.834622 l
256.97537 225.1169 l
257.887321 226.980047 l
258.799272 232.459254 l
259.711223 228.716575 l
260.623174 232.28292 l
261.535124 234.159473 l
262.447075 243.934381 l
264.270977 247.144892 l
265.182928 248.670639 l
266.094879 250.959073 l
267.00683 241.613734 l
267.918781 240.853282 l
268.830732 238.350156 l
269.742683 240.30119 l
270.654634 244.186686 l
271.566585 249.007108 l
272.478536 251.294983 l
273.390487 249.88673 l
274.302438 260.252833 l
275.214389 268.374632 l
276.12634 262.938065 l
277.038291 261.088884 l
277.950242 252.846239 l
278.862193 252.348333 l
279.774144 244.869865 l
280.686095 245.809259 l
281.598046 250.603053 l
282.509997 248.175712 l
283.421948 245.336862 l
285.24585 255.470583 l
286.157801 247.847063 l
287.981703 258.033853 l
288.893654 257.251987 l
291.629507 228.687527 l
292.541457 223.879582 l
293.453408 225.194547 l
294.365359 231.616313 l
295.27731 230.511944 l
296.189261 225.18114 l
297.101212 215.35484 l
298.013163 220.707801 l
298.925114 224.228898 l
299.837065 219.603059 l
300.749016 219.680333 l
301.660967 222.053676 l
302.572918 220.640023 l
303.484869 221.64794 l
304.39682 225.909752 l
305.308771 235.097004 l
306.220722 234.003435 l
307.132673 229.939742 l
308.044624 230.784917 l
308.956575 228.927729 l
309.868526 225.026033 l
310.780477 227.192318 l
311.692428 236.531139 l
312.604379 231.036105 l
313.51633 229.495462 l
314.428281 229.823365 l
315.340232 228.772808 l
316.252183 227.958729 l
317.164134 235.676468 l
318.076085 217.000873 l
318.988036 203.323152 l
319.899987 200.804943 l
320.811938 200.249686 l
321.723889 208.197758 l
322.63584 208.328472 l
323.54779 202.331807 l
324.459741 209.122069 l
325.371692 203.939669 l
326.283643 200.09942 l
327.195594 204.447631 l
328.107545 203.52723 l
329.019496 199.470241 l
329.931447 202.339441 l
330.843398 205.742858 l
331.755349 210.12831 l
332.6673 212.537589 l
333.579251 212.220486 l
334.491202 213.206989 l
335.403153 226.029295 l
336.315104 226.921207 l
337.227055 224.03022 l
338.139006 228.640232 l
339.050957 227.145767 l
339.962908 226.716569 l
340.874859 222.778378 l
341.78681 222.552886 l
342.698761 231.663236 l
344.522663 244.859437 l
345.434614 248.477174 l
346.346565 246.199726 l
348.170467 236.679543 l
349.082418 236.994226 l
349.994369 242.337691 l
350.90632 243.561603 l
351.818271 243.254927 l
352.730222 236.951958 l
353.642172 234.57396 l
354.554123 231.156206 l
355.466074 229.134228 l
356.378025 229.717416 l
357.289976 227.457843 l
358.201927 227.072962 l
359.113878 224.462769 l
360.025829 225.382798 l
360.93778 222.670566 l
361.849731 232.610451 l
362.761682 231.662864 l
363.673633 224.473569 l
364.585584 222.778191 l
365.497535 223.107026 l
366.409486 227.507001 l
367.321437 236.716597 l
368.233388 239.585053 l
369.145339 239.161069 l
370.05729 236.996647 l
371.881192 237.320454 l
372.793143 237.929337 l
373.705094 237.925054 l
374.617045 242.049635 l
376.440947 256.871574 l
377.352898 258.110196 l
377.352898 258.110196 l
stroke
grestore
0.800 setlinewidth
0 setlinejoin
[] 0 setdash
0.000 setgray
gsave
36.465625 23.871875 m
36.465625 289.983875 l
stroke
grestore
gsave
393.585625 23.871875 m
393.585625 289.983875 l
stroke
grestore
gsave
36.465625 23.871875 m
393.585625 23.871875 l
stroke
grestore
gsave
36.465625 289.983875 m
393.585625 289.983875 l
stroke
grestore
/DejaVuSans findfont
12.000 scalefont
setfont
gsave
100.025625 295.983875 translate
0.000000 rotate
0.000000 0.000000 m /R glyphshow
8.337891 0.000000 m /M glyphshow
18.691406 0.000000 m /S glyphshow
26.308594 0.000000 m /E glyphshow
33.890625 0.000000 m /space glyphshow
37.705078 0.000000 m /equal glyphshow
47.759766 0.000000 m /space glyphshow
51.574219 0.000000 m /zero glyphshow
59.208984 0.000000 m /period glyphshow
63.023438 0.000000 m /zero glyphshow
70.658203 0.000000 m /zero glyphshow
78.292969 0.000000 m /seven glyphshow
85.927734 0.000000 m /three glyphshow
93.562500 0.000000 m /two glyphshow
101.197266 0.000000 m /space glyphshow
105.011719 0.000000 m /R glyphshow
113.349609 0.000000 m /hyphen glyphshow
117.679688 0.000000 m /s glyphshow
123.931641 0.000000 m /q glyphshow
131.548828 0.000000 m /u glyphshow
139.154297 0.000000 m /a glyphshow
146.507812 0.000000 m /r glyphshow
151.441406 0.000000 m /e glyphshow
158.824219 0.000000 m /d glyphshow
166.441406 0.000000 m /space glyphshow
170.255859 0.000000 m /equal glyphshow
180.310547 0.000000 m /space glyphshow
184.125000 0.000000 m /nine glyphshow
191.759766 0.000000 m /seven glyphshow
199.394531 0.000000 m /period glyphshow
203.208984 0.000000 m /nine glyphshow
210.843750 0.000000 m /zero glyphshow
218.478516 0.000000 m /percent glyphshow
grestore
1.000 setlinewidth
0 setlinecap
0.800 setgray
gsave
413.441625 257.640125 m
492.785375 257.640125 l
494.118708 257.640125 494.785375 258.306792 494.785375 259.640125 c
494.785375 287.983875 l
494.785375 289.317208 494.118708 289.983875 492.785375 289.983875 c
413.441625 289.983875 l
412.108292 289.983875 411.441625 289.317208 411.441625 287.983875 c
411.441625 259.640125 l
411.441625 258.306792 412.108292 257.640125 413.441625 257.640125 c
cl
gsave
1.000 setgray
fill
grestore
stroke
grestore
1.500 setlinewidth
1 setlinejoin
2 setlinecap
[] 0 setdash
0.122 0.467 0.706 setrgbcolor
gsave
415.441625 281.890125 m
435.441625 281.890125 l
stroke
grestore
0.000 setgray
/DejaVuSans findfont
10.000 scalefont
setfont
gsave
443.441625 278.390125 translate
0.000000 rotate
0.000000 0.000000 m /A glyphshow
6.840820 0.000000 m /c glyphshow
12.338867 0.000000 m /t glyphshow
16.259766 0.000000 m /u glyphshow
22.597656 0.000000 m /a glyphshow
28.725586 0.000000 m /l glyphshow
grestore
1.000 0.498 0.055 setrgbcolor
gsave
415.441625 267.21825 m
435.441625 267.21825 l
stroke
grestore
0.000 setgray
gsave
443.441625 263.718250 translate
0.000000 rotate
0.000000 0.000000 m /P glyphshow
6.030273 0.000000 m /r glyphshow
10.141602 0.000000 m /e glyphshow
16.293945 0.000000 m /d glyphshow
22.641602 0.000000 m /i glyphshow
25.419922 0.000000 m /c glyphshow
30.917969 0.000000 m /t glyphshow
34.838867 0.000000 m /e glyphshow
40.991211 0.000000 m /d glyphshow
grestore
/DejaVuSans findfont
12.000 scalefont
setfont
gsave
123.968750 315.418875 translate
0.000000 rotate
0.000000 0.000000 m /P glyphshow
7.236328 0.000000 m /e glyphshow
14.619141 0.000000 m /r glyphshow
19.552734 0.000000 m /c glyphshow
26.150391 0.000000 m /e glyphshow
33.533203 0.000000 m /p glyphshow
41.150391 0.000000 m /t glyphshow
45.855469 0.000000 m /r glyphshow
50.789062 0.000000 m /o glyphshow
58.130859 0.000000 m /n glyphshow
65.736328 0.000000 m /space glyphshow
69.550781 0.000000 m /parenleft glyphshow
74.232422 0.000000 m /three glyphshow
81.867188 0.000000 m /zero glyphshow
89.501953 0.000000 m /comma glyphshow
93.316406 0.000000 m /space glyphshow
97.130859 0.000000 m /two glyphshow
104.765625 0.000000 m /five glyphshow
112.400391 0.000000 m /zero glyphshow
120.035156 0.000000 m /comma glyphshow
123.849609 0.000000 m /space glyphshow
127.664062 0.000000 m /five glyphshow
135.298828 0.000000 m /zero glyphshow
142.933594 0.000000 m /zero glyphshow
150.568359 0.000000 m /comma glyphshow
154.382812 0.000000 m /space glyphshow
158.197266 0.000000 m /one glyphshow
165.832031 0.000000 m /parenright glyphshow
grestore

end
showpage
