%!PS-Adobe-3.0 EPSF-3.0
%%Title: plots/6.eps
%%Creator: matplotlib version 2.2.2, http://matplotlib.org/
%%CreationDate: Thu May 31 19:17:34 2018
%%Orientation: portrait
%%BoundingBox: 55 230 556 561
%%EndComments
%%BeginProlog
/mpldict 8 dict def
mpldict begin
/m { moveto } bind def
/l { lineto } bind def
/r { rlineto } bind def
/c { curveto } bind def
/cl { closepath } bind def
/box {
m
1 index 0 r
0 exch r
neg 0 r
cl
} bind def
/clipbox {
box
clip
newpath
} bind def
%!PS-Adobe-3.0 Resource-Font
%%Title: DejaVu Sans
%%Copyright: Copyright (c) 2003 by Bitstream, Inc. All Rights Reserved. Copyright (c) 2006 by Tavmjong Bah. All Rights Reserved. DejaVu changes are in public domain 
%%Creator: Converted from TrueType to type 3 by PPR
25 dict begin
/_d{bind def}bind def
/_m{moveto}_d
/_l{lineto}_d
/_cl{closepath eofill}_d
/_c{curveto}_d
/_sc{7 -1 roll{setcachedevice}{pop pop pop pop pop pop}ifelse}_d
/_e{exec}_d
/FontName /DejaVuSans def
/PaintType 0 def
/FontMatrix[.001 0 0 .001 0 0]def
/FontBBox[-1021 -463 1793 1232]def
/FontType 3 def
/Encoding [ /space /percent /parenleft /parenright /comma /hyphen /period /zero /one /two /three /four /five /six /eight /nine /equal /A /E /M /P /R /S /a /c /d /e /i /l /n /o /p /q /r /s /t /u ] def
/FontInfo 10 dict dup begin
/FamilyName (DejaVu Sans) def
/FullName (DejaVu Sans) def
/Notice (Copyright (c) 2003 by Bitstream, Inc. All Rights Reserved. Copyright (c) 2006 by Tavmjong Bah. All Rights Reserved. DejaVu changes are in public domain ) def
/Weight (Book) def
/Version (Version 2.35) def
/ItalicAngle 0.0 def
/isFixedPitch false def
/UnderlinePosition -130 def
/UnderlineThickness 90 def
end readonly def
/CharStrings 38 dict dup begin
/.notdef 0 def
/space{318 0 0 0 0 0 _sc
}_d
/percent{{950 0 55 -13 895 742 _sc
727 321 _m
699 321 676 309 660 285 _c
644 261 636 227 636 184 _c
636 142 644 108 660 84 _c
676 60 699 48 727 48 _c
755 48 777 60 793 84 _c
809 108 817 142 817 184 _c
817 226 809 260 793 284 _c
777 308 755 321 727 321 _c
727 383 _m
778 383 819 365 849 329 _c
879 293 895 244 895 184 _c
895 123 879 75 849 40 _c
819 4 778 -13 727 -13 _c
}_e{675 -13 633 4 603 40 _c
573 75 558 123 558 184 _c
558 245 573 293 603 329 _c
633 365 675 383 727 383 _c
223 680 _m
195 680 173 667 157 643 _c
141 619 133 586 133 544 _c
133 500 141 467 157 443 _c
173 419 195 407 223 407 _c
251 407 274 419 290 443 _c
306 467 314 500 314 544 _c
314 586 305 619 289 643 _c
273 667 251 680 223 680 _c
664 742 _m
742 742 _l
286 -13 _l
}_e{208 -13 _l
664 742 _l
223 742 _m
274 742 315 724 346 688 _c
376 652 392 604 392 544 _c
392 482 376 434 346 398 _c
316 362 275 345 223 345 _c
171 345 130 362 100 398 _c
70 434 55 482 55 544 _c
55 604 70 652 100 688 _c
130 724 171 742 223 742 _c
_cl}_e}_d
/parenleft{390 0 86 -131 310 759 _sc
310 759 _m
266 683 234 609 213 536 _c
191 463 181 389 181 314 _c
181 238 191 164 213 91 _c
234 17 266 -56 310 -131 _c
232 -131 _l
183 -54 146 20 122 94 _c
98 168 86 241 86 314 _c
86 386 98 459 122 533 _c
146 607 182 682 232 759 _c
310 759 _l
_cl}_d
/parenright{390 0 80 -131 304 759 _sc
80 759 _m
158 759 _l
206 682 243 607 267 533 _c
291 459 304 386 304 314 _c
304 241 291 168 267 94 _c
243 20 206 -54 158 -131 _c
80 -131 _l
123 -56 155 17 177 91 _c
198 164 209 238 209 314 _c
209 389 198 463 177 536 _c
155 609 123 683 80 759 _c
_cl}_d
/comma{318 0 77 -115 220 124 _sc
117 124 _m
220 124 _l
220 40 _l
140 -115 _l
77 -115 _l
117 40 _l
117 124 _l
_cl}_d
/hyphen{361 0 49 234 312 314 _sc
49 314 _m
312 314 _l
312 234 _l
49 234 _l
49 314 _l
_cl}_d
/period{318 0 107 0 210 124 _sc
107 124 _m
210 124 _l
210 0 _l
107 0 _l
107 124 _l
_cl}_d
/zero{636 0 66 -13 570 742 _sc
318 664 _m
267 664 229 639 203 589 _c
177 539 165 464 165 364 _c
165 264 177 189 203 139 _c
229 89 267 64 318 64 _c
369 64 407 89 433 139 _c
458 189 471 264 471 364 _c
471 464 458 539 433 589 _c
407 639 369 664 318 664 _c
318 742 _m
399 742 461 709 505 645 _c
548 580 570 486 570 364 _c
570 241 548 147 505 83 _c
461 19 399 -13 318 -13 _c
236 -13 173 19 130 83 _c
87 147 66 241 66 364 _c
66 486 87 580 130 645 _c
173 709 236 742 318 742 _c
_cl}_d
/one{636 0 110 0 544 729 _sc
124 83 _m
285 83 _l
285 639 _l
110 604 _l
110 694 _l
284 729 _l
383 729 _l
383 83 _l
544 83 _l
544 0 _l
124 0 _l
124 83 _l
_cl}_d
/two{{636 0 73 0 536 742 _sc
192 83 _m
536 83 _l
536 0 _l
73 0 _l
73 83 _l
110 121 161 173 226 239 _c
290 304 331 346 348 365 _c
380 400 402 430 414 455 _c
426 479 433 504 433 528 _c
433 566 419 598 392 622 _c
365 646 330 659 286 659 _c
255 659 222 653 188 643 _c
154 632 117 616 78 594 _c
78 694 _l
118 710 155 722 189 730 _c
223 738 255 742 284 742 _c
}_e{359 742 419 723 464 685 _c
509 647 532 597 532 534 _c
532 504 526 475 515 449 _c
504 422 484 390 454 354 _c
446 344 420 317 376 272 _c
332 227 271 164 192 83 _c
_cl}_e}_d
/three{{636 0 76 -13 556 742 _sc
406 393 _m
453 383 490 362 516 330 _c
542 298 556 258 556 212 _c
556 140 531 84 482 45 _c
432 6 362 -13 271 -13 _c
240 -13 208 -10 176 -4 _c
144 1 110 10 76 22 _c
76 117 _l
103 101 133 89 166 81 _c
198 73 232 69 268 69 _c
330 69 377 81 409 105 _c
441 129 458 165 458 212 _c
458 254 443 288 413 312 _c
383 336 341 349 287 349 _c
}_e{202 349 _l
202 430 _l
291 430 _l
339 430 376 439 402 459 _c
428 478 441 506 441 543 _c
441 580 427 609 401 629 _c
374 649 336 659 287 659 _c
260 659 231 656 200 650 _c
169 644 135 635 98 623 _c
98 711 _l
135 721 170 729 203 734 _c
235 739 266 742 296 742 _c
370 742 429 725 473 691 _c
517 657 539 611 539 553 _c
539 513 527 479 504 451 _c
481 423 448 403 406 393 _c
_cl}_e}_d
/four{636 0 49 0 580 729 _sc
378 643 _m
129 254 _l
378 254 _l
378 643 _l
352 729 _m
476 729 _l
476 254 _l
580 254 _l
580 172 _l
476 172 _l
476 0 _l
378 0 _l
378 172 _l
49 172 _l
49 267 _l
352 729 _l
_cl}_d
/five{{636 0 77 -13 549 729 _sc
108 729 _m
495 729 _l
495 646 _l
198 646 _l
198 467 _l
212 472 227 476 241 478 _c
255 480 270 482 284 482 _c
365 482 429 459 477 415 _c
525 370 549 310 549 234 _c
549 155 524 94 475 51 _c
426 8 357 -13 269 -13 _c
238 -13 207 -10 175 -6 _c
143 -1 111 6 77 17 _c
77 116 _l
106 100 136 88 168 80 _c
199 72 232 69 267 69 _c
}_e{323 69 368 83 401 113 _c
433 143 450 183 450 234 _c
450 284 433 324 401 354 _c
368 384 323 399 267 399 _c
241 399 214 396 188 390 _c
162 384 135 375 108 363 _c
108 729 _l
_cl}_e}_d
/six{{636 0 70 -13 573 742 _sc
330 404 _m
286 404 251 388 225 358 _c
199 328 186 286 186 234 _c
186 181 199 139 225 109 _c
251 79 286 64 330 64 _c
374 64 409 79 435 109 _c
461 139 474 181 474 234 _c
474 286 461 328 435 358 _c
409 388 374 404 330 404 _c
526 713 _m
526 623 _l
501 635 476 644 451 650 _c
425 656 400 659 376 659 _c
310 659 260 637 226 593 _c
}_e{192 549 172 482 168 394 _c
187 422 211 444 240 459 _c
269 474 301 482 336 482 _c
409 482 467 459 509 415 _c
551 371 573 310 573 234 _c
573 159 550 99 506 54 _c
462 9 403 -13 330 -13 _c
246 -13 181 19 137 83 _c
92 147 70 241 70 364 _c
70 479 97 571 152 639 _c
206 707 280 742 372 742 _c
396 742 421 739 447 735 _c
472 730 498 723 526 713 _c
_cl}_e}_d
/eight{{636 0 68 -13 568 742 _sc
318 346 _m
271 346 234 333 207 308 _c
180 283 167 249 167 205 _c
167 161 180 126 207 101 _c
234 76 271 64 318 64 _c
364 64 401 76 428 102 _c
455 127 469 161 469 205 _c
469 249 455 283 429 308 _c
402 333 365 346 318 346 _c
219 388 _m
177 398 144 418 120 447 _c
96 476 85 511 85 553 _c
85 611 105 657 147 691 _c
188 725 245 742 318 742 _c
}_e{390 742 447 725 489 691 _c
530 657 551 611 551 553 _c
551 511 539 476 515 447 _c
491 418 459 398 417 388 _c
464 377 501 355 528 323 _c
554 291 568 251 568 205 _c
568 134 546 80 503 43 _c
459 5 398 -13 318 -13 _c
237 -13 175 5 132 43 _c
89 80 68 134 68 205 _c
68 251 81 291 108 323 _c
134 355 171 377 219 388 _c
183 544 _m
183 506 194 476 218 455 _c
}_e{242 434 275 424 318 424 _c
360 424 393 434 417 455 _c
441 476 453 506 453 544 _c
453 582 441 611 417 632 _c
393 653 360 664 318 664 _c
275 664 242 653 218 632 _c
194 611 183 582 183 544 _c
_cl}_e}_d
/nine{{636 0 63 -13 566 742 _sc
110 15 _m
110 105 _l
134 93 159 84 185 78 _c
210 72 235 69 260 69 _c
324 69 374 90 408 134 _c
442 178 462 244 468 334 _c
448 306 424 284 396 269 _c
367 254 335 247 300 247 _c
226 247 168 269 126 313 _c
84 357 63 417 63 494 _c
63 568 85 628 129 674 _c
173 719 232 742 306 742 _c
390 742 455 709 499 645 _c
543 580 566 486 566 364 _c
}_e{566 248 538 157 484 89 _c
429 21 356 -13 264 -13 _c
239 -13 214 -10 189 -6 _c
163 -2 137 5 110 15 _c
306 324 _m
350 324 385 339 411 369 _c
437 399 450 441 450 494 _c
450 546 437 588 411 618 _c
385 648 350 664 306 664 _c
262 664 227 648 201 618 _c
175 588 162 546 162 494 _c
162 441 175 399 201 369 _c
227 339 262 324 306 324 _c
_cl}_e}_d
/equal{838 0 106 172 732 454 _sc
106 454 _m
732 454 _l
732 372 _l
106 372 _l
106 454 _l
106 255 _m
732 255 _l
732 172 _l
106 172 _l
106 255 _l
_cl}_d
/A{684 0 8 0 676 729 _sc
342 632 _m
208 269 _l
476 269 _l
342 632 _l
286 729 _m
398 729 _l
676 0 _l
573 0 _l
507 187 _l
178 187 _l
112 0 _l
8 0 _l
286 729 _l
_cl}_d
/E{632 0 98 0 568 729 _sc
98 729 _m
559 729 _l
559 646 _l
197 646 _l
197 430 _l
544 430 _l
544 347 _l
197 347 _l
197 83 _l
568 83 _l
568 0 _l
98 0 _l
98 729 _l
_cl}_d
/M{863 0 98 0 765 729 _sc
98 729 _m
245 729 _l
431 233 _l
618 729 _l
765 729 _l
765 0 _l
669 0 _l
669 640 _l
481 140 _l
382 140 _l
194 640 _l
194 0 _l
98 0 _l
98 729 _l
_cl}_d
/P{603 0 98 0 569 729 _sc
197 648 _m
197 374 _l
321 374 _l
367 374 402 385 427 409 _c
452 433 465 467 465 511 _c
465 555 452 588 427 612 _c
402 636 367 648 321 648 _c
197 648 _l
98 729 _m
321 729 _l
402 729 464 710 506 673 _c
548 636 569 582 569 511 _c
569 439 548 384 506 348 _c
464 311 402 293 321 293 _c
197 293 _l
197 0 _l
98 0 _l
98 729 _l
_cl}_d
/R{{695 0 98 0 666 729 _sc
444 342 _m
465 334 486 319 506 296 _c
526 272 546 240 566 199 _c
666 0 _l
560 0 _l
467 187 _l
443 235 419 268 397 284 _c
374 300 343 308 304 308 _c
197 308 _l
197 0 _l
98 0 _l
98 729 _l
321 729 _l
404 729 466 711 507 677 _c
548 642 569 589 569 519 _c
569 473 558 434 537 404 _c
515 374 484 353 444 342 _c
197 648 _m
197 389 _l
321 389 _l
}_e{368 389 404 400 428 422 _c
452 444 465 476 465 519 _c
465 561 452 593 428 615 _c
404 637 368 648 321 648 _c
197 648 _l
_cl}_e}_d
/S{{635 0 66 -13 579 742 _sc
535 705 _m
535 609 _l
497 627 462 640 429 649 _c
395 657 363 662 333 662 _c
279 662 237 651 208 631 _c
179 610 165 580 165 542 _c
165 510 174 485 194 469 _c
213 452 250 439 304 429 _c
364 417 _l
437 403 491 378 526 343 _c
561 307 579 260 579 201 _c
579 130 555 77 508 41 _c
460 5 391 -13 300 -13 _c
265 -13 228 -9 189 -2 _c
}_e{150 5 110 16 69 32 _c
69 134 _l
109 111 148 94 186 83 _c
224 71 262 66 300 66 _c
356 66 399 77 430 99 _c
460 121 476 152 476 194 _c
476 230 465 258 443 278 _c
421 298 385 313 335 323 _c
275 335 _l
201 349 148 372 115 404 _c
82 435 66 478 66 534 _c
66 598 88 649 134 686 _c
179 723 242 742 322 742 _c
356 742 390 739 426 733 _c
461 727 497 717 535 705 _c
}_e{_cl}_e}_d
/a{{613 0 60 -13 522 560 _sc
343 275 _m
270 275 220 266 192 250 _c
164 233 150 205 150 165 _c
150 133 160 107 181 89 _c
202 70 231 61 267 61 _c
317 61 357 78 387 114 _c
417 149 432 196 432 255 _c
432 275 _l
343 275 _l
522 312 _m
522 0 _l
432 0 _l
432 83 _l
411 49 385 25 355 10 _c
325 -5 287 -13 243 -13 _c
187 -13 142 2 109 33 _c
76 64 60 106 60 159 _c
}_e{60 220 80 266 122 298 _c
163 329 224 345 306 345 _c
432 345 _l
432 354 _l
432 395 418 427 391 450 _c
364 472 326 484 277 484 _c
245 484 215 480 185 472 _c
155 464 127 453 100 439 _c
100 522 _l
132 534 164 544 195 550 _c
226 556 256 560 286 560 _c
365 560 424 539 463 498 _c
502 457 522 395 522 312 _c
_cl}_e}_d
/c{{550 0 55 -13 488 560 _sc
488 526 _m
488 442 _l
462 456 437 466 411 473 _c
385 480 360 484 334 484 _c
276 484 230 465 198 428 _c
166 391 150 339 150 273 _c
150 206 166 154 198 117 _c
230 80 276 62 334 62 _c
360 62 385 65 411 72 _c
437 79 462 90 488 104 _c
488 21 _l
462 9 436 0 410 -5 _c
383 -10 354 -13 324 -13 _c
242 -13 176 12 128 64 _c
}_e{79 115 55 185 55 273 _c
55 362 79 432 128 483 _c
177 534 244 560 330 560 _c
358 560 385 557 411 551 _c
437 545 463 537 488 526 _c
_cl}_e}_d
/d{{635 0 55 -13 544 760 _sc
454 464 _m
454 760 _l
544 760 _l
544 0 _l
454 0 _l
454 82 _l
435 49 411 25 382 10 _c
353 -5 319 -13 279 -13 _c
213 -13 159 13 117 65 _c
75 117 55 187 55 273 _c
55 359 75 428 117 481 _c
159 533 213 560 279 560 _c
319 560 353 552 382 536 _c
411 520 435 496 454 464 _c
148 273 _m
148 207 161 155 188 117 _c
215 79 253 61 301 61 _c
}_e{348 61 385 79 413 117 _c
440 155 454 207 454 273 _c
454 339 440 390 413 428 _c
385 466 348 485 301 485 _c
253 485 215 466 188 428 _c
161 390 148 339 148 273 _c
_cl}_e}_d
/e{{615 0 55 -13 562 560 _sc
562 296 _m
562 252 _l
149 252 _l
153 190 171 142 205 110 _c
238 78 284 62 344 62 _c
378 62 412 66 444 74 _c
476 82 509 95 541 113 _c
541 28 _l
509 14 476 3 442 -3 _c
408 -9 373 -13 339 -13 _c
251 -13 182 12 131 62 _c
80 112 55 181 55 268 _c
55 357 79 428 127 481 _c
175 533 241 560 323 560 _c
397 560 455 536 498 489 _c
}_e{540 441 562 377 562 296 _c
472 322 _m
471 371 457 410 431 440 _c
404 469 368 484 324 484 _c
274 484 234 469 204 441 _c
174 413 156 373 152 322 _c
472 322 _l
_cl}_e}_d
/i{278 0 94 0 184 760 _sc
94 547 _m
184 547 _l
184 0 _l
94 0 _l
94 547 _l
94 760 _m
184 760 _l
184 646 _l
94 646 _l
94 760 _l
_cl}_d
/l{278 0 94 0 184 760 _sc
94 760 _m
184 760 _l
184 0 _l
94 0 _l
94 760 _l
_cl}_d
/n{634 0 91 0 549 560 _sc
549 330 _m
549 0 _l
459 0 _l
459 327 _l
459 379 448 417 428 443 _c
408 469 378 482 338 482 _c
289 482 251 466 223 435 _c
195 404 181 362 181 309 _c
181 0 _l
91 0 _l
91 547 _l
181 547 _l
181 462 _l
202 494 227 519 257 535 _c
286 551 320 560 358 560 _c
420 560 468 540 500 501 _c
532 462 549 405 549 330 _c
_cl}_d
/o{612 0 55 -13 557 560 _sc
306 484 _m
258 484 220 465 192 427 _c
164 389 150 338 150 273 _c
150 207 163 156 191 118 _c
219 80 257 62 306 62 _c
354 62 392 80 420 118 _c
448 156 462 207 462 273 _c
462 337 448 389 420 427 _c
392 465 354 484 306 484 _c
306 560 _m
384 560 445 534 490 484 _c
534 433 557 363 557 273 _c
557 183 534 113 490 63 _c
445 12 384 -13 306 -13 _c
227 -13 165 12 121 63 _c
77 113 55 183 55 273 _c
55 363 77 433 121 484 _c
165 534 227 560 306 560 _c
_cl}_d
/p{{635 0 91 -207 580 560 _sc
181 82 _m
181 -207 _l
91 -207 _l
91 547 _l
181 547 _l
181 464 _l
199 496 223 520 252 536 _c
281 552 316 560 356 560 _c
422 560 476 533 518 481 _c
559 428 580 359 580 273 _c
580 187 559 117 518 65 _c
476 13 422 -13 356 -13 _c
316 -13 281 -5 252 10 _c
223 25 199 49 181 82 _c
487 273 _m
487 339 473 390 446 428 _c
418 466 381 485 334 485 _c
}_e{286 485 249 466 222 428 _c
194 390 181 339 181 273 _c
181 207 194 155 222 117 _c
249 79 286 61 334 61 _c
381 61 418 79 446 117 _c
473 155 487 207 487 273 _c
_cl}_e}_d
/q{{635 0 55 -207 544 560 _sc
148 273 _m
148 207 161 155 188 117 _c
215 79 253 61 301 61 _c
348 61 385 79 413 117 _c
440 155 454 207 454 273 _c
454 339 440 390 413 428 _c
385 466 348 485 301 485 _c
253 485 215 466 188 428 _c
161 390 148 339 148 273 _c
454 82 _m
435 49 411 25 382 10 _c
353 -5 319 -13 279 -13 _c
213 -13 159 13 117 65 _c
75 117 55 187 55 273 _c
}_e{55 359 75 428 117 481 _c
159 533 213 560 279 560 _c
319 560 353 552 382 536 _c
411 520 435 496 454 464 _c
454 547 _l
544 547 _l
544 -207 _l
454 -207 _l
454 82 _l
_cl}_e}_d
/r{411 0 91 0 411 560 _sc
411 463 _m
401 469 390 473 378 476 _c
366 478 353 480 339 480 _c
288 480 249 463 222 430 _c
194 397 181 350 181 288 _c
181 0 _l
91 0 _l
91 547 _l
181 547 _l
181 462 _l
199 495 224 520 254 536 _c
284 552 321 560 365 560 _c
371 560 378 559 386 559 _c
393 558 401 557 411 555 _c
411 463 _l
_cl}_d
/s{{521 0 54 -13 472 560 _sc
443 531 _m
443 446 _l
417 458 391 468 364 475 _c
336 481 308 485 279 485 _c
234 485 200 478 178 464 _c
156 450 145 430 145 403 _c
145 382 153 366 169 354 _c
185 342 217 330 265 320 _c
296 313 _l
360 299 405 279 432 255 _c
458 230 472 195 472 151 _c
472 100 452 60 412 31 _c
372 1 316 -13 246 -13 _c
216 -13 186 -10 154 -5 _c
}_e{122 0 89 8 54 20 _c
54 113 _l
87 95 120 82 152 74 _c
184 65 216 61 248 61 _c
290 61 323 68 346 82 _c
368 96 380 117 380 144 _c
380 168 371 187 355 200 _c
339 213 303 226 247 238 _c
216 245 _l
160 257 119 275 95 299 _c
70 323 58 356 58 399 _c
58 450 76 490 112 518 _c
148 546 200 560 268 560 _c
301 560 332 557 362 552 _c
391 547 418 540 443 531 _c
}_e{_cl}_e}_d
/t{392 0 27 0 368 702 _sc
183 702 _m
183 547 _l
368 547 _l
368 477 _l
183 477 _l
183 180 _l
183 135 189 106 201 94 _c
213 81 238 75 276 75 _c
368 75 _l
368 0 _l
276 0 _l
206 0 158 13 132 39 _c
106 65 93 112 93 180 _c
93 477 _l
27 477 _l
27 547 _l
93 547 _l
93 702 _l
183 702 _l
_cl}_d
/u{634 0 85 -13 543 560 _sc
85 216 _m
85 547 _l
175 547 _l
175 219 _l
175 167 185 129 205 103 _c
225 77 255 64 296 64 _c
344 64 383 79 411 110 _c
439 141 453 183 453 237 _c
453 547 _l
543 547 _l
543 0 _l
453 0 _l
453 84 _l
431 50 405 26 377 10 _c
348 -5 315 -13 277 -13 _c
214 -13 166 6 134 45 _c
101 83 85 140 85 216 _c
311 560 _m
311 560 _l
_cl}_d
end readonly def

/BuildGlyph
 {exch begin
 CharStrings exch
 2 copy known not{pop /.notdef}if
 true 3 1 roll get exec
 end}_d

/BuildChar {
 1 index /Encoding get exch get
 1 index /BuildGlyph get exec
}_d

FontName currentdict end definefont pop
end
%%EndProlog
mpldict begin
55.007 230.128 translate
501.985 331.744 0 0 clipbox
gsave
0 0 m
501.985375 0 l
501.985375 331.743875 l
0 331.743875 l
cl
1.000 setgray
fill
grestore
gsave
36.465625 23.871875 m
393.585625 23.871875 l
393.585625 289.983875 l
36.465625 289.983875 l
cl
1.000 setgray
fill
grestore
0.800 setlinewidth
1 setlinejoin
0 setlinecap
[] 0 setdash
0.000 setgray
gsave
/o {
gsave
newpath
translate
0.8 setlinewidth
1 setlinejoin
0 setlinecap
0 0 m
0 -3.5 l

gsave
0.000 setgray
fill
grestore
stroke
grestore
} bind def
52.6984 23.8719 o
grestore
/DejaVuSans findfont
10.000 scalefont
setfont
gsave
49.518665 9.278125 translate
0.000000 rotate
0.000000 0.000000 m /zero glyphshow
grestore
gsave
/o {
gsave
newpath
translate
0.8 setlinewidth
1 setlinejoin
0 setlinecap
0 0 m
0 -3.5 l

gsave
0.000 setgray
fill
grestore
stroke
grestore
} bind def
98.2959 23.8719 o
grestore
gsave
91.936526 9.278125 translate
0.000000 rotate
0.000000 0.000000 m /five glyphshow
6.362305 0.000000 m /zero glyphshow
grestore
gsave
/o {
gsave
newpath
translate
0.8 setlinewidth
1 setlinejoin
0 setlinecap
0 0 m
0 -3.5 l

gsave
0.000 setgray
fill
grestore
stroke
grestore
} bind def
143.893 23.8719 o
grestore
gsave
134.354387 9.278125 translate
0.000000 rotate
0.000000 0.000000 m /one glyphshow
6.362305 0.000000 m /zero glyphshow
12.724609 0.000000 m /zero glyphshow
grestore
gsave
/o {
gsave
newpath
translate
0.8 setlinewidth
1 setlinejoin
0 setlinecap
0 0 m
0 -3.5 l

gsave
0.000 setgray
fill
grestore
stroke
grestore
} bind def
189.491 23.8719 o
grestore
gsave
179.951935 9.278125 translate
0.000000 rotate
0.000000 0.000000 m /one glyphshow
6.362305 0.000000 m /five glyphshow
12.724609 0.000000 m /zero glyphshow
grestore
gsave
/o {
gsave
newpath
translate
0.8 setlinewidth
1 setlinejoin
0 setlinecap
0 0 m
0 -3.5 l

gsave
0.000 setgray
fill
grestore
stroke
grestore
} bind def
235.089 23.8719 o
grestore
gsave
225.549484 9.278125 translate
0.000000 rotate
0.000000 0.000000 m /two glyphshow
6.362305 0.000000 m /zero glyphshow
12.724609 0.000000 m /zero glyphshow
grestore
gsave
/o {
gsave
newpath
translate
0.8 setlinewidth
1 setlinejoin
0 setlinecap
0 0 m
0 -3.5 l

gsave
0.000 setgray
fill
grestore
stroke
grestore
} bind def
280.686 23.8719 o
grestore
gsave
271.147032 9.278125 translate
0.000000 rotate
0.000000 0.000000 m /two glyphshow
6.362305 0.000000 m /five glyphshow
12.724609 0.000000 m /zero glyphshow
grestore
gsave
/o {
gsave
newpath
translate
0.8 setlinewidth
1 setlinejoin
0 setlinecap
0 0 m
0 -3.5 l

gsave
0.000 setgray
fill
grestore
stroke
grestore
} bind def
326.284 23.8719 o
grestore
gsave
316.744581 9.278125 translate
0.000000 rotate
0.000000 0.000000 m /three glyphshow
6.362305 0.000000 m /zero glyphshow
12.724609 0.000000 m /zero glyphshow
grestore
gsave
/o {
gsave
newpath
translate
0.8 setlinewidth
1 setlinejoin
0 setlinecap
0 0 m
0 -3.5 l

gsave
0.000 setgray
fill
grestore
stroke
grestore
} bind def
371.881 23.8719 o
grestore
gsave
362.342129 9.278125 translate
0.000000 rotate
0.000000 0.000000 m /three glyphshow
6.362305 0.000000 m /five glyphshow
12.724609 0.000000 m /zero glyphshow
grestore
gsave
/o {
gsave
newpath
translate
0.8 setlinewidth
1 setlinejoin
0 setlinecap
0 0 m
-3.5 0 l

gsave
0.000 setgray
fill
grestore
stroke
grestore
} bind def
36.4656 50.6921 o
grestore
gsave
7.200000 46.895188 translate
0.000000 rotate
0.000000 0.000000 m /one glyphshow
6.362305 0.000000 m /period glyphshow
9.541016 0.000000 m /zero glyphshow
15.903320 0.000000 m /six glyphshow
grestore
gsave
/o {
gsave
newpath
translate
0.8 setlinewidth
1 setlinejoin
0 setlinecap
0 0 m
-3.5 0 l

gsave
0.000 setgray
fill
grestore
stroke
grestore
} bind def
36.4656 82.357 o
grestore
gsave
7.200000 78.560110 translate
0.000000 rotate
0.000000 0.000000 m /one glyphshow
6.362305 0.000000 m /period glyphshow
9.541016 0.000000 m /zero glyphshow
15.903320 0.000000 m /eight glyphshow
grestore
gsave
/o {
gsave
newpath
translate
0.8 setlinewidth
1 setlinejoin
0 setlinecap
0 0 m
-3.5 0 l

gsave
0.000 setgray
fill
grestore
stroke
grestore
} bind def
36.4656 114.022 o
grestore
gsave
7.200000 110.225031 translate
0.000000 rotate
0.000000 0.000000 m /one glyphshow
6.362305 0.000000 m /period glyphshow
9.541016 0.000000 m /one glyphshow
15.903320 0.000000 m /zero glyphshow
grestore
gsave
/o {
gsave
newpath
translate
0.8 setlinewidth
1 setlinejoin
0 setlinecap
0 0 m
-3.5 0 l

gsave
0.000 setgray
fill
grestore
stroke
grestore
} bind def
36.4656 145.687 o
grestore
gsave
7.200000 141.889953 translate
0.000000 rotate
0.000000 0.000000 m /one glyphshow
6.362305 0.000000 m /period glyphshow
9.541016 0.000000 m /one glyphshow
15.903320 0.000000 m /two glyphshow
grestore
gsave
/o {
gsave
newpath
translate
0.8 setlinewidth
1 setlinejoin
0 setlinecap
0 0 m
-3.5 0 l

gsave
0.000 setgray
fill
grestore
stroke
grestore
} bind def
36.4656 177.352 o
grestore
gsave
7.200000 173.554874 translate
0.000000 rotate
0.000000 0.000000 m /one glyphshow
6.362305 0.000000 m /period glyphshow
9.541016 0.000000 m /one glyphshow
15.903320 0.000000 m /four glyphshow
grestore
gsave
/o {
gsave
newpath
translate
0.8 setlinewidth
1 setlinejoin
0 setlinecap
0 0 m
-3.5 0 l

gsave
0.000 setgray
fill
grestore
stroke
grestore
} bind def
36.4656 209.017 o
grestore
gsave
7.200000 205.219796 translate
0.000000 rotate
0.000000 0.000000 m /one glyphshow
6.362305 0.000000 m /period glyphshow
9.541016 0.000000 m /one glyphshow
15.903320 0.000000 m /six glyphshow
grestore
gsave
/o {
gsave
newpath
translate
0.8 setlinewidth
1 setlinejoin
0 setlinecap
0 0 m
-3.5 0 l

gsave
0.000 setgray
fill
grestore
stroke
grestore
} bind def
36.4656 240.682 o
grestore
gsave
7.200000 236.884717 translate
0.000000 rotate
0.000000 0.000000 m /one glyphshow
6.362305 0.000000 m /period glyphshow
9.541016 0.000000 m /one glyphshow
15.903320 0.000000 m /eight glyphshow
grestore
gsave
/o {
gsave
newpath
translate
0.8 setlinewidth
1 setlinejoin
0 setlinecap
0 0 m
-3.5 0 l

gsave
0.000 setgray
fill
grestore
stroke
grestore
} bind def
36.4656 272.347 o
grestore
gsave
7.200000 268.549639 translate
0.000000 rotate
0.000000 0.000000 m /one glyphshow
6.362305 0.000000 m /period glyphshow
9.541016 0.000000 m /two glyphshow
15.903320 0.000000 m /zero glyphshow
grestore
1.500 setlinewidth
2 setlinecap
0.122 0.467 0.706 setrgbcolor
gsave
357.1 266.1 36.47 23.87 clipbox
52.698352 40.258472 m
53.610303 39.92599 l
54.522254 39.308524 l
55.434205 45.689006 l
56.346156 44.501571 l
57.258107 46.274807 l
58.170058 54.175205 l
59.082009 56.565906 l
59.99396 57.009215 l
60.905911 50.977048 l
61.817862 50.565404 l
62.729813 67.284482 l
63.641764 56.740063 l
64.553715 60.207372 l
65.465666 65.812063 l
66.377617 66.3662 l
67.289568 67.33198 l
68.201519 73.395812 l
69.11347 71.733404 l
70.025421 74.773236 l
70.937372 62.645571 l
71.849323 65.717069 l
72.761274 66.192043 l
73.673225 68.899393 l
74.585176 65.653739 l
75.497127 81.739519 l
76.409078 77.543917 l
77.321028 76.293152 l
78.232979 79.127163 l
79.14493 79.253823 l
80.056881 81.407037 l
80.968832 74.519917 l
81.880783 64.640461 l
82.792734 64.466304 l
84.616636 56.629236 l
85.528587 56.550074 l
86.440538 54.428524 l
87.352489 50.0271 l
88.26444 46.908105 l
89.176391 50.99288 l
90.088342 62.297257 l
91.000293 51.990325 l
91.912244 52.718618 l
92.824195 51.642011 l
93.736146 53.003603 l
94.648097 41.841718 l
95.560048 45.324859 l
96.471999 47.778891 l
97.38395 44.517404 l
98.295901 42.934158 l
99.207852 45.435687 l
100.119803 49.092985 l
101.031754 49.852943 l
101.943705 42.11087 l
102.855656 35.967875 l
103.767607 53.17776 l
104.679558 53.573571 l
105.591509 51.072043 l
106.50346 47.90555 l
107.41541 45.942325 l
108.327361 41.667561 l
109.239312 47.842221 l
110.151263 64.402974 l
111.063214 61.774786 l
111.975165 62.677236 l
112.887116 59.004105 l
113.799067 51.262032 l
114.711018 71.891728 l
115.622969 76.894786 l
116.53492 72.319205 l
118.358822 71.337592 l
119.270773 72.762514 l
120.182724 83.940231 l
122.006626 79.554639 l
122.918577 81.882011 l
123.830528 81.565362 l
124.742479 88.088336 l
125.65443 92.3631 l
126.566381 83.987728 l
127.478332 76.657299 l
128.390283 62.360587 l
129.302234 58.845781 l
130.214185 60.666514 l
131.126136 60.270702 l
132.038087 61.600629 l
132.950038 62.233927 l
133.861989 60.524022 l
134.77394 57.595016 l
135.685891 49.029655 l
136.597842 48.602179 l
138.421743 51.404524 l
139.333694 60.777341 l
140.245645 52.766116 l
141.157596 52.386137 l
142.069547 52.544461 l
142.981498 53.161927 l
143.893449 57.405027 l
144.8054 71.337592 l
145.717351 68.123603 l
146.629302 69.184378 l
147.541253 70.41931 l
148.453204 100.960126 l
149.365155 92.980566 l
150.277106 102.163393 l
151.189057 98.696084 l
152.101008 93.788022 l
153.012959 97.017844 l
153.92491 97.112838 l
154.836861 99.772692 l
155.748812 97.888629 l
156.660763 102.622535 l
157.572714 95.592922 l
158.484665 111.53621 l
159.396616 113.388608 l
160.308567 113.230283 l
161.220518 116.713425 l
162.132469 101.941739 l
163.04442 93.914681 l
163.956371 92.853906 l
164.868322 91.967289 l
165.780273 102.622535 l
166.692224 102.305885 l
167.604175 102.875854 l
168.516126 110.095456 l
169.428076 127.067854 l
170.340027 139.116357 l
171.251978 130.329341 l
172.163929 146.573446 l
173.07588 146.320126 l
173.987831 144.451896 l
174.899782 151.497341 l
175.811733 142.789488 l
176.723684 148.473341 l
177.635635 147.238409 l
178.547586 142.67866 l
179.459537 142.045362 l
181.283439 139.686325 l
182.19539 143.470283 l
183.107341 152.510618 l
184.019292 147.650053 l
184.931243 158.748608 l
185.843194 158.194472 l
186.755145 156.927875 l
187.667096 154.252189 l
188.579047 157.751163 l
189.490998 154.489676 l
190.402949 147.903372 l
191.3149 144.768545 l
192.226851 144.73688 l
193.138802 146.7951 l
194.050753 146.035142 l
194.962704 147.301739 l
195.874655 148.283351 l
196.786606 136.773152 l
197.698557 144.942702 l
198.610508 143.106137 l
199.522459 146.320126 l
200.434409 137.390618 l
201.34636 135.174074 l
202.258311 140.572943 l
203.170262 137.881425 l
204.082213 144.641885 l
204.994164 142.99531 l
205.906115 145.101027 l
206.818066 142.536168 l
207.730017 167.567289 l
208.641968 173.631121 l
209.553919 183.684734 l
210.46587 181.309865 l
211.377821 181.626514 l
212.289772 179.726618 l
213.201723 171.557069 l
214.113674 168.643896 l
215.025625 169.546346 l
215.937576 180.787393 l
216.849527 177.28842 l
217.761478 177.0351 l
218.673429 176.655121 l
219.58538 177.130095 l
220.497331 188.022828 l
221.409282 179.09332 l
222.321233 176.781781 l
223.233184 188.212817 l
224.145135 187.057048 l
225.057086 188.798618 l
225.969037 189.621906 l
226.880988 201.512084 l
227.792939 195.337425 l
228.70489 213.57642 l
229.616841 218.516147 l
230.528791 218.357823 l
231.440742 219.149446 l
232.352693 215.397152 l
233.264644 216.299603 l
234.176595 229.915519 l
235.088546 220.811854 l
236.000497 232.417048 l
236.912448 232.923687 l
237.824399 232.068734 l
238.73635 247.172901 l
239.648301 240.824084 l
240.560252 249.452776 l
241.472203 251.590158 l
242.384154 236.026849 l
243.296105 236.248503 l
244.208056 236.090179 l
245.120007 239.779142 l
246.031958 232.907854 l
246.943909 234.126954 l
247.85586 236.153509 l
248.767811 243.81642 l
249.679762 244.497215 l
250.591713 243.642262 l
252.415615 230.153006 l
253.327566 235.361885 l
254.239517 228.427268 l
255.151468 234.126954 l
256.063419 234.348608 l
256.97537 233.65198 l
257.887321 242.977299 l
258.799272 234.42777 l
259.711223 241.63154 l
260.623174 240.47577 l
261.535124 259.981362 l
262.447075 260.313844 l
263.359026 263.417006 l
264.270977 268.91087 l
265.182928 267.7551 l
266.094879 253.79087 l
267.00683 257.923142 l
267.918781 249.86442 l
268.830732 249.706095 l
269.742683 253.442556 l
271.566585 258.651435 l
272.478536 259.142241 l
273.390487 275.513006 l
274.302438 277.634556 l
275.214389 277.887875 l
276.12634 274.879707 l
277.038291 264.762765 l
277.950242 266.884315 l
278.862193 254.075854 l
279.774144 259.443058 l
280.686095 263.242849 l
281.598046 263.132022 l
282.509997 259.58555 l
283.421948 264.509446 l
284.333899 271.396566 l
285.24585 255.025802 l
286.157801 262.894535 l
287.069752 263.939477 l
287.981703 264.588608 l
290.717556 239.335833 l
291.629507 231.926241 l
292.541457 238.290891 l
293.453408 242.708147 l
294.365359 242.739812 l
295.27731 239.130011 l
296.189261 229.804692 l
297.101212 231.498765 l
298.013163 234.190283 l
298.925114 226.44821 l
299.837065 229.583037 l
300.749016 228.949739 l
301.660967 229.060566 l
302.572918 231.071289 l
303.484869 241.789865 l
304.39682 249.86442 l
305.308771 245.320503 l
307.132673 242.264838 l
308.044624 240.032461 l
308.956575 235.219393 l
309.868526 238.623372 l
310.780477 248.756147 l
311.692428 237.990074 l
312.604379 237.990074 l
313.51633 234.839414 l
314.428281 232.670367 l
315.340232 234.61776 l
316.252183 242.581488 l
317.164134 216.932901 l
318.076085 210.314933 l
318.988036 209.966618 l
319.899987 209.919121 l
320.811938 216.774577 l
321.723889 216.267938 l
322.63584 211.882346 l
323.54779 218.183666 l
324.459741 209.966618 l
325.371692 209.808294 l
326.283643 210.758241 l
327.195594 210.473257 l
328.107545 207.46509 l
329.019496 208.700022 l
329.931447 215.650472 l
330.843398 219.30777 l
331.755349 218.991121 l
332.6673 217.24955 l
333.579251 219.830241 l
334.491202 239.557488 l
335.403153 239.399163 l
336.315104 235.947687 l
337.227055 239.826639 l
338.139006 238.702535 l
339.050957 238.148399 l
339.962908 229.440545 l
340.874859 230.897132 l
341.78681 243.784755 l
342.698761 248.70865 l
343.610712 261.358786 l
344.522663 261.422116 l
345.434614 262.657048 l
346.346565 256.419058 l
347.258516 247.204566 l
348.170467 248.740315 l
349.082418 256.81487 l
349.994369 255.089132 l
350.90632 256.054912 l
351.818271 249.262786 l
352.730222 249.54777 l
353.642172 244.323058 l
354.554123 239.937467 l
355.466074 236.644315 l
356.378025 235.061069 l
357.289976 235.7102 l
358.201927 234.348608 l
359.113878 236.375163 l
360.025829 231.926241 l
360.93778 244.608043 l
361.849731 238.591707 l
362.761682 233.382828 l
363.673633 232.607037 l
364.585584 231.087121 l
365.497535 237.625927 l
366.409486 247.077906 l
367.321437 253.078409 l
368.233388 252.793425 l
369.145339 249.86442 l
370.05729 250.181069 l
370.969241 249.86442 l
371.881192 251.60599 l
372.793143 250.608545 l
373.705094 255.627435 l
374.617045 262.910367 l
375.528996 271.919037 l
376.440947 271.396566 l
377.352898 271.554891 l
377.352898 271.554891 l
stroke
grestore
1.000 0.498 0.055 setrgbcolor
gsave
357.1 266.1 36.47 23.87 clipbox
52.698352 43.319314 m
53.610303 41.42571 l
54.522254 38.705812 l
55.434205 36.839008 l
56.346156 39.978847 l
58.170058 43.008652 l
59.082009 48.49903 l
59.99396 52.034652 l
60.905911 52.800927 l
61.817862 49.528972 l
62.729813 47.831088 l
63.641764 58.336036 l
64.553715 55.144483 l
66.377617 59.79913 l
67.289568 60.816049 l
68.201519 64.198416 l
69.11347 69.227708 l
70.025421 67.871628 l
70.937372 70.421851 l
71.849323 62.174205 l
72.761274 60.828694 l
73.673225 61.115575 l
74.585176 63.508202 l
75.497127 62.267819 l
76.409078 74.70846 l
77.321028 73.924066 l
78.232979 72.058206 l
79.14493 75.283355 l
80.056881 76.30518 l
80.968832 76.567903 l
81.880783 73.213469 l
82.792734 64.373942 l
84.616636 56.399399 l
85.528587 53.620426 l
87.352489 51.32934 l
88.26444 47.24619 l
89.176391 44.609336 l
90.088342 48.126651 l
91.000293 55.989272 l
91.912244 52.549529 l
92.824195 51.368031 l
93.736146 49.019569 l
94.648097 49.222839 l
95.560048 41.955685 l
96.471999 41.624262 l
97.38395 43.852876 l
99.207852 40.757578 l
101.031754 46.06658 l
101.943705 47.366604 l
102.855656 43.260806 l
103.767607 37.081913 l
104.679558 45.754407 l
105.591509 50.237304 l
106.50346 50.117267 l
107.41541 47.003473 l
109.239312 39.058562 l
110.151263 44.247149 l
111.063214 56.50245 l
111.975165 58.880733 l
112.887116 60.069591 l
113.799067 57.956485 l
114.711018 51.19175 l
115.622969 63.458753 l
116.53492 71.501241 l
117.446871 71.292875 l
118.358822 69.420409 l
119.270773 66.668614 l
120.182724 67.998271 l
121.094675 78.581545 l
122.006626 78.685351 l
122.918577 75.901471 l
123.830528 77.721656 l
124.742479 77.630874 l
125.65443 81.984485 l
126.566381 87.92236 l
127.478332 81.992412 l
128.390283 75.023841 l
129.302234 63.093168 l
130.214185 54.548827 l
131.126136 54.505228 l
132.038087 56.236141 l
132.950038 56.788199 l
133.861989 57.6043 l
134.77394 58.047834 l
135.685891 55.211673 l
136.597842 48.195729 l
137.509793 46.516153 l
138.421743 46.050159 l
139.333694 48.28821 l
140.245645 56.060804 l
141.157596 51.478631 l
142.069547 49.566153 l
142.981498 49.811889 l
143.893449 50.515126 l
144.8054 54.308186 l
145.717351 65.565631 l
146.629302 66.640303 l
147.541253 68.061309 l
148.453204 68.718494 l
149.365155 90.585448 l
150.277106 92.986379 l
151.189057 98.319539 l
152.101008 95.887277 l
153.012959 91.631243 l
153.92491 92.099501 l
154.836861 94.089173 l
155.748812 95.21405 l
156.660763 94.397571 l
157.572714 95.912379 l
158.484665 93.200785 l
159.396616 102.910204 l
160.308567 107.493509 l
161.220518 108.926972 l
162.132469 112.965391 l
163.956371 90.884786 l
164.868322 88.86567 l
165.780273 86.095191 l
166.692224 93.68754 l
167.604175 96.65374 l
168.516126 97.901296 l
169.428076 103.055532 l
171.251978 132.304016 l
172.163929 130.695971 l
173.07588 140.967639 l
173.987831 142.819344 l
174.899782 141.106928 l
175.811733 146.66544 l
176.723684 139.976956 l
177.635635 141.352287 l
178.547586 142.399026 l
179.459537 138.70996 l
181.283439 136.547781 l
182.19539 135.540111 l
183.107341 139.299199 l
184.019292 147.245808 l
184.931243 143.819654 l
185.843194 151.408983 l
186.755145 153.963925 l
187.667096 151.246291 l
188.579047 149.80226 l
189.490998 151.828358 l
190.402949 149.442903 l
192.226851 140.479564 l
193.138802 139.642701 l
194.050753 141.694468 l
194.962704 143.071498 l
195.874655 142.77367 l
196.786606 144.747488 l
197.698557 137.153818 l
198.610508 139.258431 l
199.522459 140.874403 l
200.434409 142.25483 l
201.34636 135.791321 l
202.258311 132.810776 l
203.170262 134.593592 l
204.082213 133.900925 l
204.994164 139.150851 l
205.906115 140.296111 l
206.818066 140.994251 l
207.730017 140.42483 l
208.641968 158.003665 l
209.553919 169.303576 l
210.46587 179.027528 l
211.377821 179.254391 l
212.289772 179.259298 l
213.201723 176.637355 l
215.025625 165.02999 l
215.937576 164.847292 l
216.849527 171.738103 l
217.761478 173.318403 l
218.673429 173.072478 l
219.58538 172.458326 l
220.497331 172.21108 l
221.409282 181.080616 l
222.321233 178.451501 l
223.233184 173.570368 l
224.145135 179.935356 l
225.057086 182.032231 l
225.969037 183.430211 l
226.880988 184.341625 l
227.792939 192.223498 l
228.70489 190.830614 l
229.616841 204.142657 l
230.528791 211.712735 l
232.352693 215.373302 l
234.176595 212.01849 l
235.088546 221.247949 l
236.000497 217.294462 l
236.912448 224.159039 l
237.824399 226.434649 l
238.73635 225.945629 l
239.648301 236.480209 l
240.560252 237.787972 l
242.384154 243.837203 l
243.296105 235.44253 l
244.208056 230.851109 l
245.120007 230.067282 l
246.031958 232.806809 l
246.943909 228.380911 l
247.85586 228.306171 l
248.767811 229.534287 l
249.679762 235.53671 l
250.591713 240.103595 l
251.503664 240.576949 l
252.415615 235.035045 l
253.327566 227.942662 l
254.239517 229.763226 l
255.151468 225.68687 l
256.063419 227.614447 l
256.97537 228.116678 l
257.887321 228.326366 l
258.799272 236.618932 l
259.711223 231.857081 l
260.623174 235.948724 l
261.535124 238.333236 l
262.447075 251.516371 l
263.359026 257.578813 l
265.182928 263.175072 l
266.094879 263.721845 l
267.00683 253.996572 l
267.918781 253.263704 l
268.830732 246.973645 l
269.742683 245.380133 l
270.654634 247.400947 l
271.566585 251.122098 l
272.478536 254.004877 l
273.390487 255.881118 l
274.302438 266.41079 l
275.214389 271.753387 l
276.12634 272.501732 l
277.038291 270.241221 l
277.950242 263.724676 l
278.862193 262.246294 l
279.774144 252.04276 l
280.686095 252.87264 l
281.598046 256.548494 l
282.509997 256.669286 l
283.421948 254.879487 l
284.333899 259.265183 l
285.24585 265.970277 l
286.157801 255.916034 l
287.069752 258.595165 l
287.981703 258.880725 l
288.893654 257.95893 l
289.805605 251.566009 l
292.541457 220.824988 l
293.453408 223.685119 l
294.365359 230.257718 l
295.27731 232.049405 l
296.189261 229.974612 l
297.101212 221.881164 l
298.013163 222.093117 l
298.925114 222.953194 l
299.837065 217.536046 l
300.749016 218.049979 l
301.660967 216.4844 l
302.572918 216.617271 l
303.484869 220.522064 l
305.308771 241.851494 l
306.220722 242.156871 l
307.132673 240.695853 l
308.044624 238.80508 l
308.956575 237.284609 l
309.868526 232.765475 l
310.780477 233.542697 l
311.692428 242.499619 l
312.604379 235.731298 l
315.340232 228.474902 l
316.252183 229.289305 l
317.164134 237.524683 l
318.076085 219.798444 l
318.988036 205.128623 l
319.899987 200.767651 l
320.811938 200.608167 l
321.723889 205.824687 l
322.63584 208.151445 l
323.54779 203.97034 l
324.459741 208.773713 l
325.371692 204.749071 l
326.283643 204.522586 l
327.195594 205.332837 l
328.107545 204.88232 l
329.019496 201.201181 l
329.931447 202.329643 l
331.755349 212.06341 l
332.6673 215.460687 l
333.579251 214.424518 l
334.491202 215.002243 l
335.403153 231.858591 l
336.315104 237.30688 l
337.227055 235.048068 l
338.139006 236.98999 l
339.050957 235.451212 l
339.962908 234.7727 l
340.874859 229.044701 l
341.78681 225.423958 l
342.698761 233.626308 l
344.522663 253.177828 l
345.434614 256.312006 l
346.346565 257.216436 l
347.258516 253.190851 l
348.170467 246.493119 l
349.082418 244.439653 l
349.994369 248.159295 l
350.90632 249.72242 l
351.818271 250.952045 l
352.730222 245.442794 l
353.642172 243.560513 l
354.554123 240.67245 l
355.466074 237.166082 l
356.378025 232.682808 l
357.289976 230.178071 l
358.201927 229.49635 l
359.113878 229.255899 l
360.025829 229.984049 l
360.93778 225.406972 l
361.849731 233.876007 l
362.761682 233.186738 l
363.673633 228.061378 l
364.585584 225.705366 l
365.497535 224.660515 l
366.409486 230.652935 l
367.321437 240.368582 l
368.233388 247.431522 l
369.145339 249.42629 l
370.05729 246.883617 l
370.969241 247.213341 l
371.881192 246.823032 l
372.793143 248.593957 l
373.705094 248.22573 l
374.617045 251.3835 l
375.528996 257.549181 l
376.440947 264.575317 l
377.352898 266.876217 l
377.352898 266.876217 l
stroke
grestore
0.800 setlinewidth
0 setlinejoin
[] 0 setdash
0.000 setgray
gsave
36.465625 23.871875 m
36.465625 289.983875 l
stroke
grestore
gsave
393.585625 23.871875 m
393.585625 289.983875 l
stroke
grestore
gsave
36.465625 23.871875 m
393.585625 23.871875 l
stroke
grestore
gsave
36.465625 289.983875 m
393.585625 289.983875 l
stroke
grestore
/DejaVuSans findfont
12.000 scalefont
setfont
gsave
100.025625 295.983875 translate
0.000000 rotate
0.000000 0.000000 m /R glyphshow
8.337891 0.000000 m /M glyphshow
18.691406 0.000000 m /S glyphshow
26.308594 0.000000 m /E glyphshow
33.890625 0.000000 m /space glyphshow
37.705078 0.000000 m /equal glyphshow
47.759766 0.000000 m /space glyphshow
51.574219 0.000000 m /zero glyphshow
59.208984 0.000000 m /period glyphshow
63.023438 0.000000 m /zero glyphshow
70.658203 0.000000 m /zero glyphshow
78.292969 0.000000 m /five glyphshow
85.927734 0.000000 m /five glyphshow
93.562500 0.000000 m /four glyphshow
101.197266 0.000000 m /space glyphshow
105.011719 0.000000 m /R glyphshow
113.349609 0.000000 m /hyphen glyphshow
117.679688 0.000000 m /s glyphshow
123.931641 0.000000 m /q glyphshow
131.548828 0.000000 m /u glyphshow
139.154297 0.000000 m /a glyphshow
146.507812 0.000000 m /r glyphshow
151.441406 0.000000 m /e glyphshow
158.824219 0.000000 m /d glyphshow
166.441406 0.000000 m /space glyphshow
170.255859 0.000000 m /equal glyphshow
180.310547 0.000000 m /space glyphshow
184.125000 0.000000 m /nine glyphshow
191.759766 0.000000 m /eight glyphshow
199.394531 0.000000 m /period glyphshow
203.208984 0.000000 m /eight glyphshow
210.843750 0.000000 m /zero glyphshow
218.478516 0.000000 m /percent glyphshow
grestore
1.000 setlinewidth
0 setlinecap
0.800 setgray
gsave
413.441625 257.640125 m
492.785375 257.640125 l
494.118708 257.640125 494.785375 258.306792 494.785375 259.640125 c
494.785375 287.983875 l
494.785375 289.317208 494.118708 289.983875 492.785375 289.983875 c
413.441625 289.983875 l
412.108292 289.983875 411.441625 289.317208 411.441625 287.983875 c
411.441625 259.640125 l
411.441625 258.306792 412.108292 257.640125 413.441625 257.640125 c
cl
gsave
1.000 setgray
fill
grestore
stroke
grestore
1.500 setlinewidth
1 setlinejoin
2 setlinecap
[] 0 setdash
0.122 0.467 0.706 setrgbcolor
gsave
415.441625 281.890125 m
435.441625 281.890125 l
stroke
grestore
0.000 setgray
/DejaVuSans findfont
10.000 scalefont
setfont
gsave
443.441625 278.390125 translate
0.000000 rotate
0.000000 0.000000 m /A glyphshow
6.840820 0.000000 m /c glyphshow
12.338867 0.000000 m /t glyphshow
16.259766 0.000000 m /u glyphshow
22.597656 0.000000 m /a glyphshow
28.725586 0.000000 m /l glyphshow
grestore
1.000 0.498 0.055 setrgbcolor
gsave
415.441625 267.21825 m
435.441625 267.21825 l
stroke
grestore
0.000 setgray
gsave
443.441625 263.718250 translate
0.000000 rotate
0.000000 0.000000 m /P glyphshow
6.030273 0.000000 m /r glyphshow
10.141602 0.000000 m /e glyphshow
16.293945 0.000000 m /d glyphshow
22.641602 0.000000 m /i glyphshow
25.419922 0.000000 m /c glyphshow
30.917969 0.000000 m /t glyphshow
34.838867 0.000000 m /e glyphshow
40.991211 0.000000 m /d glyphshow
grestore
/DejaVuSans findfont
12.000 scalefont
setfont
gsave
108.703125 315.418875 translate
0.000000 rotate
0.000000 0.000000 m /P glyphshow
7.236328 0.000000 m /e glyphshow
14.619141 0.000000 m /r glyphshow
19.552734 0.000000 m /c glyphshow
26.150391 0.000000 m /e glyphshow
33.533203 0.000000 m /p glyphshow
41.150391 0.000000 m /t glyphshow
45.855469 0.000000 m /r glyphshow
50.789062 0.000000 m /o glyphshow
58.130859 0.000000 m /n glyphshow
65.736328 0.000000 m /space glyphshow
69.550781 0.000000 m /parenleft glyphshow
74.232422 0.000000 m /three glyphshow
81.867188 0.000000 m /zero glyphshow
89.501953 0.000000 m /comma glyphshow
93.316406 0.000000 m /space glyphshow
97.130859 0.000000 m /four glyphshow
104.765625 0.000000 m /zero glyphshow
112.400391 0.000000 m /comma glyphshow
116.214844 0.000000 m /space glyphshow
120.029297 0.000000 m /six glyphshow
127.664062 0.000000 m /zero glyphshow
135.298828 0.000000 m /comma glyphshow
139.113281 0.000000 m /space glyphshow
142.927734 0.000000 m /three glyphshow
150.562500 0.000000 m /zero glyphshow
158.197266 0.000000 m /comma glyphshow
162.011719 0.000000 m /space glyphshow
165.826172 0.000000 m /one glyphshow
173.460938 0.000000 m /five glyphshow
181.095703 0.000000 m /comma glyphshow
184.910156 0.000000 m /space glyphshow
188.724609 0.000000 m /one glyphshow
196.359375 0.000000 m /parenright glyphshow
grestore

end
showpage
