%!PS-Adobe-3.0 EPSF-3.0
%%Title: plots/7.eps
%%Creator: matplotlib version 2.2.2, http://matplotlib.org/
%%CreationDate: Thu May 31 19:17:41 2018
%%Orientation: portrait
%%BoundingBox: 49 230 562 561
%%EndComments
%%BeginProlog
/mpldict 8 dict def
mpldict begin
/m { moveto } bind def
/l { lineto } bind def
/r { rlineto } bind def
/c { curveto } bind def
/cl { closepath } bind def
/box {
m
1 index 0 r
0 exch r
neg 0 r
cl
} bind def
/clipbox {
box
clip
newpath
} bind def
%!PS-Adobe-3.0 Resource-Font
%%Title: DejaVu Sans
%%Copyright: Copyright (c) 2003 by Bitstream, Inc. All Rights Reserved. Copyright (c) 2006 by Tavmjong Bah. All Rights Reserved. DejaVu changes are in public domain 
%%Creator: Converted from TrueType to type 3 by PPR
25 dict begin
/_d{bind def}bind def
/_m{moveto}_d
/_l{lineto}_d
/_cl{closepath eofill}_d
/_c{curveto}_d
/_sc{7 -1 roll{setcachedevice}{pop pop pop pop pop pop}ifelse}_d
/_e{exec}_d
/FontName /DejaVuSans def
/PaintType 0 def
/FontMatrix[.001 0 0 .001 0 0]def
/FontBBox[-1021 -463 1793 1232]def
/FontType 3 def
/Encoding [ /space /percent /parenleft /parenright /comma /hyphen /period /zero /one /two /three /four /five /six /seven /eight /nine /equal /A /E /M /P /R /S /a /c /d /e /g /i /l /n /o /p /q /r /s /t /u /y ] def
/FontInfo 10 dict dup begin
/FamilyName (DejaVu Sans) def
/FullName (DejaVu Sans) def
/Notice (Copyright (c) 2003 by Bitstream, Inc. All Rights Reserved. Copyright (c) 2006 by Tavmjong Bah. All Rights Reserved. DejaVu changes are in public domain ) def
/Weight (Book) def
/Version (Version 2.35) def
/ItalicAngle 0.0 def
/isFixedPitch false def
/UnderlinePosition -130 def
/UnderlineThickness 90 def
end readonly def
/CharStrings 41 dict dup begin
/.notdef 0 def
/space{318 0 0 0 0 0 _sc
}_d
/percent{{950 0 55 -13 895 742 _sc
727 321 _m
699 321 676 309 660 285 _c
644 261 636 227 636 184 _c
636 142 644 108 660 84 _c
676 60 699 48 727 48 _c
755 48 777 60 793 84 _c
809 108 817 142 817 184 _c
817 226 809 260 793 284 _c
777 308 755 321 727 321 _c
727 383 _m
778 383 819 365 849 329 _c
879 293 895 244 895 184 _c
895 123 879 75 849 40 _c
819 4 778 -13 727 -13 _c
}_e{675 -13 633 4 603 40 _c
573 75 558 123 558 184 _c
558 245 573 293 603 329 _c
633 365 675 383 727 383 _c
223 680 _m
195 680 173 667 157 643 _c
141 619 133 586 133 544 _c
133 500 141 467 157 443 _c
173 419 195 407 223 407 _c
251 407 274 419 290 443 _c
306 467 314 500 314 544 _c
314 586 305 619 289 643 _c
273 667 251 680 223 680 _c
664 742 _m
742 742 _l
286 -13 _l
}_e{208 -13 _l
664 742 _l
223 742 _m
274 742 315 724 346 688 _c
376 652 392 604 392 544 _c
392 482 376 434 346 398 _c
316 362 275 345 223 345 _c
171 345 130 362 100 398 _c
70 434 55 482 55 544 _c
55 604 70 652 100 688 _c
130 724 171 742 223 742 _c
_cl}_e}_d
/parenleft{390 0 86 -131 310 759 _sc
310 759 _m
266 683 234 609 213 536 _c
191 463 181 389 181 314 _c
181 238 191 164 213 91 _c
234 17 266 -56 310 -131 _c
232 -131 _l
183 -54 146 20 122 94 _c
98 168 86 241 86 314 _c
86 386 98 459 122 533 _c
146 607 182 682 232 759 _c
310 759 _l
_cl}_d
/parenright{390 0 80 -131 304 759 _sc
80 759 _m
158 759 _l
206 682 243 607 267 533 _c
291 459 304 386 304 314 _c
304 241 291 168 267 94 _c
243 20 206 -54 158 -131 _c
80 -131 _l
123 -56 155 17 177 91 _c
198 164 209 238 209 314 _c
209 389 198 463 177 536 _c
155 609 123 683 80 759 _c
_cl}_d
/comma{318 0 77 -115 220 124 _sc
117 124 _m
220 124 _l
220 40 _l
140 -115 _l
77 -115 _l
117 40 _l
117 124 _l
_cl}_d
/hyphen{361 0 49 234 312 314 _sc
49 314 _m
312 314 _l
312 234 _l
49 234 _l
49 314 _l
_cl}_d
/period{318 0 107 0 210 124 _sc
107 124 _m
210 124 _l
210 0 _l
107 0 _l
107 124 _l
_cl}_d
/zero{636 0 66 -13 570 742 _sc
318 664 _m
267 664 229 639 203 589 _c
177 539 165 464 165 364 _c
165 264 177 189 203 139 _c
229 89 267 64 318 64 _c
369 64 407 89 433 139 _c
458 189 471 264 471 364 _c
471 464 458 539 433 589 _c
407 639 369 664 318 664 _c
318 742 _m
399 742 461 709 505 645 _c
548 580 570 486 570 364 _c
570 241 548 147 505 83 _c
461 19 399 -13 318 -13 _c
236 -13 173 19 130 83 _c
87 147 66 241 66 364 _c
66 486 87 580 130 645 _c
173 709 236 742 318 742 _c
_cl}_d
/one{636 0 110 0 544 729 _sc
124 83 _m
285 83 _l
285 639 _l
110 604 _l
110 694 _l
284 729 _l
383 729 _l
383 83 _l
544 83 _l
544 0 _l
124 0 _l
124 83 _l
_cl}_d
/two{{636 0 73 0 536 742 _sc
192 83 _m
536 83 _l
536 0 _l
73 0 _l
73 83 _l
110 121 161 173 226 239 _c
290 304 331 346 348 365 _c
380 400 402 430 414 455 _c
426 479 433 504 433 528 _c
433 566 419 598 392 622 _c
365 646 330 659 286 659 _c
255 659 222 653 188 643 _c
154 632 117 616 78 594 _c
78 694 _l
118 710 155 722 189 730 _c
223 738 255 742 284 742 _c
}_e{359 742 419 723 464 685 _c
509 647 532 597 532 534 _c
532 504 526 475 515 449 _c
504 422 484 390 454 354 _c
446 344 420 317 376 272 _c
332 227 271 164 192 83 _c
_cl}_e}_d
/three{{636 0 76 -13 556 742 _sc
406 393 _m
453 383 490 362 516 330 _c
542 298 556 258 556 212 _c
556 140 531 84 482 45 _c
432 6 362 -13 271 -13 _c
240 -13 208 -10 176 -4 _c
144 1 110 10 76 22 _c
76 117 _l
103 101 133 89 166 81 _c
198 73 232 69 268 69 _c
330 69 377 81 409 105 _c
441 129 458 165 458 212 _c
458 254 443 288 413 312 _c
383 336 341 349 287 349 _c
}_e{202 349 _l
202 430 _l
291 430 _l
339 430 376 439 402 459 _c
428 478 441 506 441 543 _c
441 580 427 609 401 629 _c
374 649 336 659 287 659 _c
260 659 231 656 200 650 _c
169 644 135 635 98 623 _c
98 711 _l
135 721 170 729 203 734 _c
235 739 266 742 296 742 _c
370 742 429 725 473 691 _c
517 657 539 611 539 553 _c
539 513 527 479 504 451 _c
481 423 448 403 406 393 _c
_cl}_e}_d
/four{636 0 49 0 580 729 _sc
378 643 _m
129 254 _l
378 254 _l
378 643 _l
352 729 _m
476 729 _l
476 254 _l
580 254 _l
580 172 _l
476 172 _l
476 0 _l
378 0 _l
378 172 _l
49 172 _l
49 267 _l
352 729 _l
_cl}_d
/five{{636 0 77 -13 549 729 _sc
108 729 _m
495 729 _l
495 646 _l
198 646 _l
198 467 _l
212 472 227 476 241 478 _c
255 480 270 482 284 482 _c
365 482 429 459 477 415 _c
525 370 549 310 549 234 _c
549 155 524 94 475 51 _c
426 8 357 -13 269 -13 _c
238 -13 207 -10 175 -6 _c
143 -1 111 6 77 17 _c
77 116 _l
106 100 136 88 168 80 _c
199 72 232 69 267 69 _c
}_e{323 69 368 83 401 113 _c
433 143 450 183 450 234 _c
450 284 433 324 401 354 _c
368 384 323 399 267 399 _c
241 399 214 396 188 390 _c
162 384 135 375 108 363 _c
108 729 _l
_cl}_e}_d
/six{{636 0 70 -13 573 742 _sc
330 404 _m
286 404 251 388 225 358 _c
199 328 186 286 186 234 _c
186 181 199 139 225 109 _c
251 79 286 64 330 64 _c
374 64 409 79 435 109 _c
461 139 474 181 474 234 _c
474 286 461 328 435 358 _c
409 388 374 404 330 404 _c
526 713 _m
526 623 _l
501 635 476 644 451 650 _c
425 656 400 659 376 659 _c
310 659 260 637 226 593 _c
}_e{192 549 172 482 168 394 _c
187 422 211 444 240 459 _c
269 474 301 482 336 482 _c
409 482 467 459 509 415 _c
551 371 573 310 573 234 _c
573 159 550 99 506 54 _c
462 9 403 -13 330 -13 _c
246 -13 181 19 137 83 _c
92 147 70 241 70 364 _c
70 479 97 571 152 639 _c
206 707 280 742 372 742 _c
396 742 421 739 447 735 _c
472 730 498 723 526 713 _c
_cl}_e}_d
/seven{636 0 82 0 551 729 _sc
82 729 _m
551 729 _l
551 687 _l
286 0 _l
183 0 _l
432 646 _l
82 646 _l
82 729 _l
_cl}_d
/eight{{636 0 68 -13 568 742 _sc
318 346 _m
271 346 234 333 207 308 _c
180 283 167 249 167 205 _c
167 161 180 126 207 101 _c
234 76 271 64 318 64 _c
364 64 401 76 428 102 _c
455 127 469 161 469 205 _c
469 249 455 283 429 308 _c
402 333 365 346 318 346 _c
219 388 _m
177 398 144 418 120 447 _c
96 476 85 511 85 553 _c
85 611 105 657 147 691 _c
188 725 245 742 318 742 _c
}_e{390 742 447 725 489 691 _c
530 657 551 611 551 553 _c
551 511 539 476 515 447 _c
491 418 459 398 417 388 _c
464 377 501 355 528 323 _c
554 291 568 251 568 205 _c
568 134 546 80 503 43 _c
459 5 398 -13 318 -13 _c
237 -13 175 5 132 43 _c
89 80 68 134 68 205 _c
68 251 81 291 108 323 _c
134 355 171 377 219 388 _c
183 544 _m
183 506 194 476 218 455 _c
}_e{242 434 275 424 318 424 _c
360 424 393 434 417 455 _c
441 476 453 506 453 544 _c
453 582 441 611 417 632 _c
393 653 360 664 318 664 _c
275 664 242 653 218 632 _c
194 611 183 582 183 544 _c
_cl}_e}_d
/nine{{636 0 63 -13 566 742 _sc
110 15 _m
110 105 _l
134 93 159 84 185 78 _c
210 72 235 69 260 69 _c
324 69 374 90 408 134 _c
442 178 462 244 468 334 _c
448 306 424 284 396 269 _c
367 254 335 247 300 247 _c
226 247 168 269 126 313 _c
84 357 63 417 63 494 _c
63 568 85 628 129 674 _c
173 719 232 742 306 742 _c
390 742 455 709 499 645 _c
543 580 566 486 566 364 _c
}_e{566 248 538 157 484 89 _c
429 21 356 -13 264 -13 _c
239 -13 214 -10 189 -6 _c
163 -2 137 5 110 15 _c
306 324 _m
350 324 385 339 411 369 _c
437 399 450 441 450 494 _c
450 546 437 588 411 618 _c
385 648 350 664 306 664 _c
262 664 227 648 201 618 _c
175 588 162 546 162 494 _c
162 441 175 399 201 369 _c
227 339 262 324 306 324 _c
_cl}_e}_d
/equal{838 0 106 172 732 454 _sc
106 454 _m
732 454 _l
732 372 _l
106 372 _l
106 454 _l
106 255 _m
732 255 _l
732 172 _l
106 172 _l
106 255 _l
_cl}_d
/A{684 0 8 0 676 729 _sc
342 632 _m
208 269 _l
476 269 _l
342 632 _l
286 729 _m
398 729 _l
676 0 _l
573 0 _l
507 187 _l
178 187 _l
112 0 _l
8 0 _l
286 729 _l
_cl}_d
/E{632 0 98 0 568 729 _sc
98 729 _m
559 729 _l
559 646 _l
197 646 _l
197 430 _l
544 430 _l
544 347 _l
197 347 _l
197 83 _l
568 83 _l
568 0 _l
98 0 _l
98 729 _l
_cl}_d
/M{863 0 98 0 765 729 _sc
98 729 _m
245 729 _l
431 233 _l
618 729 _l
765 729 _l
765 0 _l
669 0 _l
669 640 _l
481 140 _l
382 140 _l
194 640 _l
194 0 _l
98 0 _l
98 729 _l
_cl}_d
/P{603 0 98 0 569 729 _sc
197 648 _m
197 374 _l
321 374 _l
367 374 402 385 427 409 _c
452 433 465 467 465 511 _c
465 555 452 588 427 612 _c
402 636 367 648 321 648 _c
197 648 _l
98 729 _m
321 729 _l
402 729 464 710 506 673 _c
548 636 569 582 569 511 _c
569 439 548 384 506 348 _c
464 311 402 293 321 293 _c
197 293 _l
197 0 _l
98 0 _l
98 729 _l
_cl}_d
/R{{695 0 98 0 666 729 _sc
444 342 _m
465 334 486 319 506 296 _c
526 272 546 240 566 199 _c
666 0 _l
560 0 _l
467 187 _l
443 235 419 268 397 284 _c
374 300 343 308 304 308 _c
197 308 _l
197 0 _l
98 0 _l
98 729 _l
321 729 _l
404 729 466 711 507 677 _c
548 642 569 589 569 519 _c
569 473 558 434 537 404 _c
515 374 484 353 444 342 _c
197 648 _m
197 389 _l
321 389 _l
}_e{368 389 404 400 428 422 _c
452 444 465 476 465 519 _c
465 561 452 593 428 615 _c
404 637 368 648 321 648 _c
197 648 _l
_cl}_e}_d
/S{{635 0 66 -13 579 742 _sc
535 705 _m
535 609 _l
497 627 462 640 429 649 _c
395 657 363 662 333 662 _c
279 662 237 651 208 631 _c
179 610 165 580 165 542 _c
165 510 174 485 194 469 _c
213 452 250 439 304 429 _c
364 417 _l
437 403 491 378 526 343 _c
561 307 579 260 579 201 _c
579 130 555 77 508 41 _c
460 5 391 -13 300 -13 _c
265 -13 228 -9 189 -2 _c
}_e{150 5 110 16 69 32 _c
69 134 _l
109 111 148 94 186 83 _c
224 71 262 66 300 66 _c
356 66 399 77 430 99 _c
460 121 476 152 476 194 _c
476 230 465 258 443 278 _c
421 298 385 313 335 323 _c
275 335 _l
201 349 148 372 115 404 _c
82 435 66 478 66 534 _c
66 598 88 649 134 686 _c
179 723 242 742 322 742 _c
356 742 390 739 426 733 _c
461 727 497 717 535 705 _c
}_e{_cl}_e}_d
/a{{613 0 60 -13 522 560 _sc
343 275 _m
270 275 220 266 192 250 _c
164 233 150 205 150 165 _c
150 133 160 107 181 89 _c
202 70 231 61 267 61 _c
317 61 357 78 387 114 _c
417 149 432 196 432 255 _c
432 275 _l
343 275 _l
522 312 _m
522 0 _l
432 0 _l
432 83 _l
411 49 385 25 355 10 _c
325 -5 287 -13 243 -13 _c
187 -13 142 2 109 33 _c
76 64 60 106 60 159 _c
}_e{60 220 80 266 122 298 _c
163 329 224 345 306 345 _c
432 345 _l
432 354 _l
432 395 418 427 391 450 _c
364 472 326 484 277 484 _c
245 484 215 480 185 472 _c
155 464 127 453 100 439 _c
100 522 _l
132 534 164 544 195 550 _c
226 556 256 560 286 560 _c
365 560 424 539 463 498 _c
502 457 522 395 522 312 _c
_cl}_e}_d
/c{{550 0 55 -13 488 560 _sc
488 526 _m
488 442 _l
462 456 437 466 411 473 _c
385 480 360 484 334 484 _c
276 484 230 465 198 428 _c
166 391 150 339 150 273 _c
150 206 166 154 198 117 _c
230 80 276 62 334 62 _c
360 62 385 65 411 72 _c
437 79 462 90 488 104 _c
488 21 _l
462 9 436 0 410 -5 _c
383 -10 354 -13 324 -13 _c
242 -13 176 12 128 64 _c
}_e{79 115 55 185 55 273 _c
55 362 79 432 128 483 _c
177 534 244 560 330 560 _c
358 560 385 557 411 551 _c
437 545 463 537 488 526 _c
_cl}_e}_d
/d{{635 0 55 -13 544 760 _sc
454 464 _m
454 760 _l
544 760 _l
544 0 _l
454 0 _l
454 82 _l
435 49 411 25 382 10 _c
353 -5 319 -13 279 -13 _c
213 -13 159 13 117 65 _c
75 117 55 187 55 273 _c
55 359 75 428 117 481 _c
159 533 213 560 279 560 _c
319 560 353 552 382 536 _c
411 520 435 496 454 464 _c
148 273 _m
148 207 161 155 188 117 _c
215 79 253 61 301 61 _c
}_e{348 61 385 79 413 117 _c
440 155 454 207 454 273 _c
454 339 440 390 413 428 _c
385 466 348 485 301 485 _c
253 485 215 466 188 428 _c
161 390 148 339 148 273 _c
_cl}_e}_d
/e{{615 0 55 -13 562 560 _sc
562 296 _m
562 252 _l
149 252 _l
153 190 171 142 205 110 _c
238 78 284 62 344 62 _c
378 62 412 66 444 74 _c
476 82 509 95 541 113 _c
541 28 _l
509 14 476 3 442 -3 _c
408 -9 373 -13 339 -13 _c
251 -13 182 12 131 62 _c
80 112 55 181 55 268 _c
55 357 79 428 127 481 _c
175 533 241 560 323 560 _c
397 560 455 536 498 489 _c
}_e{540 441 562 377 562 296 _c
472 322 _m
471 371 457 410 431 440 _c
404 469 368 484 324 484 _c
274 484 234 469 204 441 _c
174 413 156 373 152 322 _c
472 322 _l
_cl}_e}_d
/g{{635 0 55 -207 544 560 _sc
454 280 _m
454 344 440 395 414 431 _c
387 467 349 485 301 485 _c
253 485 215 467 188 431 _c
161 395 148 344 148 280 _c
148 215 161 165 188 129 _c
215 93 253 75 301 75 _c
349 75 387 93 414 129 _c
440 165 454 215 454 280 _c
544 68 _m
544 -24 523 -93 482 -139 _c
440 -184 377 -207 292 -207 _c
260 -207 231 -204 203 -200 _c
175 -195 147 -188 121 -178 _c
}_e{121 -91 _l
147 -105 173 -115 199 -122 _c
225 -129 251 -133 278 -133 _c
336 -133 380 -117 410 -87 _c
439 -56 454 -10 454 52 _c
454 96 _l
435 64 411 40 382 24 _c
353 8 319 0 279 0 _c
211 0 157 25 116 76 _c
75 127 55 195 55 280 _c
55 364 75 432 116 483 _c
157 534 211 560 279 560 _c
319 560 353 552 382 536 _c
411 520 435 496 454 464 _c
454 547 _l
544 547 _l
}_e{544 68 _l
_cl}_e}_d
/i{278 0 94 0 184 760 _sc
94 547 _m
184 547 _l
184 0 _l
94 0 _l
94 547 _l
94 760 _m
184 760 _l
184 646 _l
94 646 _l
94 760 _l
_cl}_d
/l{278 0 94 0 184 760 _sc
94 760 _m
184 760 _l
184 0 _l
94 0 _l
94 760 _l
_cl}_d
/n{634 0 91 0 549 560 _sc
549 330 _m
549 0 _l
459 0 _l
459 327 _l
459 379 448 417 428 443 _c
408 469 378 482 338 482 _c
289 482 251 466 223 435 _c
195 404 181 362 181 309 _c
181 0 _l
91 0 _l
91 547 _l
181 547 _l
181 462 _l
202 494 227 519 257 535 _c
286 551 320 560 358 560 _c
420 560 468 540 500 501 _c
532 462 549 405 549 330 _c
_cl}_d
/o{612 0 55 -13 557 560 _sc
306 484 _m
258 484 220 465 192 427 _c
164 389 150 338 150 273 _c
150 207 163 156 191 118 _c
219 80 257 62 306 62 _c
354 62 392 80 420 118 _c
448 156 462 207 462 273 _c
462 337 448 389 420 427 _c
392 465 354 484 306 484 _c
306 560 _m
384 560 445 534 490 484 _c
534 433 557 363 557 273 _c
557 183 534 113 490 63 _c
445 12 384 -13 306 -13 _c
227 -13 165 12 121 63 _c
77 113 55 183 55 273 _c
55 363 77 433 121 484 _c
165 534 227 560 306 560 _c
_cl}_d
/p{{635 0 91 -207 580 560 _sc
181 82 _m
181 -207 _l
91 -207 _l
91 547 _l
181 547 _l
181 464 _l
199 496 223 520 252 536 _c
281 552 316 560 356 560 _c
422 560 476 533 518 481 _c
559 428 580 359 580 273 _c
580 187 559 117 518 65 _c
476 13 422 -13 356 -13 _c
316 -13 281 -5 252 10 _c
223 25 199 49 181 82 _c
487 273 _m
487 339 473 390 446 428 _c
418 466 381 485 334 485 _c
}_e{286 485 249 466 222 428 _c
194 390 181 339 181 273 _c
181 207 194 155 222 117 _c
249 79 286 61 334 61 _c
381 61 418 79 446 117 _c
473 155 487 207 487 273 _c
_cl}_e}_d
/q{{635 0 55 -207 544 560 _sc
148 273 _m
148 207 161 155 188 117 _c
215 79 253 61 301 61 _c
348 61 385 79 413 117 _c
440 155 454 207 454 273 _c
454 339 440 390 413 428 _c
385 466 348 485 301 485 _c
253 485 215 466 188 428 _c
161 390 148 339 148 273 _c
454 82 _m
435 49 411 25 382 10 _c
353 -5 319 -13 279 -13 _c
213 -13 159 13 117 65 _c
75 117 55 187 55 273 _c
}_e{55 359 75 428 117 481 _c
159 533 213 560 279 560 _c
319 560 353 552 382 536 _c
411 520 435 496 454 464 _c
454 547 _l
544 547 _l
544 -207 _l
454 -207 _l
454 82 _l
_cl}_e}_d
/r{411 0 91 0 411 560 _sc
411 463 _m
401 469 390 473 378 476 _c
366 478 353 480 339 480 _c
288 480 249 463 222 430 _c
194 397 181 350 181 288 _c
181 0 _l
91 0 _l
91 547 _l
181 547 _l
181 462 _l
199 495 224 520 254 536 _c
284 552 321 560 365 560 _c
371 560 378 559 386 559 _c
393 558 401 557 411 555 _c
411 463 _l
_cl}_d
/s{{521 0 54 -13 472 560 _sc
443 531 _m
443 446 _l
417 458 391 468 364 475 _c
336 481 308 485 279 485 _c
234 485 200 478 178 464 _c
156 450 145 430 145 403 _c
145 382 153 366 169 354 _c
185 342 217 330 265 320 _c
296 313 _l
360 299 405 279 432 255 _c
458 230 472 195 472 151 _c
472 100 452 60 412 31 _c
372 1 316 -13 246 -13 _c
216 -13 186 -10 154 -5 _c
}_e{122 0 89 8 54 20 _c
54 113 _l
87 95 120 82 152 74 _c
184 65 216 61 248 61 _c
290 61 323 68 346 82 _c
368 96 380 117 380 144 _c
380 168 371 187 355 200 _c
339 213 303 226 247 238 _c
216 245 _l
160 257 119 275 95 299 _c
70 323 58 356 58 399 _c
58 450 76 490 112 518 _c
148 546 200 560 268 560 _c
301 560 332 557 362 552 _c
391 547 418 540 443 531 _c
}_e{_cl}_e}_d
/t{392 0 27 0 368 702 _sc
183 702 _m
183 547 _l
368 547 _l
368 477 _l
183 477 _l
183 180 _l
183 135 189 106 201 94 _c
213 81 238 75 276 75 _c
368 75 _l
368 0 _l
276 0 _l
206 0 158 13 132 39 _c
106 65 93 112 93 180 _c
93 477 _l
27 477 _l
27 547 _l
93 547 _l
93 702 _l
183 702 _l
_cl}_d
/u{634 0 85 -13 543 560 _sc
85 216 _m
85 547 _l
175 547 _l
175 219 _l
175 167 185 129 205 103 _c
225 77 255 64 296 64 _c
344 64 383 79 411 110 _c
439 141 453 183 453 237 _c
453 547 _l
543 547 _l
543 0 _l
453 0 _l
453 84 _l
431 50 405 26 377 10 _c
348 -5 315 -13 277 -13 _c
214 -13 166 6 134 45 _c
101 83 85 140 85 216 _c
311 560 _m
311 560 _l
_cl}_d
/y{592 0 30 -207 562 547 _sc
322 -50 _m
296 -114 271 -157 247 -177 _c
223 -197 191 -207 151 -207 _c
79 -207 _l
79 -132 _l
132 -132 _l
156 -132 175 -126 189 -114 _c
203 -102 218 -75 235 -31 _c
251 9 _l
30 547 _l
125 547 _l
296 119 _l
467 547 _l
562 547 _l
322 -50 _l
_cl}_d
end readonly def

/BuildGlyph
 {exch begin
 CharStrings exch
 2 copy known not{pop /.notdef}if
 true 3 1 roll get exec
 end}_d

/BuildChar {
 1 index /Encoding get exch get
 1 index /BuildGlyph get exec
}_d

FontName currentdict end definefont pop
end
%%EndProlog
mpldict begin
49.507 230.128 translate
512.985 331.744 0 0 clipbox
gsave
0 0 m
512.985375 0 l
512.985375 331.743875 l
0 331.743875 l
cl
1.000 setgray
fill
grestore
gsave
30.10625 23.871875 m
387.22625 23.871875 l
387.22625 289.983875 l
30.10625 289.983875 l
cl
1.000 setgray
fill
grestore
0.800 setlinewidth
1 setlinejoin
0 setlinecap
[] 0 setdash
0.000 setgray
gsave
/o {
gsave
newpath
translate
0.8 setlinewidth
1 setlinejoin
0 setlinecap
0 0 m
0 -3.5 l

gsave
0.000 setgray
fill
grestore
stroke
grestore
} bind def
46.339 23.8719 o
grestore
/DejaVuSans findfont
10.000 scalefont
setfont
gsave
43.159290 9.278125 translate
0.000000 rotate
0.000000 0.000000 m /zero glyphshow
grestore
gsave
/o {
gsave
newpath
translate
0.8 setlinewidth
1 setlinejoin
0 setlinecap
0 0 m
0 -3.5 l

gsave
0.000 setgray
fill
grestore
stroke
grestore
} bind def
91.9365 23.8719 o
grestore
gsave
85.577151 9.278125 translate
0.000000 rotate
0.000000 0.000000 m /five glyphshow
6.362305 0.000000 m /zero glyphshow
grestore
gsave
/o {
gsave
newpath
translate
0.8 setlinewidth
1 setlinejoin
0 setlinecap
0 0 m
0 -3.5 l

gsave
0.000 setgray
fill
grestore
stroke
grestore
} bind def
137.534 23.8719 o
grestore
gsave
127.995012 9.278125 translate
0.000000 rotate
0.000000 0.000000 m /one glyphshow
6.362305 0.000000 m /zero glyphshow
12.724609 0.000000 m /zero glyphshow
grestore
gsave
/o {
gsave
newpath
translate
0.8 setlinewidth
1 setlinejoin
0 setlinecap
0 0 m
0 -3.5 l

gsave
0.000 setgray
fill
grestore
stroke
grestore
} bind def
183.132 23.8719 o
grestore
gsave
173.592560 9.278125 translate
0.000000 rotate
0.000000 0.000000 m /one glyphshow
6.362305 0.000000 m /five glyphshow
12.724609 0.000000 m /zero glyphshow
grestore
gsave
/o {
gsave
newpath
translate
0.8 setlinewidth
1 setlinejoin
0 setlinecap
0 0 m
0 -3.5 l

gsave
0.000 setgray
fill
grestore
stroke
grestore
} bind def
228.729 23.8719 o
grestore
gsave
219.190109 9.278125 translate
0.000000 rotate
0.000000 0.000000 m /two glyphshow
6.362305 0.000000 m /zero glyphshow
12.724609 0.000000 m /zero glyphshow
grestore
gsave
/o {
gsave
newpath
translate
0.8 setlinewidth
1 setlinejoin
0 setlinecap
0 0 m
0 -3.5 l

gsave
0.000 setgray
fill
grestore
stroke
grestore
} bind def
274.327 23.8719 o
grestore
gsave
264.787657 9.278125 translate
0.000000 rotate
0.000000 0.000000 m /two glyphshow
6.362305 0.000000 m /five glyphshow
12.724609 0.000000 m /zero glyphshow
grestore
gsave
/o {
gsave
newpath
translate
0.8 setlinewidth
1 setlinejoin
0 setlinecap
0 0 m
0 -3.5 l

gsave
0.000 setgray
fill
grestore
stroke
grestore
} bind def
319.924 23.8719 o
grestore
gsave
310.385206 9.278125 translate
0.000000 rotate
0.000000 0.000000 m /three glyphshow
6.362305 0.000000 m /zero glyphshow
12.724609 0.000000 m /zero glyphshow
grestore
gsave
/o {
gsave
newpath
translate
0.8 setlinewidth
1 setlinejoin
0 setlinecap
0 0 m
0 -3.5 l

gsave
0.000 setgray
fill
grestore
stroke
grestore
} bind def
365.522 23.8719 o
grestore
gsave
355.982754 9.278125 translate
0.000000 rotate
0.000000 0.000000 m /three glyphshow
6.362305 0.000000 m /five glyphshow
12.724609 0.000000 m /zero glyphshow
grestore
gsave
/o {
gsave
newpath
translate
0.8 setlinewidth
1 setlinejoin
0 setlinecap
0 0 m
-3.5 0 l

gsave
0.000 setgray
fill
grestore
stroke
grestore
} bind def
30.1062 56.6234 o
grestore
gsave
7.200000 52.826535 translate
0.000000 rotate
0.000000 0.000000 m /zero glyphshow
6.362305 0.000000 m /period glyphshow
9.541016 0.000000 m /zero glyphshow
grestore
gsave
/o {
gsave
newpath
translate
0.8 setlinewidth
1 setlinejoin
0 setlinecap
0 0 m
-3.5 0 l

gsave
0.000 setgray
fill
grestore
stroke
grestore
} bind def
30.1062 95.846 o
grestore
gsave
7.200000 92.049168 translate
0.000000 rotate
0.000000 0.000000 m /zero glyphshow
6.362305 0.000000 m /period glyphshow
9.541016 0.000000 m /two glyphshow
grestore
gsave
/o {
gsave
newpath
translate
0.8 setlinewidth
1 setlinejoin
0 setlinecap
0 0 m
-3.5 0 l

gsave
0.000 setgray
fill
grestore
stroke
grestore
} bind def
30.1062 135.069 o
grestore
gsave
7.200000 131.271800 translate
0.000000 rotate
0.000000 0.000000 m /zero glyphshow
6.362305 0.000000 m /period glyphshow
9.541016 0.000000 m /four glyphshow
grestore
gsave
/o {
gsave
newpath
translate
0.8 setlinewidth
1 setlinejoin
0 setlinecap
0 0 m
-3.5 0 l

gsave
0.000 setgray
fill
grestore
stroke
grestore
} bind def
30.1062 174.291 o
grestore
gsave
7.200000 170.494432 translate
0.000000 rotate
0.000000 0.000000 m /zero glyphshow
6.362305 0.000000 m /period glyphshow
9.541016 0.000000 m /six glyphshow
grestore
gsave
/o {
gsave
newpath
translate
0.8 setlinewidth
1 setlinejoin
0 setlinecap
0 0 m
-3.5 0 l

gsave
0.000 setgray
fill
grestore
stroke
grestore
} bind def
30.1062 213.514 o
grestore
gsave
7.200000 209.717065 translate
0.000000 rotate
0.000000 0.000000 m /zero glyphshow
6.362305 0.000000 m /period glyphshow
9.541016 0.000000 m /eight glyphshow
grestore
gsave
/o {
gsave
newpath
translate
0.8 setlinewidth
1 setlinejoin
0 setlinecap
0 0 m
-3.5 0 l

gsave
0.000 setgray
fill
grestore
stroke
grestore
} bind def
30.1062 252.737 o
grestore
gsave
7.200000 248.939697 translate
0.000000 rotate
0.000000 0.000000 m /one glyphshow
6.362305 0.000000 m /period glyphshow
9.541016 0.000000 m /zero glyphshow
grestore
1.500 setlinewidth
2 setlinecap
0.122 0.467 0.706 setrgbcolor
gsave
357.1 266.1 30.11 23.87 clipbox
46.338977 252.736572 m
162.156751 252.736572 l
163.068701 56.62341 l
370.993523 56.62341 l
370.993523 56.62341 l
stroke
grestore
1.000 0.498 0.055 setrgbcolor
gsave
357.1 266.1 30.11 23.87 clipbox
46.338977 56.62341 m
162.156751 56.62341 l
163.068701 252.736572 l
221.433564 252.736572 l
222.345515 56.62341 l
370.993523 56.62341 l
370.993523 56.62341 l
stroke
grestore
0.173 0.627 0.173 setrgbcolor
gsave
357.1 266.1 30.11 23.87 clipbox
46.338977 56.62341 m
221.433564 56.62341 l
222.345515 252.736572 l
370.993523 252.736572 l
370.993523 252.736572 l
stroke
grestore
0.839 0.153 0.157 setrgbcolor
gsave
357.1 266.1 30.11 23.87 clipbox
46.338977 56.62341 m
370.993523 56.62341 l
370.993523 56.62341 l
stroke
grestore
0.580 0.404 0.741 setrgbcolor
gsave
357.1 266.1 30.11 23.87 clipbox
46.338977 277.887875 m
47.250928 275.553344 l
48.162879 275.372254 l
49.07483 275.597599 l
49.986781 274.388369 l
50.898732 276.213459 l
51.810683 276.37103 l
53.634585 271.760531 l
54.546536 271.710782 l
55.458487 271.088866 l
56.370438 271.993685 l
57.282389 270.137338 l
58.19434 269.945797 l
59.106291 270.4266 l
60.018242 269.900934 l
60.930193 267.040503 l
61.842144 266.750049 l
62.754095 265.935892 l
63.666046 264.1858 l
64.577997 263.092714 l
65.489948 266.366571 l
66.401899 266.504598 l
67.31385 268.123934 l
68.225801 267.552586 l
69.137752 267.810661 l
70.049703 263.271233 l
70.961653 261.625526 l
71.873604 261.810567 l
72.785555 261.308022 l
73.697506 260.02688 l
74.609457 258.999301 l
75.521408 259.767706 l
76.433359 263.582027 l
77.34531 264.53054 l
78.257261 266.893265 l
79.169212 270.107927 l
80.081163 270.355693 l
80.993114 271.278887 l
81.905065 270.762643 l
82.817016 271.646257 l
83.728967 270.494047 l
84.640918 266.404725 l
85.552869 265.688524 l
86.46482 266.353409 l
87.376771 266.550303 l
88.288722 265.84502 l
89.200673 270.143439 l
90.112624 271.320173 l
91.936526 271.764061 l
92.848477 272.426632 l
93.760428 271.731355 l
94.672379 270.311087 l
95.58433 269.366057 l
96.496281 271.250412 l
97.408232 272.579433 l
98.320183 270.574866 l
100.144085 268.995835 l
101.056035 271.544841 l
101.967986 271.243024 l
102.879937 273.166374 l
103.791888 273.646896 l
104.703839 270.377645 l
105.61579 267.796775 l
106.527741 267.287824 l
107.439692 266.986008 l
108.351643 266.834305 l
109.263594 265.151005 l
110.175545 263.957906 l
111.087496 263.012059 l
111.999447 263.815555 l
112.911398 264.212685 l
114.7353 261.880492 l
116.559202 261.046814 l
117.471153 262.312503 l
118.383104 260.714231 l
119.295055 258.501666 l
120.207006 257.602809 l
122.030908 260.456133 l
122.942859 263.795893 l
123.85481 268.175857 l
125.678712 270.719953 l
126.590663 270.725214 l
127.502614 267.843532 l
129.326516 265.563238 l
130.238467 266.772375 l
131.150418 269.20692 l
132.062368 269.198176 l
132.974319 267.714482 l
133.88627 265.234303 l
134.798221 265.142449 l
135.710172 266.325004 l
136.622123 268.124308 l
137.534074 267.116413 l
138.446025 266.949584 l
139.357976 263.641595 l
140.269927 261.85024 l
141.181878 260.793555 l
142.093829 260.239344 l
143.00578 253.358557 l
143.917731 252.292065 l
144.829682 248.802565 l
145.741633 250.889985 l
146.653584 251.608898 l
147.565535 253.891283 l
148.477486 254.1585 l
149.389437 253.882984 l
150.301388 254.385388 l
151.213339 254.373161 l
152.12529 255.442003 l
153.037241 253.027003 l
153.949192 250.943124 l
154.861143 248.045194 l
155.773094 243.1423 l
156.685045 247.970126 l
157.596996 251.591621 l
158.508947 253.474772 l
159.420898 256.683379 l
160.332849 255.489321 l
162.156751 254.509809 l
163.068701 250.462182 l
163.980652 214.004213 l
164.892603 105.11879 l
165.804554 90.419537 l
166.716505 61.127718 l
167.628456 59.936556 l
168.540407 60.692498 l
169.452358 60.651892 l
170.364309 62.70525 l
171.27626 62.726215 l
172.188211 62.439314 l
173.100162 64.054292 l
174.012113 62.887489 l
174.924064 66.137043 l
175.836015 67.248121 l
176.747966 62.92274 l
177.659917 61.583993 l
179.483819 61.099509 l
180.39577 60.566841 l
181.307721 60.658701 l
182.219672 60.911911 l
183.131623 60.754857 l
184.043574 61.458299 l
184.955525 61.962234 l
185.867476 63.373332 l
186.779427 65.767505 l
187.691378 63.134094 l
188.603329 63.194498 l
189.51528 62.712229 l
190.427231 62.551981 l
191.339182 68.969616 l
192.251133 65.800416 l
193.163084 66.838138 l
194.075034 65.331969 l
194.986985 89.036859 l
195.898936 123.426628 l
196.810887 115.013368 l
197.722838 114.112261 l
198.634789 85.312966 l
199.54674 71.741942 l
200.458691 66.762623 l
201.370642 63.973727 l
202.282593 59.768491 l
203.194544 57.089186 l
204.106495 53.526294 l
205.018446 52.592341 l
205.930397 52.033673 l
206.842348 53.181686 l
208.66625 58.204279 l
209.578201 59.042764 l
210.490152 57.590713 l
211.402103 56.934341 l
212.314054 56.540451 l
213.226005 56.633372 l
214.137956 56.336585 l
215.049907 53.62072 l
215.961858 54.21613 l
216.873809 55.519538 l
217.78576 54.03933 l
218.697711 54.066213 l
219.609662 53.737534 l
220.521613 52.8879 l
221.433564 50.422371 l
222.345515 50.396642 l
223.257466 58.795603 l
224.169416 61.181602 l
225.081367 62.213162 l
225.993318 62.602575 l
226.905269 62.736399 l
227.81722 62.464729 l
228.729171 63.5884 l
229.641122 62.972201 l
231.465024 64.646505 l
232.376975 64.750171 l
233.288926 62.187986 l
234.200877 61.920787 l
235.112828 60.891531 l
236.024779 60.476337 l
236.93673 62.638551 l
237.848681 64.269787 l
238.760632 64.870875 l
240.584534 65.149169 l
241.496485 64.911883 l
242.408436 64.98469 l
243.320387 64.481532 l
244.232338 63.759297 l
245.144289 63.569597 l
246.05624 64.105474 l
246.968191 64.449398 l
247.880142 64.546653 l
248.792093 64.008374 l
249.704044 64.158429 l
250.615995 63.970819 l
252.439897 64.006863 l
253.351848 63.613526 l
254.263799 63.631124 l
255.175749 63.536911 l
256.0877 61.333349 l
256.999651 61.23442 l
257.911602 62.01995 l
258.823553 63.166987 l
259.735504 63.667285 l
260.647455 61.319749 l
261.559406 61.107273 l
262.471357 61.605674 l
263.383308 62.671673 l
264.295259 62.779041 l
265.20721 61.763271 l
266.119161 61.604835 l
267.031112 61.638556 l
268.855014 66.243529 l
269.766965 66.756118 l
270.678916 66.577427 l
271.590867 63.866887 l
272.502818 62.824232 l
273.414769 61.475738 l
274.32672 61.33624 l
275.238671 61.325354 l
276.150622 61.13846 l
277.974524 61.371228 l
278.886475 63.625352 l
279.798426 62.065342 l
280.710377 61.840771 l
281.622328 62.777896 l
282.534279 62.505288 l
283.44623 61.200986 l
284.358181 61.241165 l
285.270132 62.95512 l
287.094033 63.417883 l
288.917935 62.67913 l
289.829886 62.665787 l
290.741837 62.943787 l
291.653788 62.929777 l
293.47769 62.598834 l
294.389641 62.260816 l
295.301592 62.430415 l
296.213543 62.364485 l
297.125494 62.893994 l
298.037445 63.168273 l
298.949396 62.254159 l
299.861347 61.868685 l
300.773298 61.824424 l
301.685249 62.083861 l
302.5972 62.663113 l
303.509151 63.624835 l
304.421102 63.848155 l
305.333053 63.015319 l
307.156955 63.860993 l
308.980857 64.176395 l
309.892808 64.299548 l
310.804759 63.935819 l
311.71671 63.809788 l
312.628661 61.257363 l
313.540612 59.380227 l
314.452563 58.315798 l
316.276465 59.979175 l
317.188415 59.469048 l
318.100366 60.276784 l
319.012317 59.81047 l
319.924268 59.719116 l
322.660121 58.670195 l
323.572072 59.087236 l
324.484023 59.642738 l
325.395974 60.567648 l
327.219876 61.502183 l
328.131827 61.932704 l
329.043778 63.433748 l
329.955729 63.264213 l
330.86768 63.420896 l
332.691582 63.371766 l
333.603533 63.487992 l
334.515484 64.247624 l
335.427435 64.219628 l
336.339386 64.311114 l
337.251337 63.545795 l
338.163288 60.753638 l
339.98719 61.602264 l
341.811092 61.156339 l
342.723043 61.462808 l
343.634994 61.327926 l
344.546945 62.098858 l
345.458896 62.213369 l
346.370847 62.961029 l
347.282797 62.958448 l
348.194748 63.857752 l
350.01865 64.409015 l
350.930601 64.483724 l
351.842552 64.321421 l
352.754503 64.299475 l
353.666454 63.9187 l
355.490356 63.458243 l
356.402307 63.135602 l
357.314258 63.195118 l
358.226209 63.389013 l
359.13816 63.359805 l
360.050111 63.54586 l
360.962062 62.848639 l
361.874013 61.539127 l
362.785964 61.044134 l
363.697915 61.274935 l
366.433768 61.398792 l
367.345719 61.707183 l
369.169621 61.371906 l
370.081572 63.285212 l
370.993523 64.183526 l
370.993523 64.183526 l
stroke
grestore
0.549 0.337 0.294 setrgbcolor
gsave
357.1 266.1 30.11 23.87 clipbox
46.338977 35.967875 m
47.250928 37.683893 l
48.162879 36.839926 l
49.07483 36.367253 l
49.986781 37.807042 l
50.898732 37.143098 l
51.810683 37.064584 l
53.634585 41.859128 l
54.546536 42.339551 l
55.458487 42.288723 l
56.370438 41.081305 l
57.282389 43.909915 l
58.19434 43.643888 l
59.106291 43.684233 l
60.018242 44.933356 l
60.930193 46.483979 l
61.842144 46.774337 l
62.754095 48.54649 l
63.666046 49.772541 l
64.577997 50.520872 l
65.489948 46.525035 l
67.31385 45.284469 l
68.225801 45.861719 l
69.137752 45.209809 l
70.049703 49.963809 l
70.961653 51.575971 l
71.873604 50.956464 l
72.785555 51.370892 l
73.697506 52.433059 l
74.609457 53.208647 l
75.521408 51.956284 l
76.433359 47.443533 l
77.34531 46.03797 l
79.169212 40.898166 l
80.081163 40.493493 l
80.993114 39.748773 l
81.905065 39.431322 l
82.817016 38.323964 l
83.728967 39.215416 l
84.640918 43.497298 l
85.552869 42.983819 l
86.46482 42.013035 l
87.376771 41.693135 l
88.288722 41.976962 l
89.200673 37.94729 l
90.112624 36.993034 l
91.024575 37.564148 l
91.936526 37.535585 l
92.848477 37.009268 l
93.760428 37.890436 l
94.672379 39.503211 l
95.58433 40.536395 l
97.408232 36.670104 l
98.320183 39.321742 l
99.232134 40.650117 l
100.144085 40.845684 l
101.056035 39.208598 l
101.967986 38.885569 l
102.879937 37.072811 l
103.791888 37.23606 l
104.703839 42.018675 l
105.61579 44.519343 l
106.527741 45.031674 l
107.439692 45.103852 l
108.351643 44.071758 l
109.263594 47.162552 l
110.175545 49.168832 l
111.087496 49.530395 l
112.911398 48.9249 l
113.823349 49.411021 l
114.7353 51.678366 l
115.647251 52.475512 l
116.559202 52.499784 l
117.471153 51.806407 l
118.383104 52.718964 l
119.295055 54.857966 l
120.207006 56.259934 l
121.118957 54.360714 l
122.030908 51.99762 l
123.85481 43.175581 l
124.766761 41.574679 l
125.678712 40.595561 l
126.590663 41.03626 l
127.502614 43.333012 l
128.414565 43.777811 l
129.326516 43.872433 l
131.150418 39.449379 l
132.062368 39.510546 l
132.974319 40.361743 l
133.88627 43.107424 l
134.798221 42.683434 l
135.710172 41.397195 l
136.622123 40.696579 l
138.446025 42.692341 l
139.357976 46.85627 l
140.269927 48.5435 l
142.093829 50.355601 l
143.00578 58.40408 l
143.917731 59.846756 l
144.829682 62.430827 l
145.741633 61.526464 l
146.653584 60.238019 l
147.565535 59.145056 l
148.477486 59.293109 l
149.389437 59.717274 l
150.301388 59.145152 l
151.213339 59.200743 l
152.12529 58.75635 l
153.949192 65.238545 l
154.861143 67.323239 l
155.773094 77.395309 l
156.685045 65.406438 l
157.596996 60.162462 l
159.420898 54.494608 l
160.332849 56.775208 l
161.2448 58.646345 l
162.156751 59.340293 l
163.068701 63.392382 l
163.980652 105.33733 l
164.892603 206.607521 l
165.804554 219.071657 l
166.716505 247.919021 l
167.628456 248.692662 l
168.540407 247.448411 l
169.452358 249.852704 l
170.364309 248.659465 l
171.27626 249.415701 l
172.188211 252.40247 l
173.100162 251.709753 l
174.012113 254.063653 l
174.924064 251.213193 l
175.836015 248.922894 l
176.747966 254.180101 l
177.659917 254.718158 l
178.571868 253.229227 l
179.483819 253.362976 l
180.39577 253.148665 l
181.307721 253.225463 l
182.219672 252.963367 l
184.043574 253.159092 l
184.955525 251.851309 l
185.867476 252.995208 l
186.779427 249.256049 l
187.691378 252.551169 l
188.603329 253.552739 l
189.51528 253.608286 l
190.427231 254.378772 l
191.339182 245.120063 l
192.251133 248.504091 l
193.163084 247.162866 l
194.075034 248.361506 l
194.986985 223.41785 l
195.898936 190.843835 l
196.810887 199.543961 l
197.722838 200.054255 l
198.634789 228.203887 l
199.54674 241.593252 l
200.458691 246.857695 l
201.370642 250.397996 l
202.282593 254.721665 l
203.194544 255.104207 l
204.106495 254.288578 l
205.018446 254.932165 l
205.930397 254.178138 l
206.842348 255.403078 l
207.754299 254.570172 l
208.66625 256.067682 l
209.578201 256.585283 l
210.490152 257.758112 l
211.402103 258.743633 l
212.314054 258.513285 l
213.226005 259.293636 l
214.137956 258.510222 l
215.049907 259.689809 l
216.873809 257.73609 l
217.78576 257.26534 l
218.697711 257.408042 l
219.609662 257.210962 l
220.521613 258.290535 l
221.433564 259.044749 l
222.345515 259.044164 l
223.257466 248.97975 l
224.169416 217.369701 l
225.081367 202.411136 l
225.993318 200.625731 l
226.905269 199.84033 l
227.81722 204.749572 l
228.729171 187.428959 l
229.641122 202.142915 l
230.553073 188.610521 l
231.465024 177.17082 l
232.376975 171.975355 l
233.288926 136.089814 l
234.200877 132.249128 l
236.024779 102.228333 l
236.93673 135.239444 l
237.848681 152.645897 l
238.760632 162.537672 l
239.672583 161.336262 l
240.584534 175.957288 l
241.496485 175.041493 l
242.408436 166.478658 l
244.232338 137.439292 l
245.144289 130.644644 l
246.05624 140.101497 l
246.968191 155.828004 l
247.880142 160.184029 l
248.792093 166.637819 l
249.704044 170.054272 l
250.615995 170.308993 l
251.527946 165.858064 l
252.439897 149.127647 l
253.351848 144.387397 l
254.263799 137.518732 l
255.175749 135.780312 l
256.0877 94.750342 l
256.999651 74.007129 l
257.911602 64.784747 l
258.823553 62.158135 l
259.735504 60.976861 l
260.647455 75.656494 l
261.559406 80.620592 l
262.471357 98.820506 l
263.383308 109.227602 l
264.295259 107.201842 l
266.119161 82.823877 l
267.031112 78.619734 l
267.943063 60.296848 l
268.855014 54.830663 l
269.766965 53.391771 l
270.678916 53.926068 l
271.590867 60.44402 l
272.502818 62.782206 l
273.414769 81.311825 l
274.32672 87.007923 l
276.150622 79.018825 l
277.062573 75.864747 l
277.974524 65.600009 l
278.886475 59.704135 l
279.798426 62.6885 l
280.710377 63.037119 l
281.622328 60.924419 l
282.534279 61.557419 l
283.44623 71.592792 l
284.358181 91.108087 l
285.270132 124.06368 l
286.182082 146.451042 l
287.094033 147.114091 l
288.005984 131.792254 l
288.917935 121.040897 l
289.829886 122.133212 l
290.741837 134.198966 l
291.653788 139.903913 l
292.565739 135.034555 l
293.47769 148.82607 l
294.389641 156.126455 l
295.301592 159.126432 l
296.213543 159.522592 l
297.125494 157.342277 l
298.037445 143.89414 l
298.949396 115.664062 l
299.861347 107.818912 l
300.773298 109.616369 l
301.685249 111.8233 l
302.5972 120.795721 l
303.509151 136.536151 l
304.421102 142.570355 l
305.333053 123.07588 l
306.245004 131.709365 l
307.156955 142.637597 l
308.068906 149.867945 l
308.980857 158.033896 l
309.892808 156.718831 l
310.804759 139.796121 l
311.71671 173.153725 l
312.628661 201.91813 l
313.540612 220.291676 l
314.452563 226.353607 l
315.364514 221.73219 l
316.276465 213.348808 l
317.188415 216.444017 l
318.100366 208.711142 l
319.012317 211.525038 l
319.924268 213.148863 l
321.74817 218.248593 l
322.660121 221.225542 l
323.572072 219.096099 l
324.484023 214.96113 l
325.395974 205.370061 l
326.307925 201.359875 l
327.219876 199.565902 l
328.131827 191.692019 l
329.043778 156.210185 l
329.955729 141.616973 l
330.86768 142.577345 l
331.779631 136.518798 l
332.691582 138.147918 l
333.603533 142.666166 l
334.515484 161.909527 l
335.427435 171.928317 l
336.339386 157.081502 l
337.251337 137.789701 l
338.163288 91.764678 l
339.075239 72.697219 l
339.98719 69.356097 l
340.899141 77.960354 l
341.811092 97.64746 l
342.723043 105.539431 l
343.634994 101.160887 l
344.546945 107.288354 l
345.458896 105.243588 l
346.370847 113.559032 l
347.282797 114.031593 l
348.194748 127.701874 l
349.106699 137.547418 l
350.930601 150.99545 l
352.754503 154.73479 l
353.666454 150.81879 l
354.578405 157.817808 l
355.490356 145.786554 l
356.402307 140.84574 l
357.314258 148.862032 l
358.226209 154.669325 l
359.13816 158.535388 l
360.050111 151.731581 l
361.874013 100.342476 l
362.785964 93.340466 l
363.697915 96.43977 l
364.609866 96.60929 l
366.433768 96.8037 l
367.345719 98.372936 l
368.25767 89.185953 l
370.081572 61.765912 l
370.993523 59.715835 l
370.993523 59.715835 l
stroke
grestore
0.890 0.467 0.761 setrgbcolor
gsave
357.1 266.1 30.11 23.87 clipbox
46.338977 56.055751 m
47.250928 56.099387 l
48.162879 56.535957 l
49.07483 56.675737 l
49.986781 56.452443 l
50.898732 56.098791 l
51.810683 56.086493 l
52.722634 55.747745 l
54.546536 55.393519 l
56.370438 55.845847 l
57.282389 55.275657 l
58.19434 55.454794 l
59.106291 55.265744 l
60.018242 54.922022 l
60.930193 55.246463 l
61.842144 55.216696 l
62.754095 54.727273 l
64.577997 54.888035 l
65.489948 55.474742 l
66.401899 55.69118 l
67.31385 55.399376 l
68.225801 55.358598 l
69.137752 55.559425 l
70.049703 55.062269 l
70.961653 54.943904 l
71.873604 55.163709 l
74.609457 55.159045 l
75.521408 55.44722 l
76.433359 56.083653 l
78.257261 56.63216 l
80.993114 56.773547 l
81.905065 57.082903 l
82.817016 57.253023 l
83.728967 57.265542 l
84.640918 56.825886 l
85.552869 57.282976 l
86.46482 57.488497 l
88.288722 57.67317 l
89.200673 57.922028 l
90.112624 57.926996 l
91.024575 57.588235 l
93.760428 57.412756 l
95.58433 57.089969 l
97.408232 57.648675 l
98.320183 57.19391 l
99.232134 56.912445 l
100.144085 57.054387 l
101.056035 56.884501 l
101.967986 57.134856 l
102.879937 57.251357 l
103.791888 56.99185 l
104.703839 56.057551 l
105.61579 55.854865 l
106.527741 55.82082 l
107.439692 55.900991 l
108.351643 56.401723 l
109.263594 55.645259 l
110.175545 55.196363 l
111.087496 55.353834 l
111.999447 55.18946 l
112.911398 55.21814 l
113.823349 55.382052 l
114.7353 54.82029 l
115.647251 54.642134 l
116.559202 54.77441 l
117.471153 54.629352 l
118.383104 54.800488 l
119.295055 54.627704 l
120.207006 54.331399 l
121.118957 54.685437 l
122.030908 55.207561 l
122.942859 55.921207 l
123.85481 56.360069 l
124.766761 56.610371 l
125.678712 56.577705 l
126.590663 56.380975 l
127.502614 56.389087 l
128.414565 56.598138 l
129.326516 56.954368 l
130.238467 57.551046 l
132.974319 57.71635 l
133.88627 57.379547 l
135.710172 57.762978 l
136.622123 57.45437 l
137.534074 57.376075 l
138.446025 57.002487 l
139.357976 56.3361 l
142.093829 56.018626 l
143.00578 54.929047 l
143.917731 54.665331 l
144.829682 54.723959 l
145.741633 54.415982 l
146.653584 54.735251 l
147.565535 54.419898 l
149.389437 54.165627 l
151.213339 54.23595 l
152.12529 54.065369 l
153.949192 52.590214 l
154.861143 52.647339 l
155.773094 50.210761 l
156.685045 53.637513 l
157.596996 54.789606 l
158.508947 55.320058 l
159.420898 55.467454 l
161.2448 54.252987 l
162.156751 54.121027 l
163.068701 53.764546 l
163.980652 50.609434 l
164.892603 53.412167 l
165.804554 54.213512 l
166.716505 58.556696 l
167.628456 58.183692 l
168.540407 58.644664 l
169.452358 57.494727 l
171.27626 57.09046 l
173.100162 55.535111 l
174.012113 55.585644 l
174.924064 54.232303 l
175.836015 54.07842 l
176.747966 55.408803 l
177.659917 54.921986 l
178.571868 55.632085 l
179.483819 55.310304 l
180.39577 55.405735 l
181.307721 55.317282 l
182.219672 55.661548 l
183.131623 55.501043 l
184.043574 55.470026 l
184.955525 56.106377 l
186.779427 55.061726 l
187.691378 55.902131 l
188.603329 55.392017 l
189.51528 55.322075 l
190.427231 55.030498 l
191.339182 54.000078 l
192.251133 55.275733 l
193.163084 54.92879 l
194.075034 55.64551 l
194.986985 53.492163 l
195.898936 52.823128 l
196.810887 52.711817 l
198.634789 53.082343 l
199.54674 53.56096 l
200.458691 55.052935 l
201.370642 56.040023 l
202.282593 54.637061 l
203.194544 55.300239 l
204.106495 57.338693 l
205.018446 57.611918 l
205.930397 58.184843 l
207.754299 55.995574 l
208.66625 54.226102 l
209.578201 53.749063 l
210.490152 53.903478 l
211.402103 53.836551 l
212.314054 54.125609 l
213.226005 53.799496 l
214.137956 54.241193 l
215.049907 55.286598 l
215.961858 55.285633 l
216.873809 54.893897 l
217.78576 55.854392 l
218.697711 55.760819 l
220.521613 56.140983 l
221.433564 57.214606 l
222.345515 57.215524 l
223.257466 60.305233 l
224.169416 91.434708 l
225.081367 105.078489 l
225.993318 106.607695 l
226.905269 107.19771 l
227.81722 102.927198 l
228.729171 120.530714 l
229.641122 106.727708 l
231.465024 131.721925 l
232.376975 136.776552 l
233.288926 174.612766 l
234.200877 178.525184 l
236.024779 207.954754 l
236.93673 175.478309 l
237.848681 157.427819 l
238.760632 147.282849 l
239.672583 148.827882 l
240.584534 133.856705 l
241.496485 134.811898 l
242.408436 144.094815 l
244.232338 174.556214 l
245.144289 181.659821 l
246.05624 170.672669 l
246.968191 153.182013 l
247.880142 148.618323 l
248.792093 141.135715 l
249.704044 138.026946 l
250.615995 137.96051 l
251.527946 142.354384 l
252.439897 161.103938 l
253.351848 165.482523 l
254.263799 173.094835 l
255.175749 174.67258 l
256.0877 216.939396 l
256.999651 233.867565 l
257.911602 241.286549 l
258.823553 245.761523 l
259.735504 247.509604 l
260.647455 232.138865 l
261.559406 228.977155 l
262.471357 213.359609 l
263.383308 202.286424 l
264.295259 205.021978 l
265.20721 218.025959 l
266.119161 229.12112 l
267.031112 232.206616 l
267.943063 250.071048 l
268.855014 259.289148 l
269.766965 261.106616 l
270.678916 260.264265 l
271.590867 248.530357 l
272.502818 244.761531 l
273.414769 228.993637 l
274.32672 224.45519 l
276.150622 232.29999 l
277.062573 235.251901 l
278.886475 252.460448 l
279.798426 247.234369 l
280.710377 246.388885 l
281.622328 249.380563 l
282.534279 247.652961 l
283.44623 237.38367 l
284.358181 219.442276 l
285.270132 185.122237 l
286.182082 161.428864 l
287.094033 161.848006 l
288.005984 178.198913 l
288.917935 189.935533 l
289.829886 188.568264 l
290.741837 175.48053 l
291.653788 169.100324 l
292.565739 173.803145 l
293.47769 158.331738 l
294.389641 150.528587 l
295.301592 147.432273 l
296.213543 147.025013 l
297.125494 150.128148 l
298.037445 164.614163 l
298.949396 195.061529 l
299.861347 203.17801 l
300.773298 201.181859 l
301.685249 198.77233 l
302.5972 189.039037 l
303.509151 172.216329 l
304.421102 166.214013 l
305.333053 187.089246 l
306.245004 177.729286 l
307.156955 166.358773 l
308.068906 159.341818 l
308.980857 150.909061 l
309.892808 152.528291 l
310.804759 170.541539 l
311.71671 134.699021 l
312.628661 105.83313 l
313.540612 87.941687 l
314.452563 81.306033 l
315.364514 87.128708 l
316.276465 95.659217 l
317.188415 92.245416 l
318.100366 100.14839 l
319.012317 97.126773 l
319.924268 95.52752 l
321.74817 89.912659 l
322.660121 86.485261 l
323.572072 88.54461 l
324.484023 92.86362 l
325.395974 102.644558 l
326.307925 106.534894 l
327.219876 108.863148 l
328.131827 116.553159 l
329.043778 153.039801 l
329.955729 168.233566 l
330.86768 166.72377 l
331.779631 173.379807 l
332.691582 171.582467 l
333.603533 166.764834 l
334.515484 146.780778 l
335.427435 136.381409 l
336.339386 153.044641 l
337.251337 173.914006 l
338.163288 219.551758 l
339.075239 233.341058 l
339.98719 235.756292 l
340.899141 229.603045 l
341.811092 213.754846 l
342.723043 206.429295 l
343.634994 211.066574 l
344.546945 204.776118 l
345.458896 207.00907 l
346.370847 198.934156 l
347.282797 198.468152 l
348.194748 184.077276 l
349.106699 173.287953 l
350.01865 166.934095 l
350.930601 159.17472 l
351.842552 156.632038 l
352.754503 154.894185 l
353.666454 158.662357 l
354.578405 151.140186 l
355.490356 163.865361 l
356.402307 169.096747 l
357.314258 160.328625 l
358.226209 154.389612 l
359.13816 149.966614 l
360.050111 157.819585 l
361.874013 211.532695 l
362.785964 218.131887 l
363.697915 214.673832 l
364.609866 214.675281 l
365.521817 214.851859 l
366.433768 214.856207 l
367.345719 213.168232 l
368.25767 221.943403 l
370.081572 247.116121 l
370.993523 250.398323 l
370.993523 250.398323 l
stroke
grestore
0.498 setgray
gsave
357.1 266.1 30.11 23.87 clipbox
46.338977 56.254507 m
48.162879 56.215456 l
49.986781 56.240991 l
52.722634 56.369883 l
54.546536 56.483581 l
56.370438 56.394258 l
57.282389 56.543044 l
59.106291 56.542247 l
60.930193 56.634913 l
62.754095 56.736566 l
64.577997 56.800047 l
65.489948 56.612435 l
69.137752 56.579313 l
70.049703 56.767373 l
71.873604 56.797254 l
75.521408 56.804711 l
76.433359 56.608078 l
80.993114 56.328491 l
83.728967 56.259323 l
84.640918 56.427832 l
87.376771 56.294732 l
88.288722 56.293172 l
89.200673 56.143956 l
91.024575 56.17744 l
94.672379 56.271556 l
95.58433 56.315919 l
97.408232 56.139014 l
99.232134 56.327947 l
103.791888 56.201432 l
104.703839 56.445658 l
106.527741 56.555561 l
109.263594 56.631383 l
110.175545 56.740555 l
113.823349 56.728535 l
115.647251 56.888289 l
119.295055 56.968238 l
120.207006 57.03544 l
122.030908 56.830086 l
123.85481 56.458709 l
125.678712 56.354277 l
129.326516 56.418481 l
131.150418 56.229214 l
132.974319 56.247026 l
133.88627 56.359789 l
136.622123 56.288014 l
138.446025 56.405105 l
139.357976 56.595161 l
142.093829 56.721495 l
143.00578 57.077045 l
145.741633 57.195556 l
147.565535 57.140158 l
153.037241 57.275905 l
154.861143 57.413757 l
155.773094 56.872126 l
156.685045 57.34372 l
158.508947 56.983303 l
159.420898 56.892641 l
163.068701 57.212114 l
163.980652 56.880802 l
164.892603 57.398096 l
165.804554 57.507408 l
166.716505 57.352084 l
167.628456 57.582437 l
173.100162 56.87004 l
174.012113 56.922352 l
174.924064 56.643753 l
175.836015 56.595135 l
177.659917 57.223865 l
179.483819 57.354565 l
180.39577 57.468819 l
183.131623 57.428915 l
184.955525 57.195723 l
185.867476 56.892389 l
186.779427 56.721194 l
187.691378 56.915064 l
188.603329 56.890297 l
190.427231 56.98375 l
191.339182 56.464764 l
192.251133 56.712422 l
193.163084 56.633212 l
194.075034 56.769299 l
194.986985 57.287285 l
195.898936 57.140672 l
198.634789 57.268629 l
199.54674 56.574623 l
201.370642 56.836112 l
202.282593 57.568563 l
204.106495 56.004963 l
205.018446 55.783252 l
206.842348 55.797428 l
208.66625 56.673593 l
209.578201 56.900037 l
210.490152 56.284314 l
211.402103 55.953564 l
213.226005 55.815622 l
214.137956 55.858913 l
215.049907 55.32708 l
216.873809 55.767445 l
217.78576 55.589477 l
219.609662 55.529583 l
220.521613 55.308999 l
221.433564 54.868827 l
222.345515 54.858024 l
223.257466 57.269114 l
224.169416 57.799508 l
225.081367 58.197468 l
226.905269 58.135998 l
227.81722 57.863521 l
228.729171 58.099378 l
229.641122 57.591384 l
231.465024 58.094472 l
232.376975 58.213944 l
233.288926 59.349792 l
234.200877 59.423385 l
235.112828 59.870756 l
236.024779 60.101499 l
236.93673 59.116738 l
237.848681 58.453402 l
238.760632 57.983865 l
239.672583 57.874816 l
240.584534 57.432974 l
242.408436 57.512008 l
244.232338 58.235944 l
245.144289 58.428293 l
246.968191 57.860824 l
248.792093 57.620661 l
250.615995 57.409925 l
251.527946 57.489754 l
252.439897 57.775662 l
254.263799 58.030841 l
255.175749 58.127001 l
256.0877 59.296961 l
256.999651 58.418407 l
257.911602 57.21611 l
259.735504 57.38174 l
260.647455 58.730998 l
261.559406 59.068501 l
262.471357 59.086135 l
263.383308 58.758526 l
264.295259 58.71415 l
265.20721 59.041034 l
266.119161 59.000712 l
267.031112 58.828903 l
267.943063 57.249205 l
269.766965 57.509572 l
271.590867 57.462371 l
272.502818 57.377111 l
273.414769 59.138721 l
275.238671 58.926069 l
276.150622 58.816019 l
277.062573 58.483535 l
277.974524 57.402403 l
278.886475 57.211641 l
280.710377 57.262509 l
282.534279 57.54523 l
283.44623 58.414279 l
284.358181 58.750337 l
285.270132 57.781752 l
286.182082 57.3868 l
287.094033 57.196558 l
288.917935 57.711301 l
289.829886 57.698882 l
290.741837 57.42447 l
291.653788 57.38882 l
292.565739 57.572117 l
293.47769 57.471174 l
296.213543 57.508314 l
297.125494 57.436086 l
298.037445 57.647784 l
298.949396 58.306497 l
299.861347 58.544432 l
301.685249 58.662061 l
302.5972 58.482368 l
303.509151 58.088341 l
304.421102 57.908554 l
305.333053 58.368846 l
307.156955 57.933816 l
308.980857 57.542683 l
309.892808 57.555094 l
310.804759 57.980672 l
311.71671 57.356462 l
313.540612 56.642558 l
314.452563 56.675498 l
315.364514 56.553722 l
319.012317 56.809511 l
321.74817 56.803608 l
324.484023 56.955319 l
326.307925 57.142577 l
327.219876 57.111762 l
328.131827 57.266364 l
329.043778 57.965595 l
329.955729 58.334968 l
332.691582 58.454129 l
333.603533 58.356819 l
334.515484 57.916969 l
335.427435 57.620057 l
336.339386 57.810446 l
337.251337 58.307662 l
338.163288 59.464271 l
339.075239 58.200557 l
339.98719 57.865428 l
340.899141 58.820027 l
341.811092 59.500259 l
342.723043 59.278977 l
343.634994 59.336464 l
344.546945 59.076353 l
345.458896 59.101925 l
346.370847 58.721621 l
347.282797 58.632262 l
348.194748 58.196186 l
350.930601 57.532702 l
353.666454 57.449631 l
354.578405 57.259765 l
356.402307 57.698375 l
359.13816 57.423137 l
360.050111 57.467666 l
361.874013 58.834676 l
362.785964 59.172499 l
364.609866 59.137831 l
366.433768 59.167607 l
367.345719 59.121319 l
368.25767 59.194769 l
369.169621 58.575522 l
370.081572 57.273667 l
370.993523 57.332699 l
370.993523 57.332699 l
stroke
grestore
0.800 setlinewidth
0 setlinejoin
[] 0 setdash
0.000 setgray
gsave
30.10625 23.871875 m
30.10625 289.983875 l
stroke
grestore
gsave
387.22625 23.871875 m
387.22625 289.983875 l
stroke
grestore
gsave
30.10625 23.871875 m
387.22625 23.871875 l
stroke
grestore
gsave
30.10625 289.983875 m
387.22625 289.983875 l
stroke
grestore
/DejaVuSans findfont
12.000 scalefont
setfont
gsave
32.947500 295.983875 translate
0.000000 rotate
0.000000 0.000000 m /R glyphshow
8.337891 0.000000 m /M glyphshow
18.691406 0.000000 m /S glyphshow
26.308594 0.000000 m /E glyphshow
33.890625 0.000000 m /space glyphshow
37.705078 0.000000 m /equal glyphshow
47.759766 0.000000 m /space glyphshow
51.574219 0.000000 m /zero glyphshow
59.208984 0.000000 m /period glyphshow
63.023438 0.000000 m /two glyphshow
70.658203 0.000000 m /three glyphshow
78.292969 0.000000 m /three glyphshow
85.927734 0.000000 m /nine glyphshow
93.562500 0.000000 m /eight glyphshow
101.197266 0.000000 m /space glyphshow
105.011719 0.000000 m /a glyphshow
112.365234 0.000000 m /c glyphshow
118.962891 0.000000 m /c glyphshow
125.560547 0.000000 m /u glyphshow
133.166016 0.000000 m /r glyphshow
138.099609 0.000000 m /a glyphshow
145.453125 0.000000 m /c glyphshow
152.050781 0.000000 m /y glyphshow
159.152344 0.000000 m /space glyphshow
162.966797 0.000000 m /equal glyphshow
173.021484 0.000000 m /space glyphshow
176.835938 0.000000 m /eight glyphshow
184.470703 0.000000 m /four glyphshow
192.105469 0.000000 m /period glyphshow
195.919922 0.000000 m /zero glyphshow
203.554688 0.000000 m /three glyphshow
211.189453 0.000000 m /percent glyphshow
222.591797 0.000000 m /space glyphshow
226.406250 0.000000 m /R glyphshow
234.744141 0.000000 m /hyphen glyphshow
239.074219 0.000000 m /s glyphshow
245.326172 0.000000 m /q glyphshow
252.943359 0.000000 m /u glyphshow
260.548828 0.000000 m /a glyphshow
267.902344 0.000000 m /r glyphshow
272.835938 0.000000 m /e glyphshow
280.218750 0.000000 m /d glyphshow
287.835938 0.000000 m /space glyphshow
291.650391 0.000000 m /equal glyphshow
301.705078 0.000000 m /space glyphshow
305.519531 0.000000 m /seven glyphshow
313.154297 0.000000 m /zero glyphshow
320.789062 0.000000 m /period glyphshow
324.603516 0.000000 m /eight glyphshow
332.238281 0.000000 m /zero glyphshow
339.873047 0.000000 m /percent glyphshow
grestore
1.000 setlinewidth
0 setlinecap
0.800 setgray
gsave
407.08225 169.608875 m
503.785375 169.608875 l
505.118708 169.608875 505.785375 170.275542 505.785375 171.608875 c
505.785375 287.983875 l
505.785375 289.317208 505.118708 289.983875 503.785375 289.983875 c
407.08225 289.983875 l
405.748917 289.983875 405.08225 289.317208 405.08225 287.983875 c
405.08225 171.608875 l
405.08225 170.275542 405.748917 169.608875 407.08225 169.608875 c
cl
gsave
1.000 setgray
fill
grestore
stroke
grestore
1.500 setlinewidth
1 setlinejoin
2 setlinecap
[] 0 setdash
0.122 0.467 0.706 setrgbcolor
gsave
409.08225 281.890125 m
429.08225 281.890125 l
stroke
grestore
0.000 setgray
/DejaVuSans findfont
10.000 scalefont
setfont
gsave
437.082250 278.390125 translate
0.000000 rotate
0.000000 0.000000 m /A glyphshow
6.840820 0.000000 m /c glyphshow
12.338867 0.000000 m /t glyphshow
16.259766 0.000000 m /u glyphshow
22.597656 0.000000 m /a glyphshow
28.725586 0.000000 m /l glyphshow
31.503906 0.000000 m /space glyphshow
34.682617 0.000000 m /parenleft glyphshow
38.583984 0.000000 m /one glyphshow
44.946289 0.000000 m /parenright glyphshow
grestore
1.000 0.498 0.055 setrgbcolor
gsave
409.08225 267.21825 m
429.08225 267.21825 l
stroke
grestore
0.000 setgray
gsave
437.082250 263.718250 translate
0.000000 rotate
0.000000 0.000000 m /A glyphshow
6.840820 0.000000 m /c glyphshow
12.338867 0.000000 m /t glyphshow
16.259766 0.000000 m /u glyphshow
22.597656 0.000000 m /a glyphshow
28.725586 0.000000 m /l glyphshow
31.503906 0.000000 m /space glyphshow
34.682617 0.000000 m /parenleft glyphshow
38.583984 0.000000 m /two glyphshow
44.946289 0.000000 m /parenright glyphshow
grestore
0.173 0.627 0.173 setrgbcolor
gsave
409.08225 252.546375 m
429.08225 252.546375 l
stroke
grestore
0.000 setgray
gsave
437.082250 249.046375 translate
0.000000 rotate
0.000000 0.000000 m /A glyphshow
6.840820 0.000000 m /c glyphshow
12.338867 0.000000 m /t glyphshow
16.259766 0.000000 m /u glyphshow
22.597656 0.000000 m /a glyphshow
28.725586 0.000000 m /l glyphshow
31.503906 0.000000 m /space glyphshow
34.682617 0.000000 m /parenleft glyphshow
38.583984 0.000000 m /three glyphshow
44.946289 0.000000 m /parenright glyphshow
grestore
0.839 0.153 0.157 setrgbcolor
gsave
409.08225 237.8745 m
429.08225 237.8745 l
stroke
grestore
0.000 setgray
gsave
437.082250 234.374500 translate
0.000000 rotate
0.000000 0.000000 m /A glyphshow
6.840820 0.000000 m /c glyphshow
12.338867 0.000000 m /t glyphshow
16.259766 0.000000 m /u glyphshow
22.597656 0.000000 m /a glyphshow
28.725586 0.000000 m /l glyphshow
31.503906 0.000000 m /space glyphshow
34.682617 0.000000 m /parenleft glyphshow
38.583984 0.000000 m /four glyphshow
44.946289 0.000000 m /parenright glyphshow
grestore
0.580 0.404 0.741 setrgbcolor
gsave
409.08225 223.202625 m
429.08225 223.202625 l
stroke
grestore
0.000 setgray
gsave
437.082250 219.702625 translate
0.000000 rotate
0.000000 0.000000 m /P glyphshow
6.030273 0.000000 m /r glyphshow
10.141602 0.000000 m /e glyphshow
16.293945 0.000000 m /d glyphshow
22.641602 0.000000 m /i glyphshow
25.419922 0.000000 m /c glyphshow
30.917969 0.000000 m /t glyphshow
34.838867 0.000000 m /e glyphshow
40.991211 0.000000 m /d glyphshow
47.338867 0.000000 m /space glyphshow
50.517578 0.000000 m /parenleft glyphshow
54.418945 0.000000 m /one glyphshow
60.781250 0.000000 m /parenright glyphshow
grestore
0.549 0.337 0.294 setrgbcolor
gsave
409.08225 208.53075 m
429.08225 208.53075 l
stroke
grestore
0.000 setgray
gsave
437.082250 205.030750 translate
0.000000 rotate
0.000000 0.000000 m /P glyphshow
6.030273 0.000000 m /r glyphshow
10.141602 0.000000 m /e glyphshow
16.293945 0.000000 m /d glyphshow
22.641602 0.000000 m /i glyphshow
25.419922 0.000000 m /c glyphshow
30.917969 0.000000 m /t glyphshow
34.838867 0.000000 m /e glyphshow
40.991211 0.000000 m /d glyphshow
47.338867 0.000000 m /space glyphshow
50.517578 0.000000 m /parenleft glyphshow
54.418945 0.000000 m /two glyphshow
60.781250 0.000000 m /parenright glyphshow
grestore
0.890 0.467 0.761 setrgbcolor
gsave
409.08225 193.858875 m
429.08225 193.858875 l
stroke
grestore
0.000 setgray
gsave
437.082250 190.358875 translate
0.000000 rotate
0.000000 0.000000 m /P glyphshow
6.030273 0.000000 m /r glyphshow
10.141602 0.000000 m /e glyphshow
16.293945 0.000000 m /d glyphshow
22.641602 0.000000 m /i glyphshow
25.419922 0.000000 m /c glyphshow
30.917969 0.000000 m /t glyphshow
34.838867 0.000000 m /e glyphshow
40.991211 0.000000 m /d glyphshow
47.338867 0.000000 m /space glyphshow
50.517578 0.000000 m /parenleft glyphshow
54.418945 0.000000 m /three glyphshow
60.781250 0.000000 m /parenright glyphshow
grestore
0.498 setgray
gsave
409.08225 179.187 m
429.08225 179.187 l
stroke
grestore
0.000 setgray
gsave
437.082250 175.687000 translate
0.000000 rotate
0.000000 0.000000 m /P glyphshow
6.030273 0.000000 m /r glyphshow
10.141602 0.000000 m /e glyphshow
16.293945 0.000000 m /d glyphshow
22.641602 0.000000 m /i glyphshow
25.419922 0.000000 m /c glyphshow
30.917969 0.000000 m /t glyphshow
34.838867 0.000000 m /e glyphshow
40.991211 0.000000 m /d glyphshow
47.338867 0.000000 m /space glyphshow
50.517578 0.000000 m /parenleft glyphshow
54.418945 0.000000 m /four glyphshow
60.781250 0.000000 m /parenright glyphshow
grestore
/DejaVuSans findfont
12.000 scalefont
setfont
gsave
62.468750 315.418875 translate
0.000000 rotate
0.000000 0.000000 m /P glyphshow
7.236328 0.000000 m /e glyphshow
14.619141 0.000000 m /r glyphshow
19.552734 0.000000 m /c glyphshow
26.150391 0.000000 m /e glyphshow
33.533203 0.000000 m /p glyphshow
41.150391 0.000000 m /t glyphshow
45.855469 0.000000 m /r glyphshow
50.789062 0.000000 m /o glyphshow
58.130859 0.000000 m /n glyphshow
65.736328 0.000000 m /space glyphshow
69.550781 0.000000 m /parenleft glyphshow
74.232422 0.000000 m /c glyphshow
80.830078 0.000000 m /a glyphshow
88.183594 0.000000 m /t glyphshow
92.888672 0.000000 m /e glyphshow
100.271484 0.000000 m /g glyphshow
107.888672 0.000000 m /o glyphshow
115.230469 0.000000 m /r glyphshow
120.164062 0.000000 m /i glyphshow
123.498047 0.000000 m /c glyphshow
130.095703 0.000000 m /a glyphshow
137.449219 0.000000 m /l glyphshow
140.783203 0.000000 m /parenright glyphshow
145.464844 0.000000 m /space glyphshow
149.279297 0.000000 m /parenleft glyphshow
153.960938 0.000000 m /three glyphshow
161.595703 0.000000 m /zero glyphshow
169.230469 0.000000 m /comma glyphshow
173.044922 0.000000 m /space glyphshow
176.859375 0.000000 m /four glyphshow
184.494141 0.000000 m /zero glyphshow
192.128906 0.000000 m /comma glyphshow
195.943359 0.000000 m /space glyphshow
199.757812 0.000000 m /six glyphshow
207.392578 0.000000 m /zero glyphshow
215.027344 0.000000 m /comma glyphshow
218.841797 0.000000 m /space glyphshow
222.656250 0.000000 m /three glyphshow
230.291016 0.000000 m /zero glyphshow
237.925781 0.000000 m /comma glyphshow
241.740234 0.000000 m /space glyphshow
245.554688 0.000000 m /one glyphshow
253.189453 0.000000 m /five glyphshow
260.824219 0.000000 m /comma glyphshow
264.638672 0.000000 m /space glyphshow
268.453125 0.000000 m /four glyphshow
276.087891 0.000000 m /parenright glyphshow
grestore

end
showpage
