%!PS-Adobe-3.0 EPSF-3.0
%%Title: plots/9.eps
%%Creator: matplotlib version 2.2.2, http://matplotlib.org/
%%CreationDate: Thu May 31 19:18:27 2018
%%Orientation: portrait
%%BoundingBox: 55 230 556 561
%%EndComments
%%BeginProlog
/mpldict 8 dict def
mpldict begin
/m { moveto } bind def
/l { lineto } bind def
/r { rlineto } bind def
/c { curveto } bind def
/cl { closepath } bind def
/box {
m
1 index 0 r
0 exch r
neg 0 r
cl
} bind def
/clipbox {
box
clip
newpath
} bind def
%!PS-Adobe-3.0 Resource-Font
%%Title: DejaVu Sans
%%Copyright: Copyright (c) 2003 by Bitstream, Inc. All Rights Reserved. Copyright (c) 2006 by Tavmjong Bah. All Rights Reserved. DejaVu changes are in public domain 
%%Creator: Converted from TrueType to type 3 by PPR
25 dict begin
/_d{bind def}bind def
/_m{moveto}_d
/_l{lineto}_d
/_cl{closepath eofill}_d
/_c{curveto}_d
/_sc{7 -1 roll{setcachedevice}{pop pop pop pop pop pop}ifelse}_d
/_e{exec}_d
/FontName /DejaVuSans def
/PaintType 0 def
/FontMatrix[.001 0 0 .001 0 0]def
/FontBBox[-1021 -463 1793 1232]def
/FontType 3 def
/Encoding [ /space /percent /parenleft /parenright /comma /hyphen /period /zero /one /two /three /four /five /six /eight /nine /equal /A /C /E /M /N /P /R /S /a /c /d /e /i /l /n /o /q /r /s /t /u /v ] def
/FontInfo 10 dict dup begin
/FamilyName (DejaVu Sans) def
/FullName (DejaVu Sans) def
/Notice (Copyright (c) 2003 by Bitstream, Inc. All Rights Reserved. Copyright (c) 2006 by Tavmjong Bah. All Rights Reserved. DejaVu changes are in public domain ) def
/Weight (Book) def
/Version (Version 2.35) def
/ItalicAngle 0.0 def
/isFixedPitch false def
/UnderlinePosition -130 def
/UnderlineThickness 90 def
end readonly def
/CharStrings 40 dict dup begin
/.notdef 0 def
/space{318 0 0 0 0 0 _sc
}_d
/percent{{950 0 55 -13 895 742 _sc
727 321 _m
699 321 676 309 660 285 _c
644 261 636 227 636 184 _c
636 142 644 108 660 84 _c
676 60 699 48 727 48 _c
755 48 777 60 793 84 _c
809 108 817 142 817 184 _c
817 226 809 260 793 284 _c
777 308 755 321 727 321 _c
727 383 _m
778 383 819 365 849 329 _c
879 293 895 244 895 184 _c
895 123 879 75 849 40 _c
819 4 778 -13 727 -13 _c
}_e{675 -13 633 4 603 40 _c
573 75 558 123 558 184 _c
558 245 573 293 603 329 _c
633 365 675 383 727 383 _c
223 680 _m
195 680 173 667 157 643 _c
141 619 133 586 133 544 _c
133 500 141 467 157 443 _c
173 419 195 407 223 407 _c
251 407 274 419 290 443 _c
306 467 314 500 314 544 _c
314 586 305 619 289 643 _c
273 667 251 680 223 680 _c
664 742 _m
742 742 _l
286 -13 _l
}_e{208 -13 _l
664 742 _l
223 742 _m
274 742 315 724 346 688 _c
376 652 392 604 392 544 _c
392 482 376 434 346 398 _c
316 362 275 345 223 345 _c
171 345 130 362 100 398 _c
70 434 55 482 55 544 _c
55 604 70 652 100 688 _c
130 724 171 742 223 742 _c
_cl}_e}_d
/parenleft{390 0 86 -131 310 759 _sc
310 759 _m
266 683 234 609 213 536 _c
191 463 181 389 181 314 _c
181 238 191 164 213 91 _c
234 17 266 -56 310 -131 _c
232 -131 _l
183 -54 146 20 122 94 _c
98 168 86 241 86 314 _c
86 386 98 459 122 533 _c
146 607 182 682 232 759 _c
310 759 _l
_cl}_d
/parenright{390 0 80 -131 304 759 _sc
80 759 _m
158 759 _l
206 682 243 607 267 533 _c
291 459 304 386 304 314 _c
304 241 291 168 267 94 _c
243 20 206 -54 158 -131 _c
80 -131 _l
123 -56 155 17 177 91 _c
198 164 209 238 209 314 _c
209 389 198 463 177 536 _c
155 609 123 683 80 759 _c
_cl}_d
/comma{318 0 77 -115 220 124 _sc
117 124 _m
220 124 _l
220 40 _l
140 -115 _l
77 -115 _l
117 40 _l
117 124 _l
_cl}_d
/hyphen{361 0 49 234 312 314 _sc
49 314 _m
312 314 _l
312 234 _l
49 234 _l
49 314 _l
_cl}_d
/period{318 0 107 0 210 124 _sc
107 124 _m
210 124 _l
210 0 _l
107 0 _l
107 124 _l
_cl}_d
/zero{636 0 66 -13 570 742 _sc
318 664 _m
267 664 229 639 203 589 _c
177 539 165 464 165 364 _c
165 264 177 189 203 139 _c
229 89 267 64 318 64 _c
369 64 407 89 433 139 _c
458 189 471 264 471 364 _c
471 464 458 539 433 589 _c
407 639 369 664 318 664 _c
318 742 _m
399 742 461 709 505 645 _c
548 580 570 486 570 364 _c
570 241 548 147 505 83 _c
461 19 399 -13 318 -13 _c
236 -13 173 19 130 83 _c
87 147 66 241 66 364 _c
66 486 87 580 130 645 _c
173 709 236 742 318 742 _c
_cl}_d
/one{636 0 110 0 544 729 _sc
124 83 _m
285 83 _l
285 639 _l
110 604 _l
110 694 _l
284 729 _l
383 729 _l
383 83 _l
544 83 _l
544 0 _l
124 0 _l
124 83 _l
_cl}_d
/two{{636 0 73 0 536 742 _sc
192 83 _m
536 83 _l
536 0 _l
73 0 _l
73 83 _l
110 121 161 173 226 239 _c
290 304 331 346 348 365 _c
380 400 402 430 414 455 _c
426 479 433 504 433 528 _c
433 566 419 598 392 622 _c
365 646 330 659 286 659 _c
255 659 222 653 188 643 _c
154 632 117 616 78 594 _c
78 694 _l
118 710 155 722 189 730 _c
223 738 255 742 284 742 _c
}_e{359 742 419 723 464 685 _c
509 647 532 597 532 534 _c
532 504 526 475 515 449 _c
504 422 484 390 454 354 _c
446 344 420 317 376 272 _c
332 227 271 164 192 83 _c
_cl}_e}_d
/three{{636 0 76 -13 556 742 _sc
406 393 _m
453 383 490 362 516 330 _c
542 298 556 258 556 212 _c
556 140 531 84 482 45 _c
432 6 362 -13 271 -13 _c
240 -13 208 -10 176 -4 _c
144 1 110 10 76 22 _c
76 117 _l
103 101 133 89 166 81 _c
198 73 232 69 268 69 _c
330 69 377 81 409 105 _c
441 129 458 165 458 212 _c
458 254 443 288 413 312 _c
383 336 341 349 287 349 _c
}_e{202 349 _l
202 430 _l
291 430 _l
339 430 376 439 402 459 _c
428 478 441 506 441 543 _c
441 580 427 609 401 629 _c
374 649 336 659 287 659 _c
260 659 231 656 200 650 _c
169 644 135 635 98 623 _c
98 711 _l
135 721 170 729 203 734 _c
235 739 266 742 296 742 _c
370 742 429 725 473 691 _c
517 657 539 611 539 553 _c
539 513 527 479 504 451 _c
481 423 448 403 406 393 _c
_cl}_e}_d
/four{636 0 49 0 580 729 _sc
378 643 _m
129 254 _l
378 254 _l
378 643 _l
352 729 _m
476 729 _l
476 254 _l
580 254 _l
580 172 _l
476 172 _l
476 0 _l
378 0 _l
378 172 _l
49 172 _l
49 267 _l
352 729 _l
_cl}_d
/five{{636 0 77 -13 549 729 _sc
108 729 _m
495 729 _l
495 646 _l
198 646 _l
198 467 _l
212 472 227 476 241 478 _c
255 480 270 482 284 482 _c
365 482 429 459 477 415 _c
525 370 549 310 549 234 _c
549 155 524 94 475 51 _c
426 8 357 -13 269 -13 _c
238 -13 207 -10 175 -6 _c
143 -1 111 6 77 17 _c
77 116 _l
106 100 136 88 168 80 _c
199 72 232 69 267 69 _c
}_e{323 69 368 83 401 113 _c
433 143 450 183 450 234 _c
450 284 433 324 401 354 _c
368 384 323 399 267 399 _c
241 399 214 396 188 390 _c
162 384 135 375 108 363 _c
108 729 _l
_cl}_e}_d
/six{{636 0 70 -13 573 742 _sc
330 404 _m
286 404 251 388 225 358 _c
199 328 186 286 186 234 _c
186 181 199 139 225 109 _c
251 79 286 64 330 64 _c
374 64 409 79 435 109 _c
461 139 474 181 474 234 _c
474 286 461 328 435 358 _c
409 388 374 404 330 404 _c
526 713 _m
526 623 _l
501 635 476 644 451 650 _c
425 656 400 659 376 659 _c
310 659 260 637 226 593 _c
}_e{192 549 172 482 168 394 _c
187 422 211 444 240 459 _c
269 474 301 482 336 482 _c
409 482 467 459 509 415 _c
551 371 573 310 573 234 _c
573 159 550 99 506 54 _c
462 9 403 -13 330 -13 _c
246 -13 181 19 137 83 _c
92 147 70 241 70 364 _c
70 479 97 571 152 639 _c
206 707 280 742 372 742 _c
396 742 421 739 447 735 _c
472 730 498 723 526 713 _c
_cl}_e}_d
/eight{{636 0 68 -13 568 742 _sc
318 346 _m
271 346 234 333 207 308 _c
180 283 167 249 167 205 _c
167 161 180 126 207 101 _c
234 76 271 64 318 64 _c
364 64 401 76 428 102 _c
455 127 469 161 469 205 _c
469 249 455 283 429 308 _c
402 333 365 346 318 346 _c
219 388 _m
177 398 144 418 120 447 _c
96 476 85 511 85 553 _c
85 611 105 657 147 691 _c
188 725 245 742 318 742 _c
}_e{390 742 447 725 489 691 _c
530 657 551 611 551 553 _c
551 511 539 476 515 447 _c
491 418 459 398 417 388 _c
464 377 501 355 528 323 _c
554 291 568 251 568 205 _c
568 134 546 80 503 43 _c
459 5 398 -13 318 -13 _c
237 -13 175 5 132 43 _c
89 80 68 134 68 205 _c
68 251 81 291 108 323 _c
134 355 171 377 219 388 _c
183 544 _m
183 506 194 476 218 455 _c
}_e{242 434 275 424 318 424 _c
360 424 393 434 417 455 _c
441 476 453 506 453 544 _c
453 582 441 611 417 632 _c
393 653 360 664 318 664 _c
275 664 242 653 218 632 _c
194 611 183 582 183 544 _c
_cl}_e}_d
/nine{{636 0 63 -13 566 742 _sc
110 15 _m
110 105 _l
134 93 159 84 185 78 _c
210 72 235 69 260 69 _c
324 69 374 90 408 134 _c
442 178 462 244 468 334 _c
448 306 424 284 396 269 _c
367 254 335 247 300 247 _c
226 247 168 269 126 313 _c
84 357 63 417 63 494 _c
63 568 85 628 129 674 _c
173 719 232 742 306 742 _c
390 742 455 709 499 645 _c
543 580 566 486 566 364 _c
}_e{566 248 538 157 484 89 _c
429 21 356 -13 264 -13 _c
239 -13 214 -10 189 -6 _c
163 -2 137 5 110 15 _c
306 324 _m
350 324 385 339 411 369 _c
437 399 450 441 450 494 _c
450 546 437 588 411 618 _c
385 648 350 664 306 664 _c
262 664 227 648 201 618 _c
175 588 162 546 162 494 _c
162 441 175 399 201 369 _c
227 339 262 324 306 324 _c
_cl}_e}_d
/equal{838 0 106 172 732 454 _sc
106 454 _m
732 454 _l
732 372 _l
106 372 _l
106 454 _l
106 255 _m
732 255 _l
732 172 _l
106 172 _l
106 255 _l
_cl}_d
/A{684 0 8 0 676 729 _sc
342 632 _m
208 269 _l
476 269 _l
342 632 _l
286 729 _m
398 729 _l
676 0 _l
573 0 _l
507 187 _l
178 187 _l
112 0 _l
8 0 _l
286 729 _l
_cl}_d
/C{{698 0 56 -13 644 742 _sc
644 673 _m
644 569 _l
610 599 575 622 537 638 _c
499 653 460 661 418 661 _c
334 661 270 635 226 584 _c
182 533 160 460 160 364 _c
160 268 182 194 226 143 _c
270 92 334 67 418 67 _c
460 67 499 74 537 90 _c
575 105 610 128 644 159 _c
644 56 _l
609 32 572 15 534 4 _c
496 -7 455 -13 412 -13 _c
302 -13 215 20 151 87 _c
}_e{87 154 56 246 56 364 _c
56 481 87 573 151 641 _c
215 708 302 742 412 742 _c
456 742 497 736 535 725 _c
573 713 610 696 644 673 _c
_cl}_e}_d
/E{632 0 98 0 568 729 _sc
98 729 _m
559 729 _l
559 646 _l
197 646 _l
197 430 _l
544 430 _l
544 347 _l
197 347 _l
197 83 _l
568 83 _l
568 0 _l
98 0 _l
98 729 _l
_cl}_d
/M{863 0 98 0 765 729 _sc
98 729 _m
245 729 _l
431 233 _l
618 729 _l
765 729 _l
765 0 _l
669 0 _l
669 640 _l
481 140 _l
382 140 _l
194 640 _l
194 0 _l
98 0 _l
98 729 _l
_cl}_d
/N{748 0 98 0 650 729 _sc
98 729 _m
231 729 _l
554 119 _l
554 729 _l
650 729 _l
650 0 _l
517 0 _l
194 610 _l
194 0 _l
98 0 _l
98 729 _l
_cl}_d
/P{603 0 98 0 569 729 _sc
197 648 _m
197 374 _l
321 374 _l
367 374 402 385 427 409 _c
452 433 465 467 465 511 _c
465 555 452 588 427 612 _c
402 636 367 648 321 648 _c
197 648 _l
98 729 _m
321 729 _l
402 729 464 710 506 673 _c
548 636 569 582 569 511 _c
569 439 548 384 506 348 _c
464 311 402 293 321 293 _c
197 293 _l
197 0 _l
98 0 _l
98 729 _l
_cl}_d
/R{{695 0 98 0 666 729 _sc
444 342 _m
465 334 486 319 506 296 _c
526 272 546 240 566 199 _c
666 0 _l
560 0 _l
467 187 _l
443 235 419 268 397 284 _c
374 300 343 308 304 308 _c
197 308 _l
197 0 _l
98 0 _l
98 729 _l
321 729 _l
404 729 466 711 507 677 _c
548 642 569 589 569 519 _c
569 473 558 434 537 404 _c
515 374 484 353 444 342 _c
197 648 _m
197 389 _l
321 389 _l
}_e{368 389 404 400 428 422 _c
452 444 465 476 465 519 _c
465 561 452 593 428 615 _c
404 637 368 648 321 648 _c
197 648 _l
_cl}_e}_d
/S{{635 0 66 -13 579 742 _sc
535 705 _m
535 609 _l
497 627 462 640 429 649 _c
395 657 363 662 333 662 _c
279 662 237 651 208 631 _c
179 610 165 580 165 542 _c
165 510 174 485 194 469 _c
213 452 250 439 304 429 _c
364 417 _l
437 403 491 378 526 343 _c
561 307 579 260 579 201 _c
579 130 555 77 508 41 _c
460 5 391 -13 300 -13 _c
265 -13 228 -9 189 -2 _c
}_e{150 5 110 16 69 32 _c
69 134 _l
109 111 148 94 186 83 _c
224 71 262 66 300 66 _c
356 66 399 77 430 99 _c
460 121 476 152 476 194 _c
476 230 465 258 443 278 _c
421 298 385 313 335 323 _c
275 335 _l
201 349 148 372 115 404 _c
82 435 66 478 66 534 _c
66 598 88 649 134 686 _c
179 723 242 742 322 742 _c
356 742 390 739 426 733 _c
461 727 497 717 535 705 _c
}_e{_cl}_e}_d
/a{{613 0 60 -13 522 560 _sc
343 275 _m
270 275 220 266 192 250 _c
164 233 150 205 150 165 _c
150 133 160 107 181 89 _c
202 70 231 61 267 61 _c
317 61 357 78 387 114 _c
417 149 432 196 432 255 _c
432 275 _l
343 275 _l
522 312 _m
522 0 _l
432 0 _l
432 83 _l
411 49 385 25 355 10 _c
325 -5 287 -13 243 -13 _c
187 -13 142 2 109 33 _c
76 64 60 106 60 159 _c
}_e{60 220 80 266 122 298 _c
163 329 224 345 306 345 _c
432 345 _l
432 354 _l
432 395 418 427 391 450 _c
364 472 326 484 277 484 _c
245 484 215 480 185 472 _c
155 464 127 453 100 439 _c
100 522 _l
132 534 164 544 195 550 _c
226 556 256 560 286 560 _c
365 560 424 539 463 498 _c
502 457 522 395 522 312 _c
_cl}_e}_d
/c{{550 0 55 -13 488 560 _sc
488 526 _m
488 442 _l
462 456 437 466 411 473 _c
385 480 360 484 334 484 _c
276 484 230 465 198 428 _c
166 391 150 339 150 273 _c
150 206 166 154 198 117 _c
230 80 276 62 334 62 _c
360 62 385 65 411 72 _c
437 79 462 90 488 104 _c
488 21 _l
462 9 436 0 410 -5 _c
383 -10 354 -13 324 -13 _c
242 -13 176 12 128 64 _c
}_e{79 115 55 185 55 273 _c
55 362 79 432 128 483 _c
177 534 244 560 330 560 _c
358 560 385 557 411 551 _c
437 545 463 537 488 526 _c
_cl}_e}_d
/d{{635 0 55 -13 544 760 _sc
454 464 _m
454 760 _l
544 760 _l
544 0 _l
454 0 _l
454 82 _l
435 49 411 25 382 10 _c
353 -5 319 -13 279 -13 _c
213 -13 159 13 117 65 _c
75 117 55 187 55 273 _c
55 359 75 428 117 481 _c
159 533 213 560 279 560 _c
319 560 353 552 382 536 _c
411 520 435 496 454 464 _c
148 273 _m
148 207 161 155 188 117 _c
215 79 253 61 301 61 _c
}_e{348 61 385 79 413 117 _c
440 155 454 207 454 273 _c
454 339 440 390 413 428 _c
385 466 348 485 301 485 _c
253 485 215 466 188 428 _c
161 390 148 339 148 273 _c
_cl}_e}_d
/e{{615 0 55 -13 562 560 _sc
562 296 _m
562 252 _l
149 252 _l
153 190 171 142 205 110 _c
238 78 284 62 344 62 _c
378 62 412 66 444 74 _c
476 82 509 95 541 113 _c
541 28 _l
509 14 476 3 442 -3 _c
408 -9 373 -13 339 -13 _c
251 -13 182 12 131 62 _c
80 112 55 181 55 268 _c
55 357 79 428 127 481 _c
175 533 241 560 323 560 _c
397 560 455 536 498 489 _c
}_e{540 441 562 377 562 296 _c
472 322 _m
471 371 457 410 431 440 _c
404 469 368 484 324 484 _c
274 484 234 469 204 441 _c
174 413 156 373 152 322 _c
472 322 _l
_cl}_e}_d
/i{278 0 94 0 184 760 _sc
94 547 _m
184 547 _l
184 0 _l
94 0 _l
94 547 _l
94 760 _m
184 760 _l
184 646 _l
94 646 _l
94 760 _l
_cl}_d
/l{278 0 94 0 184 760 _sc
94 760 _m
184 760 _l
184 0 _l
94 0 _l
94 760 _l
_cl}_d
/n{634 0 91 0 549 560 _sc
549 330 _m
549 0 _l
459 0 _l
459 327 _l
459 379 448 417 428 443 _c
408 469 378 482 338 482 _c
289 482 251 466 223 435 _c
195 404 181 362 181 309 _c
181 0 _l
91 0 _l
91 547 _l
181 547 _l
181 462 _l
202 494 227 519 257 535 _c
286 551 320 560 358 560 _c
420 560 468 540 500 501 _c
532 462 549 405 549 330 _c
_cl}_d
/o{612 0 55 -13 557 560 _sc
306 484 _m
258 484 220 465 192 427 _c
164 389 150 338 150 273 _c
150 207 163 156 191 118 _c
219 80 257 62 306 62 _c
354 62 392 80 420 118 _c
448 156 462 207 462 273 _c
462 337 448 389 420 427 _c
392 465 354 484 306 484 _c
306 560 _m
384 560 445 534 490 484 _c
534 433 557 363 557 273 _c
557 183 534 113 490 63 _c
445 12 384 -13 306 -13 _c
227 -13 165 12 121 63 _c
77 113 55 183 55 273 _c
55 363 77 433 121 484 _c
165 534 227 560 306 560 _c
_cl}_d
/q{{635 0 55 -207 544 560 _sc
148 273 _m
148 207 161 155 188 117 _c
215 79 253 61 301 61 _c
348 61 385 79 413 117 _c
440 155 454 207 454 273 _c
454 339 440 390 413 428 _c
385 466 348 485 301 485 _c
253 485 215 466 188 428 _c
161 390 148 339 148 273 _c
454 82 _m
435 49 411 25 382 10 _c
353 -5 319 -13 279 -13 _c
213 -13 159 13 117 65 _c
75 117 55 187 55 273 _c
}_e{55 359 75 428 117 481 _c
159 533 213 560 279 560 _c
319 560 353 552 382 536 _c
411 520 435 496 454 464 _c
454 547 _l
544 547 _l
544 -207 _l
454 -207 _l
454 82 _l
_cl}_e}_d
/r{411 0 91 0 411 560 _sc
411 463 _m
401 469 390 473 378 476 _c
366 478 353 480 339 480 _c
288 480 249 463 222 430 _c
194 397 181 350 181 288 _c
181 0 _l
91 0 _l
91 547 _l
181 547 _l
181 462 _l
199 495 224 520 254 536 _c
284 552 321 560 365 560 _c
371 560 378 559 386 559 _c
393 558 401 557 411 555 _c
411 463 _l
_cl}_d
/s{{521 0 54 -13 472 560 _sc
443 531 _m
443 446 _l
417 458 391 468 364 475 _c
336 481 308 485 279 485 _c
234 485 200 478 178 464 _c
156 450 145 430 145 403 _c
145 382 153 366 169 354 _c
185 342 217 330 265 320 _c
296 313 _l
360 299 405 279 432 255 _c
458 230 472 195 472 151 _c
472 100 452 60 412 31 _c
372 1 316 -13 246 -13 _c
216 -13 186 -10 154 -5 _c
}_e{122 0 89 8 54 20 _c
54 113 _l
87 95 120 82 152 74 _c
184 65 216 61 248 61 _c
290 61 323 68 346 82 _c
368 96 380 117 380 144 _c
380 168 371 187 355 200 _c
339 213 303 226 247 238 _c
216 245 _l
160 257 119 275 95 299 _c
70 323 58 356 58 399 _c
58 450 76 490 112 518 _c
148 546 200 560 268 560 _c
301 560 332 557 362 552 _c
391 547 418 540 443 531 _c
}_e{_cl}_e}_d
/t{392 0 27 0 368 702 _sc
183 702 _m
183 547 _l
368 547 _l
368 477 _l
183 477 _l
183 180 _l
183 135 189 106 201 94 _c
213 81 238 75 276 75 _c
368 75 _l
368 0 _l
276 0 _l
206 0 158 13 132 39 _c
106 65 93 112 93 180 _c
93 477 _l
27 477 _l
27 547 _l
93 547 _l
93 702 _l
183 702 _l
_cl}_d
/u{634 0 85 -13 543 560 _sc
85 216 _m
85 547 _l
175 547 _l
175 219 _l
175 167 185 129 205 103 _c
225 77 255 64 296 64 _c
344 64 383 79 411 110 _c
439 141 453 183 453 237 _c
453 547 _l
543 547 _l
543 0 _l
453 0 _l
453 84 _l
431 50 405 26 377 10 _c
348 -5 315 -13 277 -13 _c
214 -13 166 6 134 45 _c
101 83 85 140 85 216 _c
311 560 _m
311 560 _l
_cl}_d
/v{592 0 30 0 562 547 _sc
30 547 _m
125 547 _l
296 88 _l
467 547 _l
562 547 _l
357 0 _l
235 0 _l
30 547 _l
_cl}_d
end readonly def

/BuildGlyph
 {exch begin
 CharStrings exch
 2 copy known not{pop /.notdef}if
 true 3 1 roll get exec
 end}_d

/BuildChar {
 1 index /Encoding get exch get
 1 index /BuildGlyph get exec
}_d

FontName currentdict end definefont pop
end
%%EndProlog
mpldict begin
55.007 230.128 translate
501.985 331.744 0 0 clipbox
gsave
0 0 m
501.985375 0 l
501.985375 331.743875 l
0 331.743875 l
cl
1.000 setgray
fill
grestore
gsave
36.465625 23.871875 m
393.585625 23.871875 l
393.585625 289.983875 l
36.465625 289.983875 l
cl
1.000 setgray
fill
grestore
0.800 setlinewidth
1 setlinejoin
0 setlinecap
[] 0 setdash
0.000 setgray
gsave
/o {
gsave
newpath
translate
0.8 setlinewidth
1 setlinejoin
0 setlinecap
0 0 m
0 -3.5 l

gsave
0.000 setgray
fill
grestore
stroke
grestore
} bind def
52.6984 23.8719 o
grestore
/DejaVuSans findfont
10.000 scalefont
setfont
gsave
49.518665 9.278125 translate
0.000000 rotate
0.000000 0.000000 m /zero glyphshow
grestore
gsave
/o {
gsave
newpath
translate
0.8 setlinewidth
1 setlinejoin
0 setlinecap
0 0 m
0 -3.5 l

gsave
0.000 setgray
fill
grestore
stroke
grestore
} bind def
98.2959 23.8719 o
grestore
gsave
91.936526 9.278125 translate
0.000000 rotate
0.000000 0.000000 m /five glyphshow
6.362305 0.000000 m /zero glyphshow
grestore
gsave
/o {
gsave
newpath
translate
0.8 setlinewidth
1 setlinejoin
0 setlinecap
0 0 m
0 -3.5 l

gsave
0.000 setgray
fill
grestore
stroke
grestore
} bind def
143.893 23.8719 o
grestore
gsave
134.354387 9.278125 translate
0.000000 rotate
0.000000 0.000000 m /one glyphshow
6.362305 0.000000 m /zero glyphshow
12.724609 0.000000 m /zero glyphshow
grestore
gsave
/o {
gsave
newpath
translate
0.8 setlinewidth
1 setlinejoin
0 setlinecap
0 0 m
0 -3.5 l

gsave
0.000 setgray
fill
grestore
stroke
grestore
} bind def
189.491 23.8719 o
grestore
gsave
179.951935 9.278125 translate
0.000000 rotate
0.000000 0.000000 m /one glyphshow
6.362305 0.000000 m /five glyphshow
12.724609 0.000000 m /zero glyphshow
grestore
gsave
/o {
gsave
newpath
translate
0.8 setlinewidth
1 setlinejoin
0 setlinecap
0 0 m
0 -3.5 l

gsave
0.000 setgray
fill
grestore
stroke
grestore
} bind def
235.089 23.8719 o
grestore
gsave
225.549484 9.278125 translate
0.000000 rotate
0.000000 0.000000 m /two glyphshow
6.362305 0.000000 m /zero glyphshow
12.724609 0.000000 m /zero glyphshow
grestore
gsave
/o {
gsave
newpath
translate
0.8 setlinewidth
1 setlinejoin
0 setlinecap
0 0 m
0 -3.5 l

gsave
0.000 setgray
fill
grestore
stroke
grestore
} bind def
280.686 23.8719 o
grestore
gsave
271.147032 9.278125 translate
0.000000 rotate
0.000000 0.000000 m /two glyphshow
6.362305 0.000000 m /five glyphshow
12.724609 0.000000 m /zero glyphshow
grestore
gsave
/o {
gsave
newpath
translate
0.8 setlinewidth
1 setlinejoin
0 setlinecap
0 0 m
0 -3.5 l

gsave
0.000 setgray
fill
grestore
stroke
grestore
} bind def
326.284 23.8719 o
grestore
gsave
316.744581 9.278125 translate
0.000000 rotate
0.000000 0.000000 m /three glyphshow
6.362305 0.000000 m /zero glyphshow
12.724609 0.000000 m /zero glyphshow
grestore
gsave
/o {
gsave
newpath
translate
0.8 setlinewidth
1 setlinejoin
0 setlinecap
0 0 m
0 -3.5 l

gsave
0.000 setgray
fill
grestore
stroke
grestore
} bind def
371.881 23.8719 o
grestore
gsave
362.342129 9.278125 translate
0.000000 rotate
0.000000 0.000000 m /three glyphshow
6.362305 0.000000 m /five glyphshow
12.724609 0.000000 m /zero glyphshow
grestore
gsave
/o {
gsave
newpath
translate
0.8 setlinewidth
1 setlinejoin
0 setlinecap
0 0 m
-3.5 0 l

gsave
0.000 setgray
fill
grestore
stroke
grestore
} bind def
36.4656 51.2526 o
grestore
gsave
7.200000 47.455761 translate
0.000000 rotate
0.000000 0.000000 m /one glyphshow
6.362305 0.000000 m /period glyphshow
9.541016 0.000000 m /zero glyphshow
15.903320 0.000000 m /six glyphshow
grestore
gsave
/o {
gsave
newpath
translate
0.8 setlinewidth
1 setlinejoin
0 setlinecap
0 0 m
-3.5 0 l

gsave
0.000 setgray
fill
grestore
stroke
grestore
} bind def
36.4656 82.8394 o
grestore
gsave
7.200000 79.042554 translate
0.000000 rotate
0.000000 0.000000 m /one glyphshow
6.362305 0.000000 m /period glyphshow
9.541016 0.000000 m /zero glyphshow
15.903320 0.000000 m /eight glyphshow
grestore
gsave
/o {
gsave
newpath
translate
0.8 setlinewidth
1 setlinejoin
0 setlinecap
0 0 m
-3.5 0 l

gsave
0.000 setgray
fill
grestore
stroke
grestore
} bind def
36.4656 114.426 o
grestore
gsave
7.200000 110.629347 translate
0.000000 rotate
0.000000 0.000000 m /one glyphshow
6.362305 0.000000 m /period glyphshow
9.541016 0.000000 m /one glyphshow
15.903320 0.000000 m /zero glyphshow
grestore
gsave
/o {
gsave
newpath
translate
0.8 setlinewidth
1 setlinejoin
0 setlinecap
0 0 m
-3.5 0 l

gsave
0.000 setgray
fill
grestore
stroke
grestore
} bind def
36.4656 146.013 o
grestore
gsave
7.200000 142.216140 translate
0.000000 rotate
0.000000 0.000000 m /one glyphshow
6.362305 0.000000 m /period glyphshow
9.541016 0.000000 m /one glyphshow
15.903320 0.000000 m /two glyphshow
grestore
gsave
/o {
gsave
newpath
translate
0.8 setlinewidth
1 setlinejoin
0 setlinecap
0 0 m
-3.5 0 l

gsave
0.000 setgray
fill
grestore
stroke
grestore
} bind def
36.4656 177.6 o
grestore
gsave
7.200000 173.802933 translate
0.000000 rotate
0.000000 0.000000 m /one glyphshow
6.362305 0.000000 m /period glyphshow
9.541016 0.000000 m /one glyphshow
15.903320 0.000000 m /four glyphshow
grestore
gsave
/o {
gsave
newpath
translate
0.8 setlinewidth
1 setlinejoin
0 setlinecap
0 0 m
-3.5 0 l

gsave
0.000 setgray
fill
grestore
stroke
grestore
} bind def
36.4656 209.187 o
grestore
gsave
7.200000 205.389725 translate
0.000000 rotate
0.000000 0.000000 m /one glyphshow
6.362305 0.000000 m /period glyphshow
9.541016 0.000000 m /one glyphshow
15.903320 0.000000 m /six glyphshow
grestore
gsave
/o {
gsave
newpath
translate
0.8 setlinewidth
1 setlinejoin
0 setlinecap
0 0 m
-3.5 0 l

gsave
0.000 setgray
fill
grestore
stroke
grestore
} bind def
36.4656 240.773 o
grestore
gsave
7.200000 236.976518 translate
0.000000 rotate
0.000000 0.000000 m /one glyphshow
6.362305 0.000000 m /period glyphshow
9.541016 0.000000 m /one glyphshow
15.903320 0.000000 m /eight glyphshow
grestore
gsave
/o {
gsave
newpath
translate
0.8 setlinewidth
1 setlinejoin
0 setlinecap
0 0 m
-3.5 0 l

gsave
0.000 setgray
fill
grestore
stroke
grestore
} bind def
36.4656 272.36 o
grestore
gsave
7.200000 268.563311 translate
0.000000 rotate
0.000000 0.000000 m /one glyphshow
6.362305 0.000000 m /period glyphshow
9.541016 0.000000 m /two glyphshow
15.903320 0.000000 m /zero glyphshow
grestore
1.500 setlinewidth
2 setlinecap
0.122 0.467 0.706 setrgbcolor
gsave
357.1 266.1 36.47 23.87 clipbox
52.698352 40.844788 m
53.610303 40.513126 l
54.522254 39.897184 l
55.434205 46.261923 l
56.346156 45.077418 l
57.258107 46.846278 l
58.170058 54.727183 l
59.082009 57.111986 l
59.99396 57.554201 l
60.905911 51.536917 l
61.817862 51.126289 l
62.729813 67.804115 l
63.641764 57.285713 l
64.553715 60.744467 l
65.465666 66.33533 l
66.377617 66.888098 l
67.289568 67.851496 l
68.201519 73.900366 l
69.11347 72.24206 l
70.025421 75.274392 l
70.937372 63.17665 l
71.849323 66.240569 l
72.761274 66.714371 l
73.673225 69.415042 l
74.585176 66.177396 l
75.497127 82.223486 l
76.409078 78.038236 l
77.321028 76.790558 l
78.232979 79.617576 l
79.14493 79.743923 l
80.056881 81.891825 l
80.968832 75.021698 l
81.880783 65.166618 l
82.792734 64.992891 l
84.616636 57.17516 l
85.528587 57.096193 l
86.440538 54.979877 l
87.352489 50.589313 l
88.26444 47.478014 l
89.176391 51.55271 l
90.088342 62.829196 l
91.000293 52.547694 l
91.912244 53.274191 l
92.824195 52.20024 l
93.736146 53.558472 l
94.648097 42.424127 l
95.560048 45.898675 l
96.471999 48.346651 l
97.38395 45.093211 l
98.295901 43.513872 l
99.207852 46.009228 l
100.119803 49.657503 l
101.031754 50.415586 l
101.943705 42.692615 l
102.855656 36.564777 l
103.767607 53.732199 l
104.679558 54.127034 l
105.591509 51.631677 l
106.50346 48.472998 l
107.41541 46.514617 l
108.327361 42.2504 l
109.239312 48.409825 l
110.151263 64.929717 l
111.063214 62.308013 l
111.975165 63.208237 l
112.887116 59.544169 l
113.799067 51.821198 l
114.711018 72.399994 l
115.622969 77.390707 l
116.53492 72.826415 l
118.358822 71.847225 l
119.270773 73.268631 l
120.182724 84.418768 l
122.006626 80.043998 l
122.918577 82.365627 l
123.830528 82.049759 l
124.742479 88.556638 l
125.65443 92.820855 l
126.566381 84.466149 l
127.478332 77.153806 l
128.390283 62.892369 l
129.302234 59.386235 l
130.214185 61.202476 l
131.126136 60.807641 l
132.038087 62.134286 l
132.950038 62.766022 l
133.861989 61.060335 l
134.77394 58.138557 l
135.685891 49.594329 l
136.597842 49.167908 l
138.421743 51.963339 l
139.333694 61.313029 l
140.245645 53.321571 l
141.157596 52.942529 l
142.069547 53.100463 l
142.981498 53.716406 l
143.893449 57.949036 l
144.8054 71.847225 l
145.717351 68.641165 l
146.629302 69.699323 l
147.541253 70.931208 l
148.453204 101.39667 l
149.365155 93.436798 l
150.277106 102.596968 l
151.189057 99.138214 l
152.101008 94.242261 l
153.012959 97.464114 l
153.92491 97.558874 l
154.836861 100.212165 l
155.748812 98.332751 l
156.660763 103.054976 l
157.572714 96.042708 l
158.484665 111.946658 l
159.396616 113.794486 l
160.308567 113.636552 l
161.220518 117.111099 l
162.132469 102.37586 l
163.04442 94.368608 l
163.956371 93.310451 l
164.868322 92.42602 l
165.780273 103.054976 l
166.692224 102.739108 l
167.604175 103.307671 l
168.516126 110.509459 l
169.428076 127.43998 l
170.340027 139.458755 l
171.251978 130.69342 l
172.163929 146.897445 l
173.07588 146.64475 l
173.987831 144.78113 l
174.899782 151.809191 l
175.811733 143.122823 l
176.723684 148.792652 l
177.635635 147.560767 l
178.547586 143.012269 l
179.459537 142.380533 l
181.283439 140.027317 l
182.19539 143.801939 l
183.107341 152.819969 l
184.019292 147.971396 l
184.931243 159.042567 l
185.843194 158.489798 l
186.755145 157.226326 l
187.667096 154.557242 l
188.579047 158.047583 l
189.490998 154.794143 l
190.402949 148.22409 l
191.3149 145.096998 l
192.226851 145.065411 l
193.138802 147.118552 l
194.050753 146.360469 l
194.962704 147.623941 l
195.874655 148.603132 l
196.786606 137.121332 l
197.698557 145.270725 l
198.610508 143.438691 l
199.522459 146.64475 l
200.434409 137.737275 l
201.34636 135.526199 l
202.258311 140.911748 l
203.170262 138.22687 l
204.082213 144.97065 l
204.994164 143.328137 l
205.906115 145.428659 l
206.818066 142.870129 l
207.730017 167.839489 l
208.641968 173.888359 l
209.553919 183.917166 l
210.46587 181.548157 l
211.377821 181.864025 l
212.289772 179.968817 l
213.201723 171.819424 l
214.113674 168.913439 l
215.025625 169.813663 l
215.937576 181.026975 l
216.849527 177.536634 l
217.761478 177.28394 l
218.673429 176.904898 l
219.58538 177.3787 l
220.497331 188.244557 l
221.409282 179.337081 l
222.321233 177.031245 l
223.233184 188.434078 l
224.145135 187.28116 l
225.057086 189.018433 l
225.969037 189.83969 l
226.880988 201.700531 l
227.792939 195.541106 l
228.70489 213.735099 l
229.616841 218.662638 l
230.528791 218.504704 l
231.440742 219.294374 l
232.352693 215.551339 l
233.264644 216.451563 l
234.176595 230.033884 l
235.088546 220.952681 l
236.000497 232.52924 l
236.912448 233.034629 l
237.824399 232.181786 l
238.73635 247.248686 l
239.648301 240.915534 l
240.560252 249.522935 l
241.472203 251.655043 l
242.384154 236.130135 l
243.296105 236.351242 l
244.208056 236.193308 l
245.120007 239.87317 l
246.031958 233.018836 l
246.943909 234.234927 l
247.85586 236.256482 l
248.767811 243.900486 l
249.679762 244.579602 l
250.591713 243.726758 l
252.415615 230.270785 l
253.327566 235.466812 l
254.239517 228.549304 l
255.151468 234.234927 l
256.063419 234.456035 l
256.97537 233.761125 l
257.887321 243.063436 l
258.799272 234.535002 l
259.711223 241.720997 l
260.623174 240.568079 l
261.535124 260.025544 l
262.447075 260.357205 l
263.359026 263.452711 l
264.270977 268.933019 l
265.182928 267.780101 l
266.094879 253.850326 l
267.00683 257.972402 l
267.918781 249.933563 l
268.830732 249.775629 l
269.742683 253.502871 l
271.566585 258.698898 l
272.478536 259.188494 l
273.390487 275.518866 l
274.302438 277.635181 l
275.214389 277.887875 l
276.12634 274.88713 l
277.038291 264.795149 l
277.950242 266.911464 l
278.862193 254.134607 l
279.774144 259.488568 l
280.686095 263.278983 l
281.598046 263.16843 l
282.509997 259.630709 l
283.421948 264.542455 l
284.333899 271.412582 l
285.24585 255.082211 l
286.157801 262.931529 l
287.069752 263.973893 l
287.981703 264.621422 l
290.717556 239.430955 l
291.629507 232.039645 l
292.541457 238.38859 l
293.453408 242.794948 l
294.365359 242.826535 l
295.27731 239.22564 l
296.189261 229.92333 l
297.101212 231.613223 l
298.013163 234.298101 l
298.925114 226.57513 l
299.837065 229.702222 l
300.749016 229.070487 l
301.660967 229.18104 l
302.572918 231.186802 l
303.484869 241.878931 l
304.39682 249.933563 l
305.308771 245.400859 l
307.132673 242.352733 l
308.044624 240.125864 l
308.956575 235.324672 l
309.868526 238.720252 l
310.780477 248.828026 l
311.692428 238.088516 l
312.604379 238.088516 l
313.51633 234.94563 l
314.428281 232.781935 l
315.340232 234.724523 l
316.252183 242.668601 l
317.164134 217.083299 l
318.076085 210.481659 l
318.988036 210.134204 l
319.899987 210.086824 l
320.811938 216.925365 l
321.723889 216.419976 l
322.63584 212.045205 l
323.54779 218.330977 l
324.459741 210.134204 l
325.371692 209.97627 l
326.283643 210.923874 l
327.195594 210.639593 l
328.107545 207.638848 l
329.019496 208.870733 l
329.931447 215.804034 l
330.843398 219.452308 l
331.755349 219.13644 l
332.6673 217.399167 l
333.579251 219.97349 l
334.491202 239.652062 l
335.403153 239.494128 l
336.315104 236.051168 l
337.227055 239.92055 l
338.139006 238.799219 l
339.050957 238.24645 l
339.962908 229.560082 l
340.874859 231.013074 l
341.78681 243.868899 l
342.698761 248.780645 l
343.610712 261.399569 l
344.522663 261.462743 l
345.434614 262.694628 l
346.346565 256.472029 l
347.258516 247.280273 l
348.170467 248.812232 l
349.082418 256.866864 l
349.994369 255.145384 l
350.90632 256.108781 l
351.818271 249.333414 l
352.730222 249.617695 l
353.642172 244.405875 l
354.554123 240.031104 l
355.466074 236.746077 l
356.378025 235.166738 l
357.289976 235.814267 l
358.201927 234.456035 l
359.113878 236.47759 l
360.025829 232.039645 l
360.93778 244.690156 l
361.849731 238.688665 l
362.761682 233.492638 l
363.673633 232.718761 l
364.585584 231.202595 l
365.497535 237.725268 l
366.409486 247.153926 l
367.321437 253.139623 l
368.233388 252.855342 l
369.145339 249.933563 l
370.05729 250.249431 l
370.969241 249.933563 l
371.881192 251.670837 l
372.793143 250.675853 l
373.705094 255.68236 l
374.617045 262.947322 l
375.528996 271.933765 l
376.440947 271.412582 l
377.352898 271.570516 l
377.352898 271.570516 l
stroke
grestore
1.000 0.498 0.055 setrgbcolor
gsave
357.1 266.1 36.47 23.87 clipbox
52.698352 41.749895 m
53.610303 41.353771 l
54.522254 35.967875 l
55.434205 37.237016 l
56.346156 39.743293 l
57.258107 41.342663 l
58.170058 40.89514 l
59.082009 47.546789 l
59.99396 51.174978 l
60.905911 52.369751 l
61.817862 49.928805 l
62.729813 46.952791 l
63.641764 56.627145 l
64.553715 56.887149 l
65.465666 54.917636 l
66.377617 60.842743 l
67.289568 60.358507 l
68.201519 62.86629 l
69.11347 68.086318 l
70.025421 69.3869 l
70.937372 69.47087 l
71.849323 63.158864 l
72.761274 59.686376 l
73.673225 62.684042 l
74.585176 61.945451 l
75.497127 62.56769 l
76.409078 72.193282 l
77.321028 76.082604 l
78.232979 70.983447 l
79.14493 74.674707 l
80.056881 76.065472 l
80.968832 77.161967 l
81.880783 73.384855 l
82.792734 64.976065 l
83.704685 60.646375 l
84.616636 57.367619 l
85.528587 53.324667 l
86.440538 52.201813 l
87.352489 51.298107 l
88.26444 47.512147 l
89.176391 44.528601 l
90.088342 47.224655 l
91.000293 55.701412 l
91.912244 53.122086 l
92.824195 49.392607 l
93.736146 50.463686 l
94.648097 48.752671 l
95.560048 42.621406 l
96.471999 39.523014 l
97.38395 44.179921 l
98.295901 41.827651 l
99.207852 39.998778 l
100.119803 42.433699 l
101.031754 45.729776 l
101.943705 46.574552 l
102.855656 43.091521 l
103.767607 36.890219 l
104.679558 44.383255 l
105.591509 50.714276 l
106.50346 47.71002 l
107.41541 46.567586 l
109.239312 39.487808 l
110.151263 42.058849 l
111.063214 55.200609 l
111.975165 58.682698 l
112.887116 57.346344 l
113.799067 58.197522 l
114.711018 52.232501 l
115.622969 61.26033 l
116.53492 71.554664 l
117.446871 69.192227 l
118.358822 68.627035 l
119.270773 67.298023 l
120.182724 67.923274 l
121.094675 76.211947 l
122.006626 78.967684 l
122.918577 75.419511 l
123.830528 77.208282 l
124.742479 77.809623 l
125.65443 81.907174 l
126.566381 86.774757 l
127.478332 82.171884 l
128.390283 75.493313 l
129.302234 64.883059 l
130.214185 55.71365 l
131.126136 54.875463 l
132.038087 54.975435 l
133.861989 57.756589 l
134.77394 58.025441 l
135.685891 55.446868 l
136.597842 48.79522 l
137.509793 45.895455 l
138.421743 46.67829 l
139.333694 47.801709 l
140.245645 54.807873 l
141.157596 52.43527 l
142.069547 47.838422 l
142.981498 49.959494 l
143.893449 49.87496 l
144.8054 53.700081 l
145.717351 63.370105 l
146.629302 66.451741 l
147.541253 65.713338 l
148.453204 68.553985 l
149.365155 86.754612 l
150.277106 94.195873 l
151.189057 92.642817 l
152.101008 96.992841 l
153.012959 89.872019 l
153.92491 91.622383 l
155.748812 94.665235 l
156.660763 93.890684 l
157.572714 95.250949 l
158.484665 94.331993 l
159.396616 100.672805 l
160.308567 108.331143 l
161.220518 107.365496 l
162.132469 112.675707 l
163.04442 103.950808 l
163.956371 92.499919 l
164.868322 88.932542 l
165.780273 86.782853 l
166.692224 92.913364 l
167.604175 96.886279 l
168.516126 96.865757 l
169.428076 102.847346 l
171.251978 131.611724 l
172.163929 130.651537 l
173.987831 144.918597 l
174.899782 140.275999 l
175.811733 145.079946 l
176.723684 141.02005 l
177.635635 139.582217 l
178.547586 142.56501 l
179.459537 138.802959 l
180.371488 137.764639 l
181.283439 136.488909 l
182.19539 135.506694 l
183.107341 139.396393 l
184.019292 146.9284 l
184.931243 145.48266 l
185.843194 149.405871 l
186.755145 154.281173 l
187.667096 151.384233 l
188.579047 150.254978 l
189.490998 150.672377 l
190.402949 150.878158 l
191.3149 144.700578 l
192.226851 141.342936 l
193.138802 140.16473 l
194.962704 143.173693 l
195.874655 143.103844 l
196.786606 144.837076 l
197.698557 138.11426 l
198.610508 138.392526 l
199.522459 142.155895 l
200.434409 141.107973 l
201.34636 137.289064 l
202.258311 131.614736 l
203.170262 135.235017 l
204.082213 134.151136 l
204.994164 137.571472 l
205.906115 140.37616 l
206.818066 140.20295 l
207.730017 141.065423 l
209.553919 167.942751 l
210.46587 173.56587 l
211.377821 177.519769 l
212.289772 176.499335 l
213.201723 176.842367 l
214.113674 170.037277 l
215.025625 165.287552 l
215.937576 164.525051 l
216.849527 169.998681 l
217.761478 172.950409 l
218.673429 171.490172 l
219.58538 172.205229 l
220.497331 171.83904 l
221.409282 178.672182 l
222.321233 178.401635 l
223.233184 173.020634 l
224.145135 178.324067 l
225.057086 181.184295 l
225.969037 181.760407 l
226.880988 183.449959 l
227.792939 188.603528 l
228.70489 189.620008 l
229.616841 196.567432 l
230.528791 206.236326 l
231.440742 206.992426 l
232.352693 209.492301 l
233.264644 209.795796 l
234.176595 209.976349 l
235.088546 215.045759 l
236.000497 214.348777 l
236.912448 216.378913 l
237.824399 221.503487 l
238.73635 220.478535 l
239.648301 227.095729 l
240.560252 229.141304 l
241.472203 230.492909 l
242.384154 234.560901 l
243.296105 230.353776 l
244.208056 227.375501 l
245.120007 227.945024 l
246.031958 228.682674 l
246.943909 227.074831 l
247.85586 225.780838 l
248.767811 228.309142 l
250.591713 234.554688 l
251.503664 235.646289 l
252.415615 233.440494 l
253.327566 228.562744 l
254.239517 230.090948 l
255.151468 228.134049 l
256.063419 227.02268 l
256.97537 228.666106 l
257.887321 227.947095 l
258.799272 233.848668 l
259.711223 232.016029 l
260.623174 232.478236 l
261.535124 235.930579 l
263.359026 248.867498 l
264.270977 248.548189 l
265.182928 251.027731 l
266.094879 250.998737 l
267.00683 246.903445 l
267.918781 245.884706 l
268.830732 245.242698 l
269.742683 242.635885 l
270.654634 245.142914 l
272.478536 248.338454 l
273.390487 249.16591 l
274.302438 253.872897 l
275.214389 257.436508 l
276.12634 256.50701 l
277.038291 256.076432 l
277.950242 253.826017 l
278.862193 253.995838 l
279.774144 251.076305 l
280.686095 250.170717 l
281.598046 253.273815 l
282.509997 253.147108 l
283.421948 252.857734 l
284.333899 254.538438 l
285.24585 257.920179 l
286.157801 254.120286 l
287.069752 255.104007 l
287.981703 257.983627 l
288.893654 256.415886 l
289.805605 253.711736 l
292.541457 234.638092 l
293.453408 235.432223 l
294.365359 238.889461 l
295.27731 238.902829 l
296.189261 236.469978 l
297.101212 231.425043 l
298.013163 230.198828 l
298.925114 231.175959 l
299.837065 227.543628 l
300.749016 225.998669 l
301.660967 226.173762 l
302.572918 224.823475 l
303.484869 226.033499 l
304.39682 231.747741 l
305.308771 238.609689 l
306.220722 239.2677 l
307.132673 238.243877 l
308.044624 238.017197 l
308.956575 236.249135 l
309.868526 232.934984 l
310.780477 233.27105 l
311.692428 238.833356 l
312.604379 235.742119 l
313.51633 231.460815 l
314.428281 231.268966 l
315.340232 228.674955 l
316.252183 229.196468 l
317.164134 234.193206 l
318.076085 224.943969 l
318.988036 211.895028 l
319.899987 210.943878 l
320.811938 209.262986 l
321.723889 212.244837 l
322.63584 212.99736 l
323.54779 210.186272 l
324.459741 212.404304 l
325.371692 211.094307 l
326.283643 208.478457 l
327.195594 209.603758 l
328.107545 208.852365 l
329.019496 207.700141 l
329.931447 206.750309 l
330.843398 209.210082 l
331.755349 211.99293 l
332.6673 213.777559 l
333.579251 214.144125 l
334.491202 214.818515 l
335.403153 224.852469 l
336.315104 231.003502 l
337.227055 228.723529 l
338.139006 230.684193 l
339.050957 231.371762 l
339.962908 230.433979 l
341.78681 223.99922 l
342.698761 229.171616 l
344.522663 241.785649 l
345.434614 245.159482 l
346.346565 244.997757 l
347.258516 244.59749 l
348.170467 241.589469 l
349.082418 240.783477 l
349.994369 242.85974 l
351.818271 244.60841 l
352.730222 243.078136 l
353.642172 240.689341 l
354.554123 239.729531 l
355.466074 237.059081 l
356.378025 235.61673 l
357.289976 233.757544 l
358.201927 233.328096 l
359.113878 233.59676 l
360.025829 233.569837 l
360.93778 230.746323 l
361.849731 234.313511 l
362.761682 236.164601 l
363.673633 230.895999 l
365.497535 228.470679 l
366.409486 232.561453 l
367.321437 238.891344 l
368.233388 243.286741 l
369.145339 243.934773 l
370.05729 242.491104 l
370.969241 242.589382 l
372.793143 243.326655 l
373.705094 243.84798 l
374.617045 245.911817 l
375.528996 249.350228 l
376.440947 252.143807 l
377.352898 252.741006 l
377.352898 252.741006 l
stroke
grestore
0.800 setlinewidth
0 setlinejoin
[] 0 setdash
0.000 setgray
gsave
36.465625 23.871875 m
36.465625 289.983875 l
stroke
grestore
gsave
393.585625 23.871875 m
393.585625 289.983875 l
stroke
grestore
gsave
36.465625 23.871875 m
393.585625 23.871875 l
stroke
grestore
gsave
36.465625 289.983875 m
393.585625 289.983875 l
stroke
grestore
/DejaVuSans findfont
12.000 scalefont
setfont
gsave
100.025625 295.983875 translate
0.000000 rotate
0.000000 0.000000 m /R glyphshow
8.337891 0.000000 m /M glyphshow
18.691406 0.000000 m /S glyphshow
26.308594 0.000000 m /E glyphshow
33.890625 0.000000 m /space glyphshow
37.705078 0.000000 m /equal glyphshow
47.759766 0.000000 m /space glyphshow
51.574219 0.000000 m /zero glyphshow
59.208984 0.000000 m /period glyphshow
63.023438 0.000000 m /zero glyphshow
70.658203 0.000000 m /zero glyphshow
78.292969 0.000000 m /six glyphshow
85.927734 0.000000 m /three glyphshow
93.562500 0.000000 m /nine glyphshow
101.197266 0.000000 m /space glyphshow
105.011719 0.000000 m /R glyphshow
113.349609 0.000000 m /hyphen glyphshow
117.679688 0.000000 m /s glyphshow
123.931641 0.000000 m /q glyphshow
131.548828 0.000000 m /u glyphshow
139.154297 0.000000 m /a glyphshow
146.507812 0.000000 m /r glyphshow
151.441406 0.000000 m /e glyphshow
158.824219 0.000000 m /d glyphshow
166.441406 0.000000 m /space glyphshow
170.255859 0.000000 m /equal glyphshow
180.310547 0.000000 m /space glyphshow
184.125000 0.000000 m /nine glyphshow
191.759766 0.000000 m /eight glyphshow
199.394531 0.000000 m /period glyphshow
203.208984 0.000000 m /four glyphshow
210.843750 0.000000 m /zero glyphshow
218.478516 0.000000 m /percent glyphshow
grestore
1.000 setlinewidth
0 setlinecap
0.800 setgray
gsave
413.441625 257.640125 m
492.785375 257.640125 l
494.118708 257.640125 494.785375 258.306792 494.785375 259.640125 c
494.785375 287.983875 l
494.785375 289.317208 494.118708 289.983875 492.785375 289.983875 c
413.441625 289.983875 l
412.108292 289.983875 411.441625 289.317208 411.441625 287.983875 c
411.441625 259.640125 l
411.441625 258.306792 412.108292 257.640125 413.441625 257.640125 c
cl
gsave
1.000 setgray
fill
grestore
stroke
grestore
1.500 setlinewidth
1 setlinejoin
2 setlinecap
[] 0 setdash
0.122 0.467 0.706 setrgbcolor
gsave
415.441625 281.890125 m
435.441625 281.890125 l
stroke
grestore
0.000 setgray
/DejaVuSans findfont
10.000 scalefont
setfont
gsave
443.441625 278.390125 translate
0.000000 rotate
0.000000 0.000000 m /A glyphshow
6.840820 0.000000 m /c glyphshow
12.338867 0.000000 m /t glyphshow
16.259766 0.000000 m /u glyphshow
22.597656 0.000000 m /a glyphshow
28.725586 0.000000 m /l glyphshow
grestore
1.000 0.498 0.055 setrgbcolor
gsave
415.441625 267.21825 m
435.441625 267.21825 l
stroke
grestore
0.000 setgray
gsave
443.441625 263.718250 translate
0.000000 rotate
0.000000 0.000000 m /P glyphshow
6.030273 0.000000 m /r glyphshow
10.141602 0.000000 m /e glyphshow
16.293945 0.000000 m /d glyphshow
22.641602 0.000000 m /i glyphshow
25.419922 0.000000 m /c glyphshow
30.917969 0.000000 m /t glyphshow
34.838867 0.000000 m /e glyphshow
40.991211 0.000000 m /d glyphshow
grestore
/DejaVuSans findfont
12.000 scalefont
setfont
gsave
104.765625 315.418875 translate
0.000000 rotate
0.000000 0.000000 m /C glyphshow
8.378906 0.000000 m /o glyphshow
15.720703 0.000000 m /n glyphshow
23.326172 0.000000 m /v glyphshow
30.427734 0.000000 m /o glyphshow
37.769531 0.000000 m /l glyphshow
41.103516 0.000000 m /u glyphshow
48.708984 0.000000 m /t glyphshow
53.414062 0.000000 m /i glyphshow
56.748047 0.000000 m /o glyphshow
64.089844 0.000000 m /n glyphshow
71.695312 0.000000 m /a glyphshow
79.048828 0.000000 m /l glyphshow
82.382812 0.000000 m /space glyphshow
86.197266 0.000000 m /N glyphshow
95.173828 0.000000 m /N glyphshow
104.150391 0.000000 m /space glyphshow
107.964844 0.000000 m /parenleft glyphshow
112.646484 0.000000 m /three glyphshow
120.281250 0.000000 m /zero glyphshow
127.916016 0.000000 m /comma glyphshow
131.730469 0.000000 m /space glyphshow
135.544922 0.000000 m /two glyphshow
143.179688 0.000000 m /five glyphshow
150.814453 0.000000 m /zero glyphshow
158.449219 0.000000 m /comma glyphshow
162.263672 0.000000 m /space glyphshow
166.078125 0.000000 m /five glyphshow
173.712891 0.000000 m /zero glyphshow
181.347656 0.000000 m /zero glyphshow
188.982422 0.000000 m /comma glyphshow
192.796875 0.000000 m /space glyphshow
196.611328 0.000000 m /one glyphshow
204.246094 0.000000 m /parenright glyphshow
grestore

end
showpage
